

		|| MODEL noZc ||


Starting fit JpsipK_fit_mode_comb_only...

 PARAMETER DEFINITIONS:
    NO.   NAME         VALUE      STEP SIZE      LIMITS
     1 K1410_1_Bw1_amp   1.00000e+00  1.00000e-01    0.00000e+00  1.00000e+12
 MINUIT WARNING IN PARAM DEF
 ============== LIMITS ON PARAM1 TOO FAR APART.
 MINUIT WARNING IN PARAMETR
 ============== VARIABLE1 IS AT ITS LOWER ALLOWED LIMIT.
 PARAMETER DEFINITIONS:
    NO.   NAME         VALUE      STEP SIZE      LIMITS
     2 K1410_1_Bw1_phi  -3.37954e+00  5.00000e-02   -2.51327e+01  2.51327e+01
     3 K1430_0_Bw1_amp   1.08597e+06  1.00000e-01    0.00000e+00  1.00000e+12
 MINUIT WARNING IN PARAM DEF
 ============== LIMITS ON PARAM3 TOO FAR APART.
 PARAMETER DEFINITIONS:
    NO.   NAME         VALUE      STEP SIZE      LIMITS
     4 K1430_0_Bw1_phi   4.63843e+00  5.00000e-02   -2.51327e+01  2.51327e+01
     5 K1430_2_Bw1_amp   3.00369e+07  1.00000e-01    0.00000e+00  1.00000e+12
 MINUIT WARNING IN PARAM DEF
 ============== LIMITS ON PARAM5 TOO FAR APART.
 PARAMETER DEFINITIONS:
    NO.   NAME         VALUE      STEP SIZE      LIMITS
     6 K1430_2_Bw1_phi   3.08851e+00  5.00000e-02   -2.51327e+01  2.51327e+01
     7 K1680_1_Bw1_amp   2.38418e+06  1.00000e-01    0.00000e+00  1.00000e+12
 MINUIT WARNING IN PARAM DEF
 ============== LIMITS ON PARAM7 TOO FAR APART.
 PARAMETER DEFINITIONS:
    NO.   NAME         VALUE      STEP SIZE      LIMITS
     8 K1680_1_Bw1_phi   2.28649e+00  5.00000e-02   -2.51327e+01  2.51327e+01
     9 K1780_3_Bw1_amp   6.16753e+04  1.00000e-01    0.00000e+00  1.00000e+12
 MINUIT WARNING IN PARAM DEF
 ============== LIMITS ON PARAM9 TOO FAR APART.
 PARAMETER DEFINITIONS:
    NO.   NAME         VALUE      STEP SIZE      LIMITS
    10 K1780_3_Bw1_phi   2.67779e+00  5.00000e-02   -2.51327e+01  2.51327e+01
    11 K1950_0_Bw1_amp   9.31285e+05  1.00000e-01    0.00000e+00  1.00000e+12
 MINUIT WARNING IN PARAM DEF
 ============== LIMITS ON PARAM11 TOO FAR APART.
 PARAMETER DEFINITIONS:
    NO.   NAME         VALUE      STEP SIZE      LIMITS
    12 K1950_0_Bw1_phi   1.16666e+00  5.00000e-02   -2.51327e+01  2.51327e+01
    13 K2045_4_Bw1_amp   1.08034e+10  1.00000e-01    0.00000e+00  1.00000e+12
 MINUIT WARNING IN PARAM DEF
 ============== LIMITS ON PARAM13 TOO FAR APART.
 PARAMETER DEFINITIONS:
    NO.   NAME         VALUE      STEP SIZE      LIMITS
    14 K2045_4_Bw1_phi   3.31624e+00  5.00000e-02   -2.51327e+01  2.51327e+01
    15 K1980_2_Bw1_amp   8.67662e+07  1.00000e-01    0.00000e+00  1.00000e+12
 MINUIT WARNING IN PARAM DEF
 ============== LIMITS ON PARAM15 TOO FAR APART.
 PARAMETER DEFINITIONS:
    NO.   NAME         VALUE      STEP SIZE      LIMITS
    16 K1980_2_Bw1_phi   1.36198e+00  5.00000e-02   -2.51327e+01  2.51327e+01
    17 K1410_1_Bw2_amp   3.80863e+06  1.00000e-01    0.00000e+00  1.00000e+12
 MINUIT WARNING IN PARAM DEF
 ============== LIMITS ON PARAM17 TOO FAR APART.
 PARAMETER DEFINITIONS:
    NO.   NAME         VALUE      STEP SIZE      LIMITS
    18 K1410_1_Bw2_phi   5.31811e+00  5.00000e-02   -2.51327e+01  2.51327e+01
    19 K1410_1_Bw3_amp   2.78166e+07  1.00000e-01    0.00000e+00  1.00000e+12
 MINUIT WARNING IN PARAM DEF
 ============== LIMITS ON PARAM19 TOO FAR APART.
 PARAMETER DEFINITIONS:
    NO.   NAME         VALUE      STEP SIZE      LIMITS
    20 K1410_1_Bw3_phi   4.49229e+00  5.00000e-02   -2.51327e+01  2.51327e+01
    21 K1430_2_Bw2_amp   4.86515e+07  1.00000e-01    0.00000e+00  1.00000e+12
 MINUIT WARNING IN PARAM DEF
 ============== LIMITS ON PARAM21 TOO FAR APART.
 PARAMETER DEFINITIONS:
    NO.   NAME         VALUE      STEP SIZE      LIMITS
    22 K1430_2_Bw2_phi   4.39671e+00  5.00000e-02   -2.51327e+01  2.51327e+01
    23 K1430_2_Bw3_amp   2.25527e+05  1.00000e-01    0.00000e+00  1.00000e+12
 MINUIT WARNING IN PARAM DEF
 ============== LIMITS ON PARAM23 TOO FAR APART.
 PARAMETER DEFINITIONS:
    NO.   NAME         VALUE      STEP SIZE      LIMITS
    24 K1430_2_Bw3_phi   4.54608e+00  5.00000e-02   -2.51327e+01  2.51327e+01
    25 K1680_1_Bw2_amp   4.55731e+06  1.00000e-01    0.00000e+00  1.00000e+12
 MINUIT WARNING IN PARAM DEF
 ============== LIMITS ON PARAM25 TOO FAR APART.
 PARAMETER DEFINITIONS:
    NO.   NAME         VALUE      STEP SIZE      LIMITS
    26 K1680_1_Bw2_phi   5.19935e+00  5.00000e-02   -2.51327e+01  2.51327e+01
    27 K1680_1_Bw3_amp   2.14931e+07  1.00000e-01    0.00000e+00  1.00000e+12
 MINUIT WARNING IN PARAM DEF
 ============== LIMITS ON PARAM27 TOO FAR APART.
 PARAMETER DEFINITIONS:
    NO.   NAME         VALUE      STEP SIZE      LIMITS
    28 K1680_1_Bw3_phi   2.05329e+00  5.00000e-02   -2.51327e+01  2.51327e+01
    29 K1780_3_Bw2_amp   1.61095e+08  1.00000e-01    0.00000e+00  1.00000e+12
 MINUIT WARNING IN PARAM DEF
 ============== LIMITS ON PARAM29 TOO FAR APART.
 PARAMETER DEFINITIONS:
    NO.   NAME         VALUE      STEP SIZE      LIMITS
    30 K1780_3_Bw2_phi   3.21568e+00  5.00000e-02   -2.51327e+01  2.51327e+01
    31 K1780_3_Bw3_amp   6.02307e+08  1.00000e-01    0.00000e+00  1.00000e+12
 MINUIT WARNING IN PARAM DEF
 ============== LIMITS ON PARAM31 TOO FAR APART.
 PARAMETER DEFINITIONS:
    NO.   NAME         VALUE      STEP SIZE      LIMITS
    32 K1780_3_Bw3_phi   5.71571e+00  5.00000e-02   -2.51327e+01  2.51327e+01
    33 K1980_2_Bw2_amp   3.23797e+00  1.00000e-01    0.00000e+00  1.00000e+12
 MINUIT WARNING IN PARAM DEF
 ============== LIMITS ON PARAM33 TOO FAR APART.
 MINUIT WARNING IN PARAMETR
 ============== VARIABLE33 IS AT ITS LOWER ALLOWED LIMIT.
 PARAMETER DEFINITIONS:
    NO.   NAME         VALUE      STEP SIZE      LIMITS
    34 K1980_2_Bw2_phi   3.02318e+00  5.00000e-02   -2.51327e+01  2.51327e+01
    35 K1980_2_Bw3_amp   2.33249e+08  1.00000e-01    0.00000e+00  1.00000e+12
 MINUIT WARNING IN PARAM DEF
 ============== LIMITS ON PARAM35 TOO FAR APART.
 PARAMETER DEFINITIONS:
    NO.   NAME         VALUE      STEP SIZE      LIMITS
    36 K1980_2_Bw3_phi   4.35891e+00  5.00000e-02   -2.51327e+01  2.51327e+01
    37 K2045_4_Bw2_amp   4.62632e+10  1.00000e-01    0.00000e+00  1.00000e+12
 MINUIT WARNING IN PARAM DEF
 ============== LIMITS ON PARAM37 TOO FAR APART.
 PARAMETER DEFINITIONS:
    NO.   NAME         VALUE      STEP SIZE      LIMITS
    38 K2045_4_Bw2_phi   3.73276e+00  5.00000e-02   -2.51327e+01  2.51327e+01
    39 K2045_4_Bw3_amp   1.54201e+07  1.00000e-01    0.00000e+00  1.00000e+12
 MINUIT WARNING IN PARAM DEF
 ============== LIMITS ON PARAM39 TOO FAR APART.
 PARAMETER DEFINITIONS:
    NO.   NAME         VALUE      STEP SIZE      LIMITS
    40 K2045_4_Bw3_phi  -3.69618e+00  5.00000e-02   -2.51327e+01  2.51327e+01
    41 X1Bs1_amp    1.51477e+36  1.00000e-01    0.00000e+00  1.00000e+12
 MINUIT WARNING IN PARAM DEF
 ============== LIMITS ON PARAM41 TOO FAR APART.
 MINUIT WARNING IN PARAM DEF
 ============== STARTING VALUE OUTSIDE LIMITS.
 MINUIT WARNING IN PARAMETR
 ============== VARIABLE41 BROUGHT BACK INSIDE LIMITS.
 PARAMETER DEFINITIONS:
    NO.   NAME         VALUE      STEP SIZE      LIMITS
    42 X1Bs1_phi    7.13839e-01  5.00000e-02   -2.51327e+01  2.51327e+01
    43 X1Bs2_amp    0.00000e+00  1.00000e-01    0.00000e+00  1.00000e+12
 MINUIT WARNING IN PARAM DEF
 ============== LIMITS ON PARAM43 TOO FAR APART.
 MINUIT WARNING IN PARAM DEF
 ============== STARTING VALUE IS AT LIMIT.
 MINUIT WARNING IN PARAMETR
 ============== VARIABLE43 IS AT ITS LOWER ALLOWED LIMIT.
 PARAMETER DEFINITIONS:
    NO.   NAME         VALUE      STEP SIZE      LIMITS
    44 X1Bs2_phi    3.85543e+00  5.00000e-02   -2.51327e+01  2.51327e+01
    45 gamma_Zc4200   3.29954e-01  1.00000e-02    0.00000e+00  1.20000e+00
    46 m_Zc4200     4.16118e+00  1.00000e-02    3.90000e+00  4.70000e+00
    47 n_BD_to_JPSI_K_PI_par   0.00000e+00  1.00000e-01     no limits
    48 phi1680_1_Bw1_amp   1.00000e+00  5.00000e-02    0.00000e+00  1.00000e+12
 MINUIT WARNING IN PARAM DEF
 ============== LIMITS ON PARAM48 TOO FAR APART.
 MINUIT WARNING IN PARAMETR
 ============== VARIABLE48 IS AT ITS LOWER ALLOWED LIMIT.
 PARAMETER DEFINITIONS:
    NO.   NAME         VALUE      STEP SIZE      LIMITS
    49 phi1680_1_Bw1_phi  -2.22337e-01  1.00000e-01   -2.51327e+01  2.51327e+01
    50 phi1680_1_Bw2_amp   2.10520e+07  5.00000e-02    0.00000e+00  1.00000e+12
 MINUIT WARNING IN PARAM DEF
 ============== LIMITS ON PARAM50 TOO FAR APART.
 PARAMETER DEFINITIONS:
    NO.   NAME         VALUE      STEP SIZE      LIMITS
    51 phi1680_1_Bw2_phi   2.95741e+00  1.00000e-01   -2.51327e+01  2.51327e+01
    52 phi1680_1_Bw3_amp   8.40081e+06  5.00000e-02    0.00000e+00  1.00000e+12
 MINUIT WARNING IN PARAM DEF
 ============== LIMITS ON PARAM52 TOO FAR APART.
 PARAMETER DEFINITIONS:
    NO.   NAME         VALUE      STEP SIZE      LIMITS
    53 phi1680_1_Bw3_phi  -4.03070e+00  1.00000e-01   -2.51327e+01  2.51327e+01
    54 f1525_2_Bw1_amp   2.42362e-01  5.00000e-02    0.00000e+00  1.00000e+12
 MINUIT WARNING IN PARAM DEF
 ============== LIMITS ON PARAM54 TOO FAR APART.
 MINUIT WARNING IN PARAMETR
 ============== VARIABLE54 IS AT ITS LOWER ALLOWED LIMIT.
 PARAMETER DEFINITIONS:
    NO.   NAME         VALUE      STEP SIZE      LIMITS
    55 f1525_2_Bw1_phi   2.78938e+00  1.00000e-01   -2.51327e+01  2.51327e+01
    56 f1525_2_Bw2_amp   4.25078e+05  5.00000e-02    0.00000e+00  1.00000e+12
 MINUIT WARNING IN PARAM DEF
 ============== LIMITS ON PARAM56 TOO FAR APART.
 PARAMETER DEFINITIONS:
    NO.   NAME         VALUE      STEP SIZE      LIMITS
    57 f1525_2_Bw2_phi   4.65707e+00  1.00000e-01   -2.51327e+01  2.51327e+01
    58 f1525_2_Bw3_amp   1.06976e+07  5.00000e-02    0.00000e+00  1.00000e+12
 MINUIT WARNING IN PARAM DEF
 ============== LIMITS ON PARAM58 TOO FAR APART.
 PARAMETER DEFINITIONS:
    NO.   NAME         VALUE      STEP SIZE      LIMITS
    59 f1525_2_Bw3_phi   6.01740e+00  1.00000e-01   -2.51327e+01  2.51327e+01
    60 f1640_2_Bw1_amp   6.14906e+07  5.00000e-02    0.00000e+00  1.00000e+12
 MINUIT WARNING IN PARAM DEF
 ============== LIMITS ON PARAM60 TOO FAR APART.
 PARAMETER DEFINITIONS:
    NO.   NAME         VALUE      STEP SIZE      LIMITS
    61 f1640_2_Bw1_phi  -2.13025e+00  1.00000e-01   -2.51327e+01  2.51327e+01
    62 f1640_2_Bw2_amp   5.40988e+07  5.00000e-02    0.00000e+00  1.00000e+12
 MINUIT WARNING IN PARAM DEF
 ============== LIMITS ON PARAM62 TOO FAR APART.
 PARAMETER DEFINITIONS:
    NO.   NAME         VALUE      STEP SIZE      LIMITS
    63 f1640_2_Bw2_phi   3.96333e+00  1.00000e-01   -2.51327e+01  2.51327e+01
    64 f1640_2_Bw3_amp   3.60031e+08  5.00000e-02    0.00000e+00  1.00000e+12
 MINUIT WARNING IN PARAM DEF
 ============== LIMITS ON PARAM64 TOO FAR APART.
 PARAMETER DEFINITIONS:
    NO.   NAME         VALUE      STEP SIZE      LIMITS
    65 f1640_2_Bw3_phi  -2.14422e+00  1.00000e-01   -2.51327e+01  2.51327e+01
    66 f1750_2_Bw1_amp   5.06844e+07  5.00000e-02    0.00000e+00  1.00000e+12
 MINUIT WARNING IN PARAM DEF
 ============== LIMITS ON PARAM66 TOO FAR APART.
 PARAMETER DEFINITIONS:
    NO.   NAME         VALUE      STEP SIZE      LIMITS
    67 f1750_2_Bw1_phi   1.82411e+00  5.00000e-02   -2.51327e+01  2.51327e+01
    68 f1750_2_Bw2_amp   1.98081e+07  1.00000e-01    0.00000e+00  1.00000e+12
 MINUIT WARNING IN PARAM DEF
 ============== LIMITS ON PARAM68 TOO FAR APART.
 PARAMETER DEFINITIONS:
    NO.   NAME         VALUE      STEP SIZE      LIMITS
    69 f1750_2_Bw2_phi  -4.63600e+00  5.00000e-02   -2.51327e+01  2.51327e+01
    70 f1750_2_Bw3_amp   1.96243e+05  1.00000e-01    0.00000e+00  1.00000e+12
 MINUIT WARNING IN PARAM DEF
 ============== LIMITS ON PARAM70 TOO FAR APART.
 PARAMETER DEFINITIONS:
    NO.   NAME         VALUE      STEP SIZE      LIMITS
    71 f1750_2_Bw3_phi   2.78858e+00  5.00000e-02   -2.51327e+01  2.51327e+01
    72 f1950_2_Bw1_amp   1.05843e+08  1.00000e-01    0.00000e+00  1.00000e+12
 MINUIT WARNING IN PARAM DEF
 ============== LIMITS ON PARAM72 TOO FAR APART.
 PARAMETER DEFINITIONS:
    NO.   NAME         VALUE      STEP SIZE      LIMITS
    73 f1950_2_Bw1_phi   1.94791e+00  5.00000e-02   -2.51327e+01  2.51327e+01
    74 f1950_2_Bw2_amp   3.57713e+03  1.00000e-01    0.00000e+00  1.00000e+12
 MINUIT WARNING IN PARAM DEF
 ============== LIMITS ON PARAM74 TOO FAR APART.
 MINUIT WARNING IN PARAMETR
 ============== VARIABLE74 IS AT ITS LOWER ALLOWED LIMIT.
 PARAMETER DEFINITIONS:
    NO.   NAME         VALUE      STEP SIZE      LIMITS
    75 f1950_2_Bw2_phi   3.79661e-01  5.00000e-02   -2.51327e+01  2.51327e+01
    76 f1950_2_Bw3_amp   8.12680e+05  1.00000e-01    0.00000e+00  1.00000e+12
 MINUIT WARNING IN PARAM DEF
 ============== LIMITS ON PARAM76 TOO FAR APART.
 PARAMETER DEFINITIONS:
    NO.   NAME         VALUE      STEP SIZE      LIMITS
    77 f1950_2_Bw3_phi   6.03276e+00  5.00000e-02   -2.51327e+01  2.51327e+01
    78 NR_Bw1_amp   1.02986e+06  1.00000e-01    0.00000e+00  1.00000e+12
 MINUIT WARNING IN PARAM DEF
 ============== LIMITS ON PARAM78 TOO FAR APART.
 PARAMETER DEFINITIONS:
    NO.   NAME         VALUE      STEP SIZE      LIMITS
    79 NR_Bw1_phi   3.53657e+00  5.00000e-02   -2.51327e+01  2.51327e+01
    80 n_BS_to_JPSI_K_K_par   0.00000e+00  1.00000e-01     no limits
    81 n_lambda     7.61126e+03  1.00000e+02     no limits
    82 n_BS_PIPI    5.48736e+03  1.00000e+02     no limits
    83 n_BD_PIPI    3.27002e+03  1.00000e+02     no limits
    84 n_BD_KPI     5.05163e+04  1.00000e+02     no limits
    85 n_BS_KK      1.68903e+04  1.00000e+02     no limits
    86 p0           6.37526e+00  1.00000e-02     no limits
    87 p1          -1.92082e+00  1.00000e-02     no limits
    88 p2          -4.36636e+00  1.00000e-02     no limits
    89 p3           2.41845e+00  1.00000e-02     no limits
    90 a0          -2.25140e-03  1.00000e-02     no limits
    91 b0           2.34195e-02  1.00000e-02     no limits
    92 b1           3.00830e-01  1.00000e-02     no limits
    93 b2          -1.38883e-01  1.00000e-02     no limits
    94 x0_KK        4.97808e+00  1.00000e-02     no limits
    95 d0_KK        1.60534e+00  1.00000e-02     no limits
    96 p0_KK        1.23989e+01  1.00000e-02     no limits
    97 p1_KK       -1.76762e+01  1.00000e-02     no limits
    98 p2_KK        1.74976e+01  1.00000e-02     no limits
    99 p3_KK       -9.90509e+00  1.00000e-02     no limits
   100 p4_KK        0.00000e+00  1.00000e-02     no limits
   101 p5_KK        0.00000e+00  1.00000e-02     no limits
   102 x0_pipi      4.57875e+00  1.00000e-02     no limits
   103 d0_pipi     -2.86077e-01  1.00000e-02     no limits
   104 p0_pipi     -1.89772e+00  1.00000e-02     no limits
   105 p1_pipi      7.05469e+01  1.00000e-02     no limits
   106 p2_pipi     -2.10510e+02  1.00000e-02     no limits
   107 p3_pipi      2.46630e+02  1.00000e-02     no limits
   108 p4_pipi     -1.01855e+02  1.00000e-02     no limits
   109 p5_pipi      0.00000e+00  1.00000e-02     no limits
   110 p6_pipi      0.00000e+00  1.00000e-02     no limits
   111 x0_pKKp     -2.29736e-01  1.00000e-02     no limits
   112 d0_pKKp      5.17916e+00  1.00000e-02     no limits
   113 p0_pKKp      1.26874e+01  1.00000e-02     no limits
   114 p1_pKKp     -1.82249e+01  1.00000e-02     no limits
   115 p2_pKKp      9.63609e+00  1.00000e-02     no limits
   116 p3_pKKp     -2.80796e+00  1.00000e-02     no limits
   117 a0_pKKp      4.76578e-02  1.00000e-02     no limits
   118 b0_pKKp      1.34201e-01  1.00000e-02     no limits
   119 b1_pKKp      4.43410e-01  1.00000e-02     no limits
   120 b2_pKKp     -6.25606e-02  1.00000e-02     no limits
   121 u0_pKKp      7.58968e+00  1.00000e-02     no limits
   122 Ls1800_12_Bw1_amp   1.39621e-01  1.00000e-01     no limits
   123 Ls1800_12_Bw1_phi   0.00000e+00  5.00000e-02     no limits
   124 Ls1800_12_Bw2_amp   0.00000e+00  1.00000e-01     no limits
   125 Ls1800_12_Bw2_phi   0.00000e+00  5.00000e-02     no limits
   126 Ls1800_12_Bw3_amp   0.00000e+00  1.00000e-01     no limits
   127 Ls1800_12_Bw3_phi   0.00000e+00  5.00000e-02     no limits
   128 Ls1800_12_Bw4_amp   0.00000e+00  1.00000e-01     no limits
   129 Ls1800_12_Bw4_phi   0.00000e+00  5.00000e-02     no limits
   130 Ls1810_12_Bw1_amp   1.01411e-01  1.00000e-01     no limits
   131 Ls1810_12_Bw1_phi   8.91120e-01  5.00000e-02     no limits
   132 Ls1810_12_Bw2_amp   0.00000e+00  1.00000e-01     no limits
   133 Ls1810_12_Bw2_phi   0.00000e+00  5.00000e-02     no limits
   134 Ls1810_12_Bw3_amp   0.00000e+00  1.00000e-01     no limits
   135 Ls1810_12_Bw3_phi   0.00000e+00  5.00000e-02     no limits
   136 Ls1820_52_Bw1_amp   0.00000e+00  1.00000e-01     no limits
   137 Ls1820_52_Bw1_phi   0.00000e+00  5.00000e-02     no limits
   138 Ls1820_52_Bw2_amp   0.00000e+00  1.00000e-01     no limits
   139 Ls1820_52_Bw2_phi   0.00000e+00  5.00000e-02     no limits
   140 Ls1820_52_Bw3_amp   0.00000e+00  1.00000e-01     no limits
   141 Ls1820_52_Bw3_phi   0.00000e+00  5.00000e-02     no limits
   142 Ls1830_52_Bw1_amp   0.00000e+00  1.00000e-01     no limits
   143 Ls1830_52_Bw1_phi   0.00000e+00  5.00000e-02     no limits
   144 Ls1830_52_Bw2_amp   0.00000e+00  1.00000e-01     no limits
   145 Ls1830_52_Bw2_phi   0.00000e+00  5.00000e-02     no limits
   146 Ls1830_52_Bw3_amp   0.00000e+00  1.00000e-01     no limits
   147 Ls1830_52_Bw3_phi   0.00000e+00  5.00000e-02     no limits
   148 Ls1890_32_Bw1_amp   1.61415e+00  1.00000e-01     no limits
   149 Ls1890_32_Bw1_phi  -2.27292e+00  5.00000e-02     no limits
   150 Ls1890_32_Bw2_amp   0.00000e+00  1.00000e-01     no limits
   151 Ls1890_32_Bw2_phi   0.00000e+00  5.00000e-02     no limits
   152 Ls1890_32_Bw3_amp   0.00000e+00  1.00000e-01     no limits
   153 Ls1890_32_Bw3_phi   0.00000e+00  5.00000e-02     no limits
   154 Ls2020_72_Bw1_amp   0.00000e+00  1.00000e-01     no limits
   155 Ls2020_72_Bw1_phi   0.00000e+00  5.00000e-02     no limits
   156 Ls2020_72_Bw2_amp   0.00000e+00  1.00000e-01     no limits
   157 Ls2020_72_Bw2_phi   0.00000e+00  5.00000e-02     no limits
   158 Ls2020_72_Bw3_amp   0.00000e+00  1.00000e-01     no limits
   159 Ls2020_72_Bw3_phi   0.00000e+00  5.00000e-02     no limits
   160 Ls2050_32_Bw1_amp   0.00000e+00  1.00000e-01     no limits
   161 Ls2050_32_Bw1_phi   0.00000e+00  5.00000e-02     no limits
   162 Ls2050_32_Bw2_amp   0.00000e+00  1.00000e-01     no limits
   163 Ls2050_32_Bw2_phi   0.00000e+00  5.00000e-02     no limits
   164 Ls2050_32_Bw3_amp   0.00000e+00  1.00000e-01     no limits
   165 Ls2050_32_Bw3_phi   0.00000e+00  5.00000e-02     no limits
   166 Ls2100_72_Bw1_amp   3.16228e+02  1.00000e-01     no limits
   167 Ls2100_72_Bw1_phi  -2.29901e+00  5.00000e-02     no limits
   168 Ls2100_72_Bw2_amp   0.00000e+00  1.00000e-01     no limits
   169 Ls2100_72_Bw2_phi   0.00000e+00  5.00000e-02     no limits
   170 Ls2100_72_Bw3_amp   0.00000e+00  1.00000e-01     no limits
   171 Ls2100_72_Bw3_phi   0.00000e+00  5.00000e-02     no limits
   172 Ls2110_52_Bw1_amp   5.44105e+01  1.00000e-01     no limits
   173 Ls2110_52_Bw1_phi   9.14406e-01  5.00000e-02     no limits
   174 Ls2110_52_Bw2_amp   0.00000e+00  1.00000e-01     no limits
   175 Ls2110_52_Bw2_phi   0.00000e+00  5.00000e-02     no limits
   176 Ls2110_52_Bw3_amp   0.00000e+00  1.00000e-01     no limits
   177 Ls2110_52_Bw3_phi   0.00000e+00  5.00000e-02     no limits
   178 Ls2325_32_Bw1_amp   0.00000e+00  1.00000e-01     no limits
   179 Ls2325_32_Bw1_phi   0.00000e+00  5.00000e-02     no limits
   180 Ls2325_32_Bw2_amp   0.00000e+00  1.00000e-01     no limits
   181 Ls2325_32_Bw2_phi   0.00000e+00  5.00000e-02     no limits
   182 Ls2325_32_Bw3_amp   0.00000e+00  1.00000e-01     no limits
   183 Ls2325_32_Bw3_phi   0.00000e+00  5.00000e-02     no limits
   184 Ls2350_92_Bw1_amp   0.00000e+00  1.00000e-01     no limits
   185 Ls2350_92_Bw1_phi   0.00000e+00  5.00000e-02     no limits
   186 Ls2350_92_Bw2_amp   0.00000e+00  1.00000e-01     no limits
   187 Ls2350_92_Bw2_phi   0.00000e+00  5.00000e-02     no limits
   188 LsNR_12_Bw_amp   0.00000e+00  1.00000e-01     no limits
   189 LsNR_12_Bw_phi   0.00000e+00  5.00000e-02     no limits
   190 Pc1Bw1_amp   0.00000e+00  1.00000e-01     no limits
   191 Pc1Bw1_phi   0.00000e+00  5.00000e-02     no limits
   192 Pc1Bw2_amp   0.00000e+00  1.00000e-01     no limits
   193 Pc1Bw2_phi   0.00000e+00  5.00000e-02     no limits
   194 Pc1Bs1_amp   0.00000e+00  1.00000e-01     no limits
   195 Pc1Bs1_phi   0.00000e+00  5.00000e-02     no limits
   196 Pc1Bs2_amp   0.00000e+00  1.00000e-01     no limits
   197 Pc1Bs2_phi   0.00000e+00  5.00000e-02     no limits
   198 Pc1Bs3_amp   0.00000e+00  1.00000e-01     no limits
   199 Pc1Bs3_phi   0.00000e+00  5.00000e-02     no limits
   200 Pc2Bw1_amp   0.00000e+00  1.00000e-01     no limits
   201 Pc2Bw1_phi   0.00000e+00  5.00000e-02     no limits
   202 Pc2Bw2_amp   0.00000e+00  1.00000e-01     no limits
   203 Pc2Bw2_phi   0.00000e+00  5.00000e-02     no limits
   204 Pc2Bs1_amp   0.00000e+00  1.00000e-01     no limits
   205 Pc2Bs1_phi   0.00000e+00  5.00000e-02     no limits
   206 Pc2Bs2_amp   0.00000e+00  1.00000e-01     no limits
   207 Pc2Bs2_phi   0.00000e+00  5.00000e-02     no limits
   208 Pc2Bs3_amp   0.00000e+00  1.00000e-01     no limits
   209 Pc2Bs3_phi   0.00000e+00  5.00000e-02     no limits
   210 M01          4.29749e+00  1.00000e-02     no limits
   211 M02          4.40093e+00  1.00000e-02     no limits
   212 gamma1       1.56593e-01  1.00000e-02     no limits
   213 gamma2       3.11330e-02  1.00000e-02     no limits
   214 comb_bg_norm   5.89049e+04  1.00000e+02     no limits
   215 n_LB_PPI     1.00000e+02  5.00000e+01    0.00000e+00  1.00000e+04
   216 n_BD_KK      1.00000e+02  5.00000e+01    0.00000e+00  1.00000e+04
   217 n_BS_KPI     1.00000e+02  5.00000e+01    0.00000e+00  1.00000e+04
   218 KNR_0_Bw_amp   9.08437e+05  1.00000e-01    0.00000e+00  1.00000e+12
 MINUIT WARNING IN PARAM DEF
 ============== LIMITS ON PARAM218 TOO FAR APART.
 PARAMETER DEFINITIONS:
    NO.   NAME         VALUE      STEP SIZE      LIMITS
   219 KNR_0_Bw_phi  -8.92102e-01  5.00000e-02   -2.51327e+01  2.51327e+01
 **********
 **    1 **FIX          86
 **********
 **********
 **    2 **FIX         104
 **********
 **********
 **    3 **FIX          96
 **********
 **********
 **    4 **FIX         113
 **********
 **********
 **    5 **FIX           1
 **********
 **********
 **    6 **FIX           2
 **********
 **********
 **    7 **FIX           3
 **********
 **********
 **    8 **FIX           4
 **********
 **********
 **    9 **FIX           5
 **********
 **********
 **   10 **FIX           6
 **********
 **********
 **   11 **FIX           7
 **********
 **********
 **   12 **FIX           8
 **********
 **********
 **   13 **FIX           9
 **********
 **********
 **   14 **FIX          10
 **********
 **********
 **   15 **FIX          11
 **********
 **********
 **   16 **FIX          12
 **********
 **********
 **   17 **FIX          13
 **********
 **********
 **   18 **FIX          14
 **********
 **********
 **   19 **FIX          15
 **********
 **********
 **   20 **FIX          16
 **********
 **********
 **   21 **FIX          17
 **********
 **********
 **   22 **FIX          18
 **********
 **********
 **   23 **FIX          19
 **********
 **********
 **   24 **FIX          20
 **********
 **********
 **   25 **FIX          21
 **********
 **********
 **   26 **FIX          22
 **********
 **********
 **   27 **FIX          23
 **********
 **********
 **   28 **FIX          24
 **********
 **********
 **   29 **FIX          25
 **********
 **********
 **   30 **FIX          26
 **********
 **********
 **   31 **FIX          27
 **********
 **********
 **   32 **FIX          28
 **********
 **********
 **   33 **FIX          29
 **********
 **********
 **   34 **FIX          30
 **********
 **********
 **   35 **FIX          31
 **********
 **********
 **   36 **FIX          32
 **********
 **********
 **   37 **FIX          33
 **********
 **********
 **   38 **FIX          34
 **********
 **********
 **   39 **FIX          35
 **********
 **********
 **   40 **FIX          36
 **********
 **********
 **   41 **FIX          37
 **********
 **********
 **   42 **FIX          38
 **********
 **********
 **   43 **FIX          39
 **********
 **********
 **   44 **FIX          40
 **********
 **********
 **   45 **FIX          41
 **********
 **********
 **   46 **FIX          42
 **********
 **********
 **   47 **FIX          43
 **********
 **********
 **   48 **FIX          44
 **********
 **********
 **   49 **FIX          45
 **********
 **********
 **   50 **FIX          46
 **********
 **********
 **   51 **FIX          47
 **********
 **********
 **   52 **FIX          48
 **********
 **********
 **   53 **FIX          49
 **********
 **********
 **   54 **FIX          50
 **********
 **********
 **   55 **FIX          51
 **********
 **********
 **   56 **FIX          52
 **********
 **********
 **   57 **FIX          53
 **********
 **********
 **   58 **FIX          54
 **********
 **********
 **   59 **FIX          55
 **********
 **********
 **   60 **FIX          56
 **********
 **********
 **   61 **FIX          57
 **********
 **********
 **   62 **FIX          58
 **********
 **********
 **   63 **FIX          59
 **********
 **********
 **   64 **FIX          60
 **********
 **********
 **   65 **FIX          61
 **********
 **********
 **   66 **FIX          62
 **********
 **********
 **   67 **FIX          63
 **********
 **********
 **   68 **FIX          64
 **********
 **********
 **   69 **FIX          65
 **********
 **********
 **   70 **FIX          66
 **********
 **********
 **   71 **FIX          67
 **********
 **********
 **   72 **FIX          68
 **********
 **********
 **   73 **FIX          69
 **********
 **********
 **   74 **FIX          70
 **********
 **********
 **   75 **FIX          71
 **********
 **********
 **   76 **FIX          72
 **********
 **********
 **   77 **FIX          73
 **********
 **********
 **   78 **FIX          74
 **********
 **********
 **   79 **FIX          75
 **********
 **********
 **   80 **FIX          76
 **********
 **********
 **   81 **FIX          77
 **********
 **********
 **   82 **FIX          78
 **********
 **********
 **   83 **FIX          79
 **********
 **********
 **   84 **FIX          80
 **********
 **********
 **   85 **FIX          81
 **********
 **********
 **   86 **FIX          82
 **********
 **********
 **   87 **FIX          83
 **********
 **********
 **   88 **FIX          84
 **********
 **********
 **   89 **FIX          85
 **********
 **********
 **   90 **FIX          86
 **********
 PARAMETER   86  ALREADY FIXED. IGNORED.
 **********
 **   91 **FIX          87
 **********
 **********
 **   92 **FIX          88
 **********
 **********
 **   93 **FIX          89
 **********
 **********
 **   94 **FIX          90
 **********
 **********
 **   95 **FIX          91
 **********
 **********
 **   96 **FIX          92
 **********
 **********
 **   97 **FIX          93
 **********
 **********
 **   98 **FIX          94
 **********
 **********
 **   99 **FIX          95
 **********
 **********
 **  100 **FIX          96
 **********
 PARAMETER   96  ALREADY FIXED. IGNORED.
 **********
 **  101 **FIX          97
 **********
 **********
 **  102 **FIX          98
 **********
 **********
 **  103 **FIX          99
 **********
 **********
 **  104 **FIX         100
 **********
 **********
 **  105 **FIX         101
 **********
 **********
 **  106 **FIX         102
 **********
 **********
 **  107 **FIX         103
 **********
 **********
 **  108 **FIX         104
 **********
 PARAMETER  104  ALREADY FIXED. IGNORED.
 **********
 **  109 **FIX         105
 **********
 **********
 **  110 **FIX         106
 **********
 **********
 **  111 **FIX         107
 **********
 **********
 **  112 **FIX         108
 **********
 **********
 **  113 **FIX         109
 **********
 **********
 **  114 **FIX         110
 **********
 **********
 **  115 **FIX         122
 **********
 **********
 **  116 **FIX         123
 **********
 **********
 **  117 **FIX         124
 **********
 **********
 **  118 **FIX         125
 **********
 **********
 **  119 **FIX         126
 **********
 **********
 **  120 **FIX         127
 **********
 **********
 **  121 **FIX         128
 **********
 **********
 **  122 **FIX         129
 **********
 **********
 **  123 **FIX         130
 **********
 **********
 **  124 **FIX         131
 **********
 **********
 **  125 **FIX         132
 **********
 **********
 **  126 **FIX         133
 **********
 **********
 **  127 **FIX         134
 **********
 **********
 **  128 **FIX         135
 **********
 **********
 **  129 **FIX         136
 **********
 **********
 **  130 **FIX         137
 **********
 **********
 **  131 **FIX         138
 **********
 **********
 **  132 **FIX         139
 **********
 **********
 **  133 **FIX         140
 **********
 **********
 **  134 **FIX         141
 **********
 **********
 **  135 **FIX         142
 **********
 **********
 **  136 **FIX         143
 **********
 **********
 **  137 **FIX         144
 **********
 **********
 **  138 **FIX         145
 **********
 **********
 **  139 **FIX         146
 **********
 **********
 **  140 **FIX         147
 **********
 **********
 **  141 **FIX         148
 **********
 **********
 **  142 **FIX         149
 **********
 **********
 **  143 **FIX         150
 **********
 **********
 **  144 **FIX         151
 **********
 **********
 **  145 **FIX         152
 **********
 **********
 **  146 **FIX         153
 **********
 **********
 **  147 **FIX         154
 **********
 **********
 **  148 **FIX         155
 **********
 **********
 **  149 **FIX         156
 **********
 **********
 **  150 **FIX         157
 **********
 **********
 **  151 **FIX         158
 **********
 **********
 **  152 **FIX         159
 **********
 **********
 **  153 **FIX         160
 **********
 **********
 **  154 **FIX         161
 **********
 **********
 **  155 **FIX         162
 **********
 **********
 **  156 **FIX         163
 **********
 **********
 **  157 **FIX         164
 **********
 **********
 **  158 **FIX         165
 **********
 **********
 **  159 **FIX         166
 **********
 **********
 **  160 **FIX         167
 **********
 **********
 **  161 **FIX         168
 **********
 **********
 **  162 **FIX         169
 **********
 **********
 **  163 **FIX         170
 **********
 **********
 **  164 **FIX         171
 **********
 **********
 **  165 **FIX         172
 **********
 **********
 **  166 **FIX         173
 **********
 **********
 **  167 **FIX         174
 **********
 **********
 **  168 **FIX         175
 **********
 **********
 **  169 **FIX         176
 **********
 **********
 **  170 **FIX         177
 **********
 **********
 **  171 **FIX         178
 **********
 **********
 **  172 **FIX         179
 **********
 **********
 **  173 **FIX         180
 **********
 **********
 **  174 **FIX         181
 **********
 **********
 **  175 **FIX         182
 **********
 **********
 **  176 **FIX         183
 **********
 **********
 **  177 **FIX         184
 **********
 **********
 **  178 **FIX         185
 **********
 **********
 **  179 **FIX         186
 **********
 **********
 **  180 **FIX         187
 **********
 **********
 **  181 **FIX         188
 **********
 **********
 **  182 **FIX         189
 **********
 **********
 **  183 **FIX         190
 **********
 **********
 **  184 **FIX         191
 **********
 **********
 **  185 **FIX         192
 **********
 **********
 **  186 **FIX         193
 **********
 **********
 **  187 **FIX         194
 **********
 **********
 **  188 **FIX         195
 **********
 **********
 **  189 **FIX         196
 **********
 **********
 **  190 **FIX         197
 **********
 **********
 **  191 **FIX         198
 **********
 **********
 **  192 **FIX         199
 **********
 **********
 **  193 **FIX         200
 **********
 **********
 **  194 **FIX         201
 **********
 **********
 **  195 **FIX         202
 **********
 **********
 **  196 **FIX         203
 **********
 **********
 **  197 **FIX         204
 **********
 **********
 **  198 **FIX         205
 **********
 **********
 **  199 **FIX         206
 **********
 **********
 **  200 **FIX         207
 **********
 **********
 **  201 **FIX         208
 **********
 **********
 **  202 **FIX         209
 **********
 **********
 **  203 **FIX         210
 **********
 **********
 **  204 **FIX         211
 **********
 **********
 **  205 **FIX         212
 **********
 **********
 **  206 **FIX         213
 **********
 **********
 **  207 **FIX         214
 **********
 **********
 **  208 **FIX         215
 **********
 **********
 **  209 **FIX         216
 **********
 **********
 **  210 **FIX         217
 **********
 **********
 **  211 **FIX         218
 **********
 **********
 **  212 **FIX         219
 **********
 **********
 **  213 **SET ERRDEF         0.5
 **********
 **********
 **  214 **SET ERR           1
 **********
 **********
 **  215 **MIGRAD       1e+05        0.01
 **********
 FIRST CALL TO USER FUNCTION AT NEW START POINT, WITH IFLAG=4.
 START MIGRAD MINIMIZATION.  STRATEGY  1.  CONVERGENCE WHEN EDM .LT. 1.00e-05
 FCN=-507656 FROM MIGRAD    STATUS=INITIATE       36 CALLS          37 TOTAL
                     EDM= unknown      STRATEGY= 1      NO ERROR MATRIX       
  EXT PARAMETER               CURRENT GUESS       STEP         FIRST   
  NO.   NAME      VALUE            ERROR          SIZE      DERIVATIVE 
   1  K1410_1_Bw1_amp   1.00000e+00     fixed    
   2  K1410_1_Bw1_phi  -3.37954e+00     fixed    
   3  K1430_0_Bw1_amp   1.08597e+06     fixed    
   4  K1430_0_Bw1_phi   4.63843e+00     fixed    
   5  K1430_2_Bw1_amp   3.00369e+07     fixed    
   6  K1430_2_Bw1_phi   3.08851e+00     fixed    
   7  K1680_1_Bw1_amp   2.38418e+06     fixed    
   8  K1680_1_Bw1_phi   2.28649e+00     fixed    
   9  K1780_3_Bw1_amp   6.16753e+04     fixed    
  10  K1780_3_Bw1_phi   2.67779e+00     fixed    
  11  K1950_0_Bw1_amp   9.31285e+05     fixed    
  12  K1950_0_Bw1_phi   1.16666e+00     fixed    
  13  K2045_4_Bw1_amp   1.08034e+10     fixed    
  14  K2045_4_Bw1_phi   3.31624e+00     fixed    
  15  K1980_2_Bw1_amp   8.67662e+07     fixed    
  16  K1980_2_Bw1_phi   1.36198e+00     fixed    
  17  K1410_1_Bw2_amp   3.80863e+06     fixed    
  18  K1410_1_Bw2_phi   5.31811e+00     fixed    
  19  K1410_1_Bw3_amp   2.78166e+07     fixed    
  20  K1410_1_Bw3_phi   4.49229e+00     fixed    
  21  K1430_2_Bw2_amp   4.86515e+07     fixed    
  22  K1430_2_Bw2_phi   4.39671e+00     fixed    
  23  K1430_2_Bw3_amp   2.25527e+05     fixed    
  24  K1430_2_Bw3_phi   4.54608e+00     fixed    
  25  K1680_1_Bw2_amp   4.55731e+06     fixed    
  26  K1680_1_Bw2_phi   5.19935e+00     fixed    
  27  K1680_1_Bw3_amp   2.14931e+07     fixed    
  28  K1680_1_Bw3_phi   2.05329e+00     fixed    
  29  K1780_3_Bw2_amp   1.61095e+08     fixed    
  30  K1780_3_Bw2_phi   3.21568e+00     fixed    
  31  K1780_3_Bw3_amp   6.02307e+08     fixed    
  32  K1780_3_Bw3_phi   5.71571e+00     fixed    
  33  K1980_2_Bw2_amp   3.23797e+00     fixed    
  34  K1980_2_Bw2_phi   3.02318e+00     fixed    
  35  K1980_2_Bw3_amp   2.33249e+08     fixed    
  36  K1980_2_Bw3_phi   4.35891e+00     fixed    
  37  K2045_4_Bw2_amp   4.62632e+10     fixed    
  38  K2045_4_Bw2_phi   3.73276e+00     fixed    
  39  K2045_4_Bw3_amp   1.54201e+07     fixed    
  40  K2045_4_Bw3_phi  -3.69618e+00     fixed    
  41  X1Bs1_amp    1.51477e+36     fixed    
  42  X1Bs1_phi    7.13839e-01     fixed    
  43  X1Bs2_amp    0.00000e+00     fixed    
  44  X1Bs2_phi    3.85543e+00     fixed    
  45  gamma_Zc4200   3.29954e-01     fixed    
  46  m_Zc4200     4.16118e+00     fixed    
  47  n_BD_to_JPSI_K_PI_par   0.00000e+00     fixed    
  48  phi1680_1_Bw1_amp   1.00000e+00     fixed    
  49  phi1680_1_Bw1_phi  -2.22337e-01     fixed    
  50  phi1680_1_Bw2_amp   2.10520e+07     fixed    
  51  phi1680_1_Bw2_phi   2.95741e+00     fixed    
  52  phi1680_1_Bw3_amp   8.40081e+06     fixed    
  53  phi1680_1_Bw3_phi  -4.03070e+00     fixed    
  54  f1525_2_Bw1_amp   2.42362e-01     fixed    
  55  f1525_2_Bw1_phi   2.78938e+00     fixed    
  56  f1525_2_Bw2_amp   4.25078e+05     fixed    
  57  f1525_2_Bw2_phi   4.65707e+00     fixed    
  58  f1525_2_Bw3_amp   1.06976e+07     fixed    
  59  f1525_2_Bw3_phi   6.01740e+00     fixed    
  60  f1640_2_Bw1_amp   6.14906e+07     fixed    
  61  f1640_2_Bw1_phi  -2.13025e+00     fixed    
  62  f1640_2_Bw2_amp   5.40988e+07     fixed    
  63  f1640_2_Bw2_phi   3.96333e+00     fixed    
  64  f1640_2_Bw3_amp   3.60031e+08     fixed    
  65  f1640_2_Bw3_phi  -2.14422e+00     fixed    
  66  f1750_2_Bw1_amp   5.06844e+07     fixed    
  67  f1750_2_Bw1_phi   1.82411e+00     fixed    
  68  f1750_2_Bw2_amp   1.98081e+07     fixed    
  69  f1750_2_Bw2_phi  -4.63600e+00     fixed    
  70  f1750_2_Bw3_amp   1.96243e+05     fixed    
  71  f1750_2_Bw3_phi   2.78858e+00     fixed    
  72  f1950_2_Bw1_amp   1.05843e+08     fixed    
  73  f1950_2_Bw1_phi   1.94791e+00     fixed    
  74  f1950_2_Bw2_amp   3.57713e+03     fixed    
  75  f1950_2_Bw2_phi   3.79661e-01     fixed    
  76  f1950_2_Bw3_amp   8.12680e+05     fixed    
  77  f1950_2_Bw3_phi   6.03276e+00     fixed    
  78  NR_Bw1_amp   1.02986e+06     fixed    
  79  NR_Bw1_phi   3.53657e+00     fixed    
  80  n_BS_to_JPSI_K_K_par   0.00000e+00     fixed    
  81  n_lambda     7.61126e+03     fixed    
  82  n_BS_PIPI    5.48736e+03     fixed    
  83  n_BD_PIPI    3.27002e+03     fixed    
  84  n_BD_KPI     5.05163e+04     fixed    
  85  n_BS_KK      1.68903e+04     fixed    
  86  p0           6.37526e+00     fixed    
  87  p1          -1.92082e+00     fixed    
  88  p2          -4.36636e+00     fixed    
  89  p3           2.41845e+00     fixed    
  90  a0          -2.25140e-03     fixed    
  91  b0           2.34195e-02     fixed    
  92  b1           3.00830e-01     fixed    
  93  b2          -1.38883e-01     fixed    
  94  x0_KK        4.97808e+00     fixed    
  95  d0_KK        1.60534e+00     fixed    
  96  p0_KK        1.23989e+01     fixed    
  97  p1_KK       -1.76762e+01     fixed    
  98  p2_KK        1.74976e+01     fixed    
  99  p3_KK       -9.90509e+00     fixed    
 100  p4_KK        0.00000e+00     fixed    
 101  p5_KK        0.00000e+00     fixed    
 102  x0_pipi      4.57875e+00     fixed    
 103  d0_pipi     -2.86077e-01     fixed    
 104  p0_pipi     -1.89772e+00     fixed    
 105  p1_pipi      7.05469e+01     fixed    
 106  p2_pipi     -2.10510e+02     fixed    
 107  p3_pipi      2.46630e+02     fixed    
 108  p4_pipi     -1.01855e+02     fixed    
 109  p5_pipi      0.00000e+00     fixed    
 110  p6_pipi      0.00000e+00     fixed    
 111  x0_pKKp     -2.29736e-01   1.00000e-02   1.00000e-02  -7.89706e+02
 112  d0_pKKp      5.17916e+00   1.00000e-02   1.00000e-02  -9.51931e+01
 113  p0_pKKp      1.26874e+01     fixed    
 114  p1_pKKp     -1.82249e+01   1.00000e-02   1.00000e-02  -7.24284e+01
 115  p2_pKKp      9.63609e+00   1.00000e-02   1.00000e-02  -9.23269e+01
 116  p3_pKKp     -2.80796e+00   1.00000e-02   1.00000e-02  -1.03731e+02
 117  a0_pKKp      4.76578e-02   1.00000e-02   1.00000e-02  -5.82022e+01
 118  b0_pKKp      1.34201e-01   1.00000e-02   1.00000e-02   1.04305e+03
 119  b1_pKKp      4.43410e-01   1.00000e-02   1.00000e-02   3.45028e+02
 120  b2_pKKp     -6.25606e-02   1.00000e-02   1.00000e-02   1.43473e+02
 121  u0_pKKp      7.58968e+00   1.00000e-02   1.00000e-02  -5.91449e+02
 122  Ls1800_12_Bw1_amp   1.39621e-01     fixed    
 123  Ls1800_12_Bw1_phi   0.00000e+00     fixed    
 124  Ls1800_12_Bw2_amp   0.00000e+00     fixed    
 125  Ls1800_12_Bw2_phi   0.00000e+00     fixed    
 126  Ls1800_12_Bw3_amp   0.00000e+00     fixed    
 127  Ls1800_12_Bw3_phi   0.00000e+00     fixed    
 128  Ls1800_12_Bw4_amp   0.00000e+00     fixed    
 129  Ls1800_12_Bw4_phi   0.00000e+00     fixed    
 130  Ls1810_12_Bw1_amp   1.01411e-01     fixed    
 131  Ls1810_12_Bw1_phi   8.91120e-01     fixed    
 132  Ls1810_12_Bw2_amp   0.00000e+00     fixed    
 133  Ls1810_12_Bw2_phi   0.00000e+00     fixed    
 134  Ls1810_12_Bw3_amp   0.00000e+00     fixed    
 135  Ls1810_12_Bw3_phi   0.00000e+00     fixed    
 136  Ls1820_52_Bw1_amp   0.00000e+00     fixed    
 137  Ls1820_52_Bw1_phi   0.00000e+00     fixed    
 138  Ls1820_52_Bw2_amp   0.00000e+00     fixed    
 139  Ls1820_52_Bw2_phi   0.00000e+00     fixed    
 140  Ls1820_52_Bw3_amp   0.00000e+00     fixed    
 141  Ls1820_52_Bw3_phi   0.00000e+00     fixed    
 142  Ls1830_52_Bw1_amp   0.00000e+00     fixed    
 143  Ls1830_52_Bw1_phi   0.00000e+00     fixed    
 144  Ls1830_52_Bw2_amp   0.00000e+00     fixed    
 145  Ls1830_52_Bw2_phi   0.00000e+00     fixed    
 146  Ls1830_52_Bw3_amp   0.00000e+00     fixed    
 147  Ls1830_52_Bw3_phi   0.00000e+00     fixed    
 148  Ls1890_32_Bw1_amp   1.61415e+00     fixed    
 149  Ls1890_32_Bw1_phi  -2.27292e+00     fixed    
 150  Ls1890_32_Bw2_amp   0.00000e+00     fixed    
 151  Ls1890_32_Bw2_phi   0.00000e+00     fixed    
 152  Ls1890_32_Bw3_amp   0.00000e+00     fixed    
 153  Ls1890_32_Bw3_phi   0.00000e+00     fixed    
 154  Ls2020_72_Bw1_amp   0.00000e+00     fixed    
 155  Ls2020_72_Bw1_phi   0.00000e+00     fixed    
 156  Ls2020_72_Bw2_amp   0.00000e+00     fixed    
 157  Ls2020_72_Bw2_phi   0.00000e+00     fixed    
 158  Ls2020_72_Bw3_amp   0.00000e+00     fixed    
 159  Ls2020_72_Bw3_phi   0.00000e+00     fixed    
 160  Ls2050_32_Bw1_amp   0.00000e+00     fixed    
 161  Ls2050_32_Bw1_phi   0.00000e+00     fixed    
 162  Ls2050_32_Bw2_amp   0.00000e+00     fixed    
 163  Ls2050_32_Bw2_phi   0.00000e+00     fixed    
 164  Ls2050_32_Bw3_amp   0.00000e+00     fixed    
 165  Ls2050_32_Bw3_phi   0.00000e+00     fixed    
 166  Ls2100_72_Bw1_amp   3.16228e+02     fixed    
 167  Ls2100_72_Bw1_phi  -2.29901e+00     fixed    
 168  Ls2100_72_Bw2_amp   0.00000e+00     fixed    
 169  Ls2100_72_Bw2_phi   0.00000e+00     fixed    
 170  Ls2100_72_Bw3_amp   0.00000e+00     fixed    
 171  Ls2100_72_Bw3_phi   0.00000e+00     fixed    
 172  Ls2110_52_Bw1_amp   5.44105e+01     fixed    
 173  Ls2110_52_Bw1_phi   9.14406e-01     fixed    
 174  Ls2110_52_Bw2_amp   0.00000e+00     fixed    
 175  Ls2110_52_Bw2_phi   0.00000e+00     fixed    
 176  Ls2110_52_Bw3_amp   0.00000e+00     fixed    
 177  Ls2110_52_Bw3_phi   0.00000e+00     fixed    
 178  Ls2325_32_Bw1_amp   0.00000e+00     fixed    
 179  Ls2325_32_Bw1_phi   0.00000e+00     fixed    
 180  Ls2325_32_Bw2_amp   0.00000e+00     fixed    
 181  Ls2325_32_Bw2_phi   0.00000e+00     fixed    
 182  Ls2325_32_Bw3_amp   0.00000e+00     fixed    
 183  Ls2325_32_Bw3_phi   0.00000e+00     fixed    
 184  Ls2350_92_Bw1_amp   0.00000e+00     fixed    
 185  Ls2350_92_Bw1_phi   0.00000e+00     fixed    
 186  Ls2350_92_Bw2_amp   0.00000e+00     fixed    
 187  Ls2350_92_Bw2_phi   0.00000e+00     fixed    
 188  LsNR_12_Bw_amp   0.00000e+00     fixed    
 189  LsNR_12_Bw_phi   0.00000e+00     fixed    
 190  Pc1Bw1_amp   0.00000e+00     fixed    
 191  Pc1Bw1_phi   0.00000e+00     fixed    
 192  Pc1Bw2_amp   0.00000e+00     fixed    
 193  Pc1Bw2_phi   0.00000e+00     fixed    
 194  Pc1Bs1_amp   0.00000e+00     fixed    
 195  Pc1Bs1_phi   0.00000e+00     fixed    
 196  Pc1Bs2_amp   0.00000e+00     fixed    
 197  Pc1Bs2_phi   0.00000e+00     fixed    
 198  Pc1Bs3_amp   0.00000e+00     fixed    
 199  Pc1Bs3_phi   0.00000e+00     fixed    
 200  Pc2Bw1_amp   0.00000e+00     fixed    
 201  Pc2Bw1_phi   0.00000e+00     fixed    
 202  Pc2Bw2_amp   0.00000e+00     fixed    
 203  Pc2Bw2_phi   0.00000e+00     fixed    
 204  Pc2Bs1_amp   0.00000e+00     fixed    
 205  Pc2Bs1_phi   0.00000e+00     fixed    
 206  Pc2Bs2_amp   0.00000e+00     fixed    
 207  Pc2Bs2_phi   0.00000e+00     fixed    
 208  Pc2Bs3_amp   0.00000e+00     fixed    
 209  Pc2Bs3_phi   0.00000e+00     fixed    
 210  M01          4.29749e+00     fixed    
 211  M02          4.40093e+00     fixed    
 212  gamma1       1.56593e-01     fixed    
 213  gamma2       3.11330e-02     fixed    
 214  comb_bg_norm   5.89049e+04     fixed    
 215  n_LB_PPI     1.00000e+02     fixed    
 216  n_BD_KK      1.00000e+02     fixed    
 217  n_BS_KPI     1.00000e+02     fixed    
 218  KNR_0_Bw_amp   9.08437e+05     fixed    
 219  KNR_0_Bw_phi  -8.92102e-01     fixed    
 MIGRAD FAILS TO FIND IMPROVEMENT
 MACHINE ACCURACY LIMITS FURTHER IMPROVEMENT.
 MIGRAD MINIMIZATION HAS CONVERGED.
 FCN=-507658 FROM MIGRAD    STATUS=CONVERGED     466 CALLS         467 TOTAL
                     EDM=3.37961e-05    STRATEGY= 1  ERROR MATRIX UNCERTAINTY   3.1 per cent
  EXT PARAMETER                                   STEP         FIRST   
  NO.   NAME      VALUE            ERROR          SIZE      DERIVATIVE 
   1  K1410_1_Bw1_amp   1.00000e+00     fixed    
   2  K1410_1_Bw1_phi  -3.37954e+00     fixed    
   3  K1430_0_Bw1_amp   1.08597e+06     fixed    
   4  K1430_0_Bw1_phi   4.63843e+00     fixed    
   5  K1430_2_Bw1_amp   3.00369e+07     fixed    
   6  K1430_2_Bw1_phi   3.08851e+00     fixed    
   7  K1680_1_Bw1_amp   2.38418e+06     fixed    
   8  K1680_1_Bw1_phi   2.28649e+00     fixed    
   9  K1780_3_Bw1_amp   6.16753e+04     fixed    
  10  K1780_3_Bw1_phi   2.67779e+00     fixed    
  11  K1950_0_Bw1_amp   9.31285e+05     fixed    
  12  K1950_0_Bw1_phi   1.16666e+00     fixed    
  13  K2045_4_Bw1_amp   1.08034e+10     fixed    
  14  K2045_4_Bw1_phi   3.31624e+00     fixed    
  15  K1980_2_Bw1_amp   8.67662e+07     fixed    
  16  K1980_2_Bw1_phi   1.36198e+00     fixed    
  17  K1410_1_Bw2_amp   3.80863e+06     fixed    
  18  K1410_1_Bw2_phi   5.31811e+00     fixed    
  19  K1410_1_Bw3_amp   2.78166e+07     fixed    
  20  K1410_1_Bw3_phi   4.49229e+00     fixed    
  21  K1430_2_Bw2_amp   4.86515e+07     fixed    
  22  K1430_2_Bw2_phi   4.39671e+00     fixed    
  23  K1430_2_Bw3_amp   2.25527e+05     fixed    
  24  K1430_2_Bw3_phi   4.54608e+00     fixed    
  25  K1680_1_Bw2_amp   4.55731e+06     fixed    
  26  K1680_1_Bw2_phi   5.19935e+00     fixed    
  27  K1680_1_Bw3_amp   2.14931e+07     fixed    
  28  K1680_1_Bw3_phi   2.05329e+00     fixed    
  29  K1780_3_Bw2_amp   1.61095e+08     fixed    
  30  K1780_3_Bw2_phi   3.21568e+00     fixed    
  31  K1780_3_Bw3_amp   6.02307e+08     fixed    
  32  K1780_3_Bw3_phi   5.71571e+00     fixed    
  33  K1980_2_Bw2_amp   3.23797e+00     fixed    
  34  K1980_2_Bw2_phi   3.02318e+00     fixed    
  35  K1980_2_Bw3_amp   2.33249e+08     fixed    
  36  K1980_2_Bw3_phi   4.35891e+00     fixed    
  37  K2045_4_Bw2_amp   4.62632e+10     fixed    
  38  K2045_4_Bw2_phi   3.73276e+00     fixed    
  39  K2045_4_Bw3_amp   1.54201e+07     fixed    
  40  K2045_4_Bw3_phi  -3.69618e+00     fixed    
  41  X1Bs1_amp    1.51477e+36     fixed    
  42  X1Bs1_phi    7.13839e-01     fixed    
  43  X1Bs2_amp    0.00000e+00     fixed    
  44  X1Bs2_phi    3.85543e+00     fixed    
  45  gamma_Zc4200   3.29954e-01     fixed    
  46  m_Zc4200     4.16118e+00     fixed    
  47  n_BD_to_JPSI_K_PI_par   0.00000e+00     fixed    
  48  phi1680_1_Bw1_amp   1.00000e+00     fixed    
  49  phi1680_1_Bw1_phi  -2.22337e-01     fixed    
  50  phi1680_1_Bw2_amp   2.10520e+07     fixed    
  51  phi1680_1_Bw2_phi   2.95741e+00     fixed    
  52  phi1680_1_Bw3_amp   8.40081e+06     fixed    
  53  phi1680_1_Bw3_phi  -4.03070e+00     fixed    
  54  f1525_2_Bw1_amp   2.42362e-01     fixed    
  55  f1525_2_Bw1_phi   2.78938e+00     fixed    
  56  f1525_2_Bw2_amp   4.25078e+05     fixed    
  57  f1525_2_Bw2_phi   4.65707e+00     fixed    
  58  f1525_2_Bw3_amp   1.06976e+07     fixed    
  59  f1525_2_Bw3_phi   6.01740e+00     fixed    
  60  f1640_2_Bw1_amp   6.14906e+07     fixed    
  61  f1640_2_Bw1_phi  -2.13025e+00     fixed    
  62  f1640_2_Bw2_amp   5.40988e+07     fixed    
  63  f1640_2_Bw2_phi   3.96333e+00     fixed    
  64  f1640_2_Bw3_amp   3.60031e+08     fixed    
  65  f1640_2_Bw3_phi  -2.14422e+00     fixed    
  66  f1750_2_Bw1_amp   5.06844e+07     fixed    
  67  f1750_2_Bw1_phi   1.82411e+00     fixed    
  68  f1750_2_Bw2_amp   1.98081e+07     fixed    
  69  f1750_2_Bw2_phi  -4.63600e+00     fixed    
  70  f1750_2_Bw3_amp   1.96243e+05     fixed    
  71  f1750_2_Bw3_phi   2.78858e+00     fixed    
  72  f1950_2_Bw1_amp   1.05843e+08     fixed    
  73  f1950_2_Bw1_phi   1.94791e+00     fixed    
  74  f1950_2_Bw2_amp   3.57713e+03     fixed    
  75  f1950_2_Bw2_phi   3.79661e-01     fixed    
  76  f1950_2_Bw3_amp   8.12680e+05     fixed    
  77  f1950_2_Bw3_phi   6.03276e+00     fixed    
  78  NR_Bw1_amp   1.02986e+06     fixed    
  79  NR_Bw1_phi   3.53657e+00     fixed    
  80  n_BS_to_JPSI_K_K_par   0.00000e+00     fixed    
  81  n_lambda     7.61126e+03     fixed    
  82  n_BS_PIPI    5.48736e+03     fixed    
  83  n_BD_PIPI    3.27002e+03     fixed    
  84  n_BD_KPI     5.05163e+04     fixed    
  85  n_BS_KK      1.68903e+04     fixed    
  86  p0           6.37526e+00     fixed    
  87  p1          -1.92082e+00     fixed    
  88  p2          -4.36636e+00     fixed    
  89  p3           2.41845e+00     fixed    
  90  a0          -2.25140e-03     fixed    
  91  b0           2.34195e-02     fixed    
  92  b1           3.00830e-01     fixed    
  93  b2          -1.38883e-01     fixed    
  94  x0_KK        4.97808e+00     fixed    
  95  d0_KK        1.60534e+00     fixed    
  96  p0_KK        1.23989e+01     fixed    
  97  p1_KK       -1.76762e+01     fixed    
  98  p2_KK        1.74976e+01     fixed    
  99  p3_KK       -9.90509e+00     fixed    
 100  p4_KK        0.00000e+00     fixed    
 101  p5_KK        0.00000e+00     fixed    
 102  x0_pipi      4.57875e+00     fixed    
 103  d0_pipi     -2.86077e-01     fixed    
 104  p0_pipi     -1.89772e+00     fixed    
 105  p1_pipi      7.05469e+01     fixed    
 106  p2_pipi     -2.10510e+02     fixed    
 107  p3_pipi      2.46630e+02     fixed    
 108  p4_pipi     -1.01855e+02     fixed    
 109  p5_pipi      0.00000e+00     fixed    
 110  p6_pipi      0.00000e+00     fixed    
 111  x0_pKKp     -2.41497e-01   3.20364e-02  -0.00000e+00  -6.69123e+00
 112  d0_pKKp      5.33353e+00   5.78797e-01   0.00000e+00  -5.26116e-01
 113  p0_pKKp      1.26874e+01     fixed    
 114  p1_pKKp     -1.85230e+01   9.43583e-01  -0.00000e+00  -2.42223e-01
 115  p2_pKKp      1.00441e+01   7.13165e-01   0.00000e+00  -1.25036e-01
 116  p3_pKKp     -2.99505e+00   2.80312e-01  -0.00000e+00  -5.27253e-02
 117  a0_pKKp      4.77192e-02   9.52897e-04   0.00000e+00  -1.28026e+00
 118  b0_pKKp      1.38810e-01   1.01054e-02   0.00000e+00   2.08984e+00
 119  b1_pKKp      4.40912e-01   1.00490e-02  -0.00000e+00  -8.32384e-01
 120  b2_pKKp     -6.71852e-02   1.30087e-02   0.00000e+00  -4.91316e-01
 121  u0_pKKp      7.59992e+00   2.27226e-02   0.00000e+00  -4.38173e+00
 122  Ls1800_12_Bw1_amp   1.39621e-01     fixed    
 123  Ls1800_12_Bw1_phi   0.00000e+00     fixed    
 124  Ls1800_12_Bw2_amp   0.00000e+00     fixed    
 125  Ls1800_12_Bw2_phi   0.00000e+00     fixed    
 126  Ls1800_12_Bw3_amp   0.00000e+00     fixed    
 127  Ls1800_12_Bw3_phi   0.00000e+00     fixed    
 128  Ls1800_12_Bw4_amp   0.00000e+00     fixed    
 129  Ls1800_12_Bw4_phi   0.00000e+00     fixed    
 130  Ls1810_12_Bw1_amp   1.01411e-01     fixed    
 131  Ls1810_12_Bw1_phi   8.91120e-01     fixed    
 132  Ls1810_12_Bw2_amp   0.00000e+00     fixed    
 133  Ls1810_12_Bw2_phi   0.00000e+00     fixed    
 134  Ls1810_12_Bw3_amp   0.00000e+00     fixed    
 135  Ls1810_12_Bw3_phi   0.00000e+00     fixed    
 136  Ls1820_52_Bw1_amp   0.00000e+00     fixed    
 137  Ls1820_52_Bw1_phi   0.00000e+00     fixed    
 138  Ls1820_52_Bw2_amp   0.00000e+00     fixed    
 139  Ls1820_52_Bw2_phi   0.00000e+00     fixed    
 140  Ls1820_52_Bw3_amp   0.00000e+00     fixed    
 141  Ls1820_52_Bw3_phi   0.00000e+00     fixed    
 142  Ls1830_52_Bw1_amp   0.00000e+00     fixed    
 143  Ls1830_52_Bw1_phi   0.00000e+00     fixed    
 144  Ls1830_52_Bw2_amp   0.00000e+00     fixed    
 145  Ls1830_52_Bw2_phi   0.00000e+00     fixed    
 146  Ls1830_52_Bw3_amp   0.00000e+00     fixed    
 147  Ls1830_52_Bw3_phi   0.00000e+00     fixed    
 148  Ls1890_32_Bw1_amp   1.61415e+00     fixed    
 149  Ls1890_32_Bw1_phi  -2.27292e+00     fixed    
 150  Ls1890_32_Bw2_amp   0.00000e+00     fixed    
 151  Ls1890_32_Bw2_phi   0.00000e+00     fixed    
 152  Ls1890_32_Bw3_amp   0.00000e+00     fixed    
 153  Ls1890_32_Bw3_phi   0.00000e+00     fixed    
 154  Ls2020_72_Bw1_amp   0.00000e+00     fixed    
 155  Ls2020_72_Bw1_phi   0.00000e+00     fixed    
 156  Ls2020_72_Bw2_amp   0.00000e+00     fixed    
 157  Ls2020_72_Bw2_phi   0.00000e+00     fixed    
 158  Ls2020_72_Bw3_amp   0.00000e+00     fixed    
 159  Ls2020_72_Bw3_phi   0.00000e+00     fixed    
 160  Ls2050_32_Bw1_amp   0.00000e+00     fixed    
 161  Ls2050_32_Bw1_phi   0.00000e+00     fixed    
 162  Ls2050_32_Bw2_amp   0.00000e+00     fixed    
 163  Ls2050_32_Bw2_phi   0.00000e+00     fixed    
 164  Ls2050_32_Bw3_amp   0.00000e+00     fixed    
 165  Ls2050_32_Bw3_phi   0.00000e+00     fixed    
 166  Ls2100_72_Bw1_amp   3.16228e+02     fixed    
 167  Ls2100_72_Bw1_phi  -2.29901e+00     fixed    
 168  Ls2100_72_Bw2_amp   0.00000e+00     fixed    
 169  Ls2100_72_Bw2_phi   0.00000e+00     fixed    
 170  Ls2100_72_Bw3_amp   0.00000e+00     fixed    
 171  Ls2100_72_Bw3_phi   0.00000e+00     fixed    
 172  Ls2110_52_Bw1_amp   5.44105e+01     fixed    
 173  Ls2110_52_Bw1_phi   9.14406e-01     fixed    
 174  Ls2110_52_Bw2_amp   0.00000e+00     fixed    
 175  Ls2110_52_Bw2_phi   0.00000e+00     fixed    
 176  Ls2110_52_Bw3_amp   0.00000e+00     fixed    
 177  Ls2110_52_Bw3_phi   0.00000e+00     fixed    
 178  Ls2325_32_Bw1_amp   0.00000e+00     fixed    
 179  Ls2325_32_Bw1_phi   0.00000e+00     fixed    
 180  Ls2325_32_Bw2_amp   0.00000e+00     fixed    
 181  Ls2325_32_Bw2_phi   0.00000e+00     fixed    
 182  Ls2325_32_Bw3_amp   0.00000e+00     fixed    
 183  Ls2325_32_Bw3_phi   0.00000e+00     fixed    
 184  Ls2350_92_Bw1_amp   0.00000e+00     fixed    
 185  Ls2350_92_Bw1_phi   0.00000e+00     fixed    
 186  Ls2350_92_Bw2_amp   0.00000e+00     fixed    
 187  Ls2350_92_Bw2_phi   0.00000e+00     fixed    
 188  LsNR_12_Bw_amp   0.00000e+00     fixed    
 189  LsNR_12_Bw_phi   0.00000e+00     fixed    
 190  Pc1Bw1_amp   0.00000e+00     fixed    
 191  Pc1Bw1_phi   0.00000e+00     fixed    
 192  Pc1Bw2_amp   0.00000e+00     fixed    
 193  Pc1Bw2_phi   0.00000e+00     fixed    
 194  Pc1Bs1_amp   0.00000e+00     fixed    
 195  Pc1Bs1_phi   0.00000e+00     fixed    
 196  Pc1Bs2_amp   0.00000e+00     fixed    
 197  Pc1Bs2_phi   0.00000e+00     fixed    
 198  Pc1Bs3_amp   0.00000e+00     fixed    
 199  Pc1Bs3_phi   0.00000e+00     fixed    
 200  Pc2Bw1_amp   0.00000e+00     fixed    
 201  Pc2Bw1_phi   0.00000e+00     fixed    
 202  Pc2Bw2_amp   0.00000e+00     fixed    
 203  Pc2Bw2_phi   0.00000e+00     fixed    
 204  Pc2Bs1_amp   0.00000e+00     fixed    
 205  Pc2Bs1_phi   0.00000e+00     fixed    
 206  Pc2Bs2_amp   0.00000e+00     fixed    
 207  Pc2Bs2_phi   0.00000e+00     fixed    
 208  Pc2Bs3_amp   0.00000e+00     fixed    
 209  Pc2Bs3_phi   0.00000e+00     fixed    
 210  M01          4.29749e+00     fixed    
 211  M02          4.40093e+00     fixed    
 212  gamma1       1.56593e-01     fixed    
 213  gamma2       3.11330e-02     fixed    
 214  comb_bg_norm   5.89049e+04     fixed    
 215  n_LB_PPI     1.00000e+02     fixed    
 216  n_BD_KK      1.00000e+02     fixed    
 217  n_BS_KPI     1.00000e+02     fixed    
 218  KNR_0_Bw_amp   9.08437e+05     fixed    
 219  KNR_0_Bw_phi  -8.92102e-01     fixed    
 EXTERNAL ERROR MATRIX.    NDIM= 220    NPAR= 10    ERR DEF=1
  1.026e-03 -1.837e-02  3.015e-02 -2.209e-02  8.261e-03 -6.902e-08 -3.163e-04  8.410e-05  1.161e-05 -7.177e-04 
 -1.837e-02  3.350e-01 -5.430e-01  3.818e-01 -1.400e-01  2.267e-06  5.578e-03 -1.759e-03  1.460e-04  1.261e-02 
  3.015e-02 -5.430e-01  8.903e-01 -6.428e-01  2.383e-01 -4.824e-06 -9.303e-03  2.764e-03 -8.884e-05 -2.105e-02 
 -2.209e-02  3.818e-01 -6.428e-01  5.086e-01 -1.973e-01  3.316e-06  7.066e-03 -1.526e-03 -8.754e-04  1.604e-02 
  8.261e-03 -1.400e-01  2.383e-01 -1.973e-01  7.857e-02 -1.174e-06 -2.686e-03  5.106e-04  4.784e-04 -6.101e-03 
 -6.902e-08  2.267e-06 -4.824e-06  3.316e-06 -1.174e-06  9.080e-07  2.070e-07 -1.169e-06  1.133e-06  1.519e-07 
 -3.163e-04  5.578e-03 -9.303e-03  7.066e-03 -2.686e-03  2.070e-07  1.021e-04 -3.336e-05  8.854e-07  2.277e-04 
  8.410e-05 -1.759e-03  2.764e-03 -1.526e-03  5.106e-04 -1.169e-06 -3.336e-05  1.010e-04 -1.070e-04 -6.014e-05 
  1.161e-05  1.460e-04 -8.884e-05 -8.754e-04  4.784e-04  1.133e-06  8.854e-07 -1.070e-04  1.692e-04 -9.473e-06 
 -7.177e-04  1.261e-02 -2.105e-02  1.604e-02 -6.101e-03  1.519e-07  2.277e-04 -6.014e-05 -9.473e-06  5.163e-04 
 PARAMETER  CORRELATION COEFFICIENTS  
       NO.  GLOBAL    111    112    114    115    116    117    118    119    120    121
      111  0.99971   1.000 -0.991  0.998 -0.967  0.920 -0.002 -0.977  0.261  0.028 -0.986
      112  0.99977  -0.991  1.000 -0.994  0.925 -0.863  0.004  0.954 -0.302  0.019  0.959
      114  0.99980   0.998 -0.994  1.000 -0.955  0.901 -0.005 -0.976  0.291 -0.007 -0.982
      115  0.99971  -0.967  0.925 -0.955  1.000 -0.987  0.005  0.980 -0.213 -0.094  0.990
      116  0.99886   0.920 -0.863  0.901 -0.987  1.000 -0.004 -0.948  0.181  0.131 -0.958
      117  0.14314  -0.002  0.004 -0.005  0.005 -0.004  1.000  0.021 -0.122  0.091  0.007
      118  0.99563  -0.977  0.954 -0.976  0.980 -0.948  0.021  1.000 -0.329  0.007  0.992
      119  0.93317   0.261 -0.302  0.291 -0.213  0.181 -0.122 -0.329  1.000 -0.818 -0.263
      120  0.91250   0.028  0.019 -0.007 -0.094  0.131  0.091  0.007 -0.818  1.000 -0.032
      121  0.99907  -0.986  0.959 -0.982  0.990 -0.958  0.007  0.992 -0.263 -0.032  1.000

______________________________
n_lambda = 7611.26
n_BD_PIPI = 3270.02
n_BS_PIPI = 5487.36
n_BD_KPI = 50516.3
n_BS_KK = 16890.3
______________________________


After fit statistics:

signal area:

n_BD_to_JPSI_K_PI	35017.8	0.671379
n_BS_to_JPSI_K_K	9498.75	0.182115
n_BS_to_JPSI_PI_PI	86.4401	0.00165727
n_BD_to_JPSI_PI_PI	652.164	0.0125036
n_LAMBDA0B_to_JPSI_P_K	3058.34	0.0586362
n_comb_bg	3844.5	0.0737088
describing:	0.974042

control area:

n_BD_to_JPSI_K_PI	12541.9
n_BS_to_JPSI_K_K	10665.8
n_BS_to_JPSI_PI_PI	3.79903
n_BD_to_JPSI_PI_PI	42.838
n_LAMBDA0B_to_JPSI_P_K	2013.66
n_comb_bg	3904.22
describing:	1.0264

control area Lb:

n_BD_to_JPSI_K_PI	10550.1
n_BS_to_JPSI_K_K	5512.99
n_BS_to_JPSI_PI_PI	102.031
n_BD_to_JPSI_PI_PI	317.542
n_LAMBDA0B_to_JPSI_P_K	4869.67
n_comb_bg	6525.34

JpsiK_2d_K1410_1	7.46041e+15
JpsiK_2d_K1430_0	2.27705e+15
JpsiK_2d_K1430_2	2.56818e+15
JpsiK_2d_K1680_1	8.44355e+15
JpsiK_2d_K1780_3	3.09893e+14
JpsiK_2d_K1950_0	6.30332e+15
JpsiK_2d_K1980_2	2.14785e+15
JpsiK_2d_K2045_4	4.98022e+14
JpsiK_2d_KNR_0	2.10504e+15
JpsiK_2d_Zc4200		0


JpsiK_2d_K1410_1	8135.16
JpsiK_2d_K1430_0	2483
JpsiK_2d_K1430_2	2800.45
JpsiK_2d_K1680_1	9207.22
JpsiK_2d_K1780_3	337.921
JpsiK_2d_K1950_0	6873.42
JpsiK_2d_K1980_2	2342.11
JpsiK_2d_K2045_4	543.066
JpsiK_2d_KNR_0	2295.43
JpsiK_2d_Zc4200		0


w_Ls1800_12_sum	12.0953
w_Ls1810_12_sum	0.318269
w_Ls1820_52_sum	0
w_Ls1830_52_sum	0
w_Ls1890_32_sum	7.67089
w_Ls2020_72_sum	0
w_Ls2050_32_sum	0
w_Ls2100_72_sum	92.366
w_Ls2110_52_sum	72.9624
w_Ls2325_32_sum	0
w_Ls2350_92_sum	0


Printing Lb amplitudes:
Jpsip_mass_Ls1800_12:	317.863
Jpsip_mass_Ls1810_12:	8.36392
Jpsip_mass_Ls1830_52:	0
Jpsip_mass_Ls1890_32:	201.54
Jpsip_mass_Ls2020_72:	0
Jpsip_mass_Ls2050_32:	0
Jpsip_mass_Ls2100_72:	2426.12
Jpsip_mass_Ls2110_52:	1915.79
Jpsip_mass_Ls2325_32:	0
Jpsip_mass_Ls2350_92:	0
Jpsip_mass_LsNR_12:	0
Jpsip_mass_Pc1:	0
Jpsip_mass_Pc2:	0

nbins 	297

50828.1	50648

OLD:

OLD signal area:

n_BD_to_JPSI_K_PI	33154.5	0.652287
n_BS_to_JPSI_K_K	9472.46	0.186363
n_BS_to_JPSI_PI_PI	44.2965	0.000871496
n_BD_to_JPSI_PI_PI	280.017	0.00550911
n_LAMBDA0B_to_JPSI_P_K	2598.23	0.0511179
n_comb_bg	5278.58	0.103852
62
40

NEW:

NEW:

n_BD_to_JPSI_K_PI	35017.3	0.671376
n_BS_to_JPSI_K_K	9498.73	0.182117
n_BS_to_JPSI_PI_PI	86.4401	0.00165729
n_BD_to_JPSI_PI_PI	652.164	0.0125038
n_LAMBDA0B_to_JPSI_P_K	3058.34	0.0586368
n_comb_bg	3844.5	0.0737095
pK_Kp_2d_bg	57796.9
pK_Kp_2d_BS_to_JPSI_PI_PI	5487.36
pK_Kp_2d_BD_to_JPSI_PI_PI	3270.02
pK_Kp_2d_BS_to_JPSI_K_K	16890.3
pK_Kp_2d_BD_to_JPSI_K_PI	50516.3
pK_Kp_2d_LAMBDA0B_to_JPSI_P_K	7611.26
Minimized function: -507658


 Comb_bg Integral KpipiK:	58904.9


 Comb_bg Integral KK:	58904.9


 Comb_bg Integral pipi:	58904.9


 Comb_bg Integral pKKp:	57796.9


 Comb_bg Integral pKKp rotate:	57796.9


 Comb_bg_true : 	58900.7


_________________________________________________________


Jpsipi_2d
name            data     model    BD_KPI     BS_KK   BD_PIPI   BS_PIPI     LB_PK   comb_bg
2d          53548.00  52157.99  35017.79   9498.75    652.16     86.44   3058.34   3844.50
X           53548.00  52157.99  35017.79   9498.75    652.16     86.44   3058.34   3844.50
Y           53548.00  52157.99  35017.79   9498.75    652.16     86.44   3058.34   3844.50


_________________________________________________________
Angular variables historgrams
_________________________________________________________


cos_theta_Zc
name            data     model    BD_KPI     BS_KK   BD_PIPI   BS_PIPI     LB_PK   comb_bg
2d          53548.00  52157.99  35017.79   9498.75    652.16     86.44   3058.34   3844.50
X           53548.00  52157.99  35017.79   9498.75    652.16     86.44   3058.34   3844.50
Y           53548.00  52157.99  35017.79   9498.75    652.16     86.44   3058.34   3844.50

cos_theta_B0
name            data     model    BD_KPI     BS_KK   BD_PIPI   BS_PIPI     LB_PK   comb_bg
2d          53548.00  52157.99  35017.79   9498.75    652.16     86.44   3058.34   3844.50
X           53548.00  52157.99  35017.79   9498.75    652.16     86.44   3058.34   3844.50
Y           53548.00  52157.99  35017.79   9498.75    652.16     86.44   3058.34   3844.50

phi_psi
name            data     model    BD_KPI     BS_KK   BD_PIPI   BS_PIPI     LB_PK   comb_bg
2d          53548.00  52157.99  35017.79   9498.75    652.16     86.44   3058.34   3844.50
X           53548.00  52157.99  35017.79   9498.75    652.16     86.44   3058.34   3844.50
Y           53548.00  52157.99  35017.79   9498.75    652.16     86.44   3058.34   3844.50

phi_K
name            data     model    BD_KPI     BS_KK   BD_PIPI   BS_PIPI     LB_PK   comb_bg
2d          53548.00  52157.99  35017.79   9498.75    652.16     86.44   3058.34   3844.50
X           53548.00  52157.99  35017.79   9498.75    652.16     86.44   3058.34   3844.50
Y           53548.00  52157.99  35017.79   9498.75    652.16     86.44   3058.34   3844.50

alpha_mu
name            data     model    BD_KPI     BS_KK   BD_PIPI   BS_PIPI     LB_PK   comb_bg
2d          53548.00  52157.99  35017.79   9498.75    652.16     86.44   3058.34   3844.50
X           53548.00  52157.99  35017.79   9498.75    652.16     86.44   3058.34   3844.50
Y           53548.00  52157.99  35017.79   9498.75    652.16     86.44   3058.34   3844.50

phi_mu_Kstar
name            data     model    BD_KPI     BS_KK   BD_PIPI   BS_PIPI     LB_PK   comb_bg
2d          53548.00  52157.99  35017.79   9498.75    652.16     86.44   3058.34   3844.50
X           53548.00  52157.99  35017.79   9498.75    652.16     86.44   3058.34   3844.50
Y           53548.00  52157.99  35017.79   9498.75    652.16     86.44   3058.34   3844.50

phi_mu_X
name            data     model    BD_KPI     BS_KK   BD_PIPI   BS_PIPI     LB_PK   comb_bg
2d          53548.00  52157.99  35017.79   9498.75    652.16     86.44   3058.34   3844.50
X           53548.00  52157.99  35017.79   9498.75    652.16     86.44   3058.34   3844.50
Y           53548.00  52157.99  35017.79   9498.75    652.16     86.44   3058.34   3844.50

cos_theta_psi_X
name            data     model    BD_KPI     BS_KK   BD_PIPI   BS_PIPI     LB_PK   comb_bg
2d          53548.00  52157.99  35017.79   9498.75    652.16     86.44   3058.34   3844.50
X           53548.00  52157.99  35017.79   9498.75    652.16     86.44   3058.34   3844.50
Y           53548.00  52157.99  35017.79   9498.75    652.16     86.44   3058.34   3844.50

cos_theta_Kstar
name            data     model    BD_KPI     BS_KK   BD_PIPI   BS_PIPI     LB_PK   comb_bg
2d          53548.00  52157.99  35017.79   9498.75    652.16     86.44   3058.34   3844.50
X           53548.00  52157.99  35017.79   9498.75    652.16     86.44   3058.34   3844.50
Y           53548.00  52157.99  35017.79   9498.75    652.16     86.44   3058.34   3844.50

cos_theta_psi_Kstar
name            data     model    BD_KPI     BS_KK   BD_PIPI   BS_PIPI     LB_PK   comb_bg
2d          53548.00  52157.99  35017.79   9498.75    652.16     86.44   3058.34   3844.50
X           53548.00  52157.99  35017.79   9498.75    652.16     86.44   3058.34   3844.50
Y           53548.00  52157.99  35017.79   9498.75    652.16     86.44   3058.34   3844.50


_________________________________________________________
Control area of Lb decays:
_________________________________________________________


Jpsip_2d_controlLb
name            data     model    BD_KPI     BS_KK   BD_PIPI   BS_PIPI     LB_PK   comb_bg
2d          28170.00  27877.71  10550.14   5512.99    317.54    102.03   4869.67   6525.34
X           28170.00  27877.71  10550.14   5512.99    317.54    102.03   4869.67   6525.34
Y           28170.00  27877.71  10550.14   5512.99    317.54    102.03   4869.67   6525.34

JpsiK_2d_controlLb
name            data     model    BD_KPI     BS_KK   BD_PIPI   BS_PIPI     LB_PK   comb_bg
2d          28194.00  27877.71  10550.14   5512.99    317.54    102.03   4869.67   6525.34
X           28194.00  27877.71  10550.14   5512.99    317.54    102.03   4869.67   6525.34
Y           28194.00  27877.71  10550.14   5512.99    317.54    102.03   4869.67   6525.34

pK_2d_controlLb
name            data     model    BD_KPI     BS_KK   BD_PIPI   BS_PIPI     LB_PK   comb_bg
2d          28156.00  27877.71  10550.14   5512.99    317.54    102.03   4869.67   6525.34
X           28156.00  27877.71  10550.14   5512.99    317.54    102.03   4869.67   6525.34
Y           28156.00  27877.71  10550.14   5512.99    317.54    102.03   4869.67   6525.34


Likelyhood Jpsipi:
-210708
