

		|| MODEL Zc2minus ||


Starting fit signal_area_fit_mode_onlyZc...

 PARAMETER DEFINITIONS:
    NO.   NAME         VALUE      STEP SIZE      LIMITS
     1 K1410_1_Bw1_amp   1.00000e+00  1.00000e+01     no limits
     2 K1410_1_Bw1_phi  -8.16571e+00  1.00000e+00     no limits
     3 K1430_0_Bw1_amp   1.30895e+01  1.00000e+01     no limits
     4 K1430_0_Bw1_phi  -2.43979e+00  1.00000e+00     no limits
     5 K1430_2_Bw1_amp  -1.98640e+01  1.00000e+01     no limits
     6 K1430_2_Bw1_phi  -5.24381e+02  1.00000e+00     no limits
     7 K1680_1_Bw1_amp  -1.18208e+01  1.00000e+01     no limits
     8 K1680_1_Bw1_phi  -6.05579e+02  1.00000e+00     no limits
     9 K1780_3_Bw1_amp   1.10735e+03  1.00000e+01     no limits
    10 K1780_3_Bw1_phi  -9.47599e+01  1.00000e+00     no limits
    11 K1950_0_Bw1_amp  -2.15513e+00  1.00000e+01     no limits
    12 K1950_0_Bw1_phi   8.33978e+00  1.00000e+00     no limits
    13 K2045_4_Bw1_amp   3.01735e+05  1.00000e+01     no limits
    14 K2045_4_Bw1_phi  -4.12374e+03  1.00000e+00     no limits
    15 K1980_2_Bw1_amp   8.07555e+02  1.00000e+01     no limits
    16 K1980_2_Bw1_phi   2.26530e+02  1.00000e+00     no limits
    17 K1410_1_Bw2_amp   4.82184e+01  1.00000e+01     no limits
    18 K1410_1_Bw2_phi  -2.95817e+00  1.00000e+00     no limits
    19 K1410_1_Bw3_amp   4.71329e+01  1.00000e+01     no limits
    20 K1410_1_Bw3_phi   3.84867e+00  1.00000e+00     no limits
    21 K1430_2_Bw2_amp  -3.35322e+02  1.00000e+01     no limits
    22 K1430_2_Bw2_phi   1.19792e+02  1.00000e+00     no limits
    23 K1430_2_Bw3_amp   8.12302e+02  1.00000e+01     no limits
    24 K1430_2_Bw3_phi   4.57836e+01  1.00000e+00     no limits
    25 K1680_1_Bw2_amp  -4.40986e+01  1.00000e+01     no limits
    26 K1680_1_Bw2_phi  -8.08472e+00  1.00000e+00     no limits
    27 K1680_1_Bw3_amp   6.46968e+01  1.00000e+01     no limits
    28 K1680_1_Bw3_phi   1.03684e+00  1.00000e+00     no limits
    29 K1780_3_Bw2_amp  -2.69693e+03  1.00000e+01     no limits
    30 K1780_3_Bw2_phi  -5.25796e+00  1.00000e+00     no limits
    31 K1780_3_Bw3_amp   4.74265e+03  1.00000e+01     no limits
    32 K1780_3_Bw3_phi   3.57342e+02  1.00000e+00     no limits
    33 K1980_2_Bw2_amp   6.04957e+02  1.00000e+01     no limits
    34 K1980_2_Bw2_phi  -1.61248e+01  1.00000e+00     no limits
    35 K1980_2_Bw3_amp  -2.86562e+03  1.00000e+01     no limits
    36 K1980_2_Bw3_phi   2.74064e+02  1.00000e+00     no limits
    37 K2045_4_Bw2_amp   2.73191e+05  1.00000e+01     no limits
    38 K2045_4_Bw2_phi   9.40924e-01  1.00000e+00     no limits
    39 K2045_4_Bw3_amp  -1.01025e+06  1.00000e+01     no limits
    40 K2045_4_Bw3_phi   1.59021e+00  1.00000e+00     no limits
    41 X1Bs1_amp   -2.54624e+03  1.00000e+01     no limits
    42 X1Bs1_phi    1.28861e+01  1.00000e+00     no limits
    43 X1Bs2_amp    4.46526e+04  1.00000e+01     no limits
    44 X1Bs2_phi   -3.57458e+00  1.00000e+00     no limits
    45 gamma_Zc4200   2.88000e-01  1.00000e-02    0.00000e+00  5.00000e-01
    46 m_Zc4200     4.21000e+00  1.00000e-02    4.00000e+00  4.40000e+00
    47 n_BD_to_JPSI_K_PI_par   0.00000e+00  1.00000e+01     no limits
    48 phi1680_1_Bw1_amp   1.00000e+00  1.00000e+00     no limits
    49 phi1680_1_Bw1_phi  -6.28615e+04  1.00000e+01     no limits
    50 phi1680_1_Bw2_amp  -1.51069e+04  1.00000e+00     no limits
    51 phi1680_1_Bw2_phi  -8.13918e+00  1.00000e+01     no limits
    52 phi1680_1_Bw3_amp   1.14776e+04  1.00000e+00     no limits
    53 phi1680_1_Bw3_phi  -3.29244e+00  1.00000e+01     no limits
    54 f1525_2_Bw1_amp  -9.32565e+04  1.00000e+00     no limits
    55 f1525_2_Bw1_phi   3.59268e+02  1.00000e+01     no limits
    56 f1525_2_Bw2_amp  -5.76122e+04  1.00000e+00     no limits
    57 f1525_2_Bw2_phi   3.71231e+00  1.00000e+01     no limits
    58 f1525_2_Bw3_amp  -4.54995e+05  1.00000e+00     no limits
    59 f1525_2_Bw3_phi   8.66631e+02  1.00000e+01     no limits
    60 f1640_2_Bw1_amp  -2.31692e+04  1.00000e+00     no limits
    61 f1640_2_Bw1_phi  -1.39306e+04  1.00000e+01     no limits
    62 f1640_2_Bw2_amp  -9.89835e+03  1.00000e+00     no limits
    63 f1640_2_Bw2_phi   2.07489e+00  1.00000e+01     no limits
    64 f1640_2_Bw3_amp   1.88046e+05  1.00000e+00     no limits
    65 f1640_2_Bw3_phi  -4.57634e+04  1.00000e+01     no limits
    66 f1750_2_Bw1_amp  -1.45568e+04  1.00000e+00     no limits
    67 f1750_2_Bw1_phi   2.06620e+04  1.00000e+00     no limits
    68 f1750_2_Bw2_amp  -2.47591e+04  1.00000e+01     no limits
    69 f1750_2_Bw2_phi  -6.38994e+00  1.00000e+00     no limits
    70 f1750_2_Bw3_amp  -1.99921e+05  1.00000e+01     no limits
    71 f1750_2_Bw3_phi   1.99699e+04  1.00000e+00     no limits
    72 f1950_2_Bw1_amp   6.85936e+04  1.00000e+01     no limits
    73 f1950_2_Bw1_phi  -6.06934e+02  1.00000e+00     no limits
    74 f1950_2_Bw2_amp  -1.87840e+05  1.00000e+01     no limits
    75 f1950_2_Bw2_phi  -7.75447e-01  1.00000e+00     no limits
    76 f1950_2_Bw3_amp   2.31702e+04  1.00000e+01     no limits
    77 f1950_2_Bw3_phi   7.47571e+04  1.00000e+00     no limits
    78 NR_Bw1_amp  -7.04823e+02  1.00000e+01     no limits
    79 NR_Bw1_phi   0.00000e+00  1.00000e+00     no limits
    80 n_BS_to_JPSI_K_K_par   0.00000e+00  1.00000e+01     no limits
    81 n_lambda     1.04699e+04  1.00000e+02     no limits
    82 n_BS_PIPI    6.51107e+03  1.00000e+02     no limits
    83 n_BD_PIPI    3.73132e+03  1.00000e+02     no limits
    84 n_BD_KPI     5.22618e+04  1.00000e+02     no limits
    85 n_BS_KK      1.31082e+04  1.00000e+02     no limits
    86 p0           6.37526e+00  1.00000e-02     no limits
    87 p1          -1.90276e+00  1.00000e-02     no limits
    88 p2          -4.49629e+00  1.00000e-02     no limits
    89 p3           2.46985e+00  1.00000e-02     no limits
    90 a0          -2.49332e-03  1.00000e-02     no limits
    91 b0           2.17541e-02  1.00000e-02     no limits
    92 b1           3.05983e-01  1.00000e-02     no limits
    93 b2          -1.35149e-01  1.00000e-02     no limits
    94 x0_KK        4.97817e+00  1.00000e-02     no limits
    95 d0_KK        1.69619e+00  1.00000e-02     no limits
    96 p0_KK        1.23989e+01  1.00000e-02     no limits
    97 p1_KK       -1.98341e+01  1.00000e-02     no limits
    98 p2_KK        2.15777e+01  1.00000e-02     no limits
    99 p3_KK       -1.21539e+01  1.00000e-02     no limits
   100 p4_KK        0.00000e+00  1.00000e-02     no limits
   101 p5_KK        0.00000e+00  1.00000e-02     no limits
   102 x0_pipi      4.58040e+00  1.00000e-02     no limits
   103 d0_pipi     -4.18694e-01  1.00000e-02     no limits
   104 p0_pipi     -1.89772e+00  1.00000e-02     no limits
   105 p1_pipi      7.26028e+01  1.00000e-02     no limits
   106 p2_pipi     -2.12458e+02  1.00000e-02     no limits
   107 p3_pipi      2.44537e+02  1.00000e-02     no limits
   108 p4_pipi     -9.92902e+01  1.00000e-02     no limits
   109 p5_pipi      0.00000e+00  1.00000e-02     no limits
   110 p6_pipi      0.00000e+00  1.00000e-02     no limits
   111 x0_pKKp     -2.45753e-01  1.00000e-02     no limits
   112 d0_pKKp      5.16348e+00  1.00000e-02     no limits
   113 p0_pKKp      1.26874e+01  1.00000e-02     no limits
   114 p1_pKKp     -1.84980e+01  1.00000e-02     no limits
   115 p2_pKKp      1.07222e+01  1.00000e-02     no limits
   116 p3_pKKp     -3.34892e+00  1.00000e-02     no limits
   117 a0_pKKp      4.81811e-02  1.00000e-02     no limits
   118 b0_pKKp      1.42630e-01  1.00000e-02     no limits
   119 b1_pKKp      4.50821e-01  1.00000e-02     no limits
   120 b2_pKKp     -6.82411e-02  1.00000e-02     no limits
   121 u0_pKKp      7.60927e+00  1.00000e-02     no limits
   122 Ls1800_12_Bw1_amp   2.60790e-01  1.00000e+01     no limits
   123 Ls1800_12_Bw1_phi  -9.53759e+00  1.00000e+00     no limits
   124 Ls1800_12_Bw2_amp   0.00000e+00  1.00000e+01     no limits
   125 Ls1800_12_Bw2_phi   0.00000e+00  1.00000e+00     no limits
   126 Ls1800_12_Bw3_amp   0.00000e+00  1.00000e+01     no limits
   127 Ls1800_12_Bw3_phi   0.00000e+00  1.00000e+00     no limits
   128 Ls1800_12_Bw4_amp   0.00000e+00  1.00000e+01     no limits
   129 Ls1800_12_Bw4_phi   0.00000e+00  1.00000e+00     no limits
   130 Ls1810_12_Bw1_amp   3.00978e-04  1.00000e+01     no limits
   131 Ls1810_12_Bw1_phi  -5.82718e+00  1.00000e+00     no limits
   132 Ls1810_12_Bw2_amp   0.00000e+00  1.00000e+01     no limits
   133 Ls1810_12_Bw2_phi   0.00000e+00  1.00000e+00     no limits
   134 Ls1810_12_Bw3_amp   0.00000e+00  1.00000e+01     no limits
   135 Ls1810_12_Bw3_phi   0.00000e+00  1.00000e+00     no limits
   136 Ls1820_52_Bw1_amp   0.00000e+00  1.00000e+01     no limits
   137 Ls1820_52_Bw1_phi   0.00000e+00  1.00000e+00     no limits
   138 Ls1820_52_Bw2_amp   0.00000e+00  1.00000e+01     no limits
   139 Ls1820_52_Bw2_phi   0.00000e+00  1.00000e+00     no limits
   140 Ls1820_52_Bw3_amp   0.00000e+00  1.00000e+01     no limits
   141 Ls1820_52_Bw3_phi   0.00000e+00  1.00000e+00     no limits
   142 Ls1830_52_Bw1_amp   0.00000e+00  1.00000e+01     no limits
   143 Ls1830_52_Bw1_phi   0.00000e+00  1.00000e+00     no limits
   144 Ls1830_52_Bw2_amp   0.00000e+00  1.00000e+01     no limits
   145 Ls1830_52_Bw2_phi   0.00000e+00  1.00000e+00     no limits
   146 Ls1830_52_Bw3_amp   0.00000e+00  1.00000e+01     no limits
   147 Ls1830_52_Bw3_phi   0.00000e+00  1.00000e+00     no limits
   148 Ls1890_32_Bw1_amp   4.76561e-02  1.00000e+01     no limits
   149 Ls1890_32_Bw1_phi  -1.01004e+01  1.00000e+00     no limits
   150 Ls1890_32_Bw2_amp   0.00000e+00  1.00000e+01     no limits
   151 Ls1890_32_Bw2_phi   0.00000e+00  1.00000e+00     no limits
   152 Ls1890_32_Bw3_amp   0.00000e+00  1.00000e+01     no limits
   153 Ls1890_32_Bw3_phi   0.00000e+00  1.00000e+00     no limits
   154 Ls2020_72_Bw1_amp   0.00000e+00  1.00000e+01     no limits
   155 Ls2020_72_Bw1_phi   0.00000e+00  1.00000e+00     no limits
   156 Ls2020_72_Bw2_amp   0.00000e+00  1.00000e+01     no limits
   157 Ls2020_72_Bw2_phi   0.00000e+00  1.00000e+00     no limits
   158 Ls2020_72_Bw3_amp   0.00000e+00  1.00000e+01     no limits
   159 Ls2020_72_Bw3_phi   0.00000e+00  1.00000e+00     no limits
   160 Ls2050_32_Bw1_amp   0.00000e+00  1.00000e+01     no limits
   161 Ls2050_32_Bw1_phi   0.00000e+00  1.00000e+00     no limits
   162 Ls2050_32_Bw2_amp   0.00000e+00  1.00000e+01     no limits
   163 Ls2050_32_Bw2_phi   0.00000e+00  1.00000e+00     no limits
   164 Ls2050_32_Bw3_amp   0.00000e+00  1.00000e+01     no limits
   165 Ls2050_32_Bw3_phi   0.00000e+00  1.00000e+00     no limits
   166 Ls2100_72_Bw1_amp   1.48207e+02  1.00000e+01     no limits
   167 Ls2100_72_Bw1_phi   3.55753e+00  1.00000e+00     no limits
   168 Ls2100_72_Bw2_amp   0.00000e+00  1.00000e+01     no limits
   169 Ls2100_72_Bw2_phi   0.00000e+00  1.00000e+00     no limits
   170 Ls2100_72_Bw3_amp   0.00000e+00  1.00000e+01     no limits
   171 Ls2100_72_Bw3_phi   0.00000e+00  1.00000e+00     no limits
   172 Ls2110_52_Bw1_amp   3.85347e+01  1.00000e+01     no limits
   173 Ls2110_52_Bw1_phi  -1.18881e+01  1.00000e+00     no limits
   174 Ls2110_52_Bw2_amp   0.00000e+00  1.00000e+01     no limits
   175 Ls2110_52_Bw2_phi   0.00000e+00  1.00000e+00     no limits
   176 Ls2110_52_Bw3_amp   0.00000e+00  1.00000e+01     no limits
   177 Ls2110_52_Bw3_phi   0.00000e+00  1.00000e+00     no limits
   178 Ls2325_32_Bw1_amp   0.00000e+00  1.00000e+01     no limits
   179 Ls2325_32_Bw1_phi   0.00000e+00  1.00000e+00     no limits
   180 Ls2325_32_Bw2_amp   0.00000e+00  1.00000e+01     no limits
   181 Ls2325_32_Bw2_phi   0.00000e+00  1.00000e+00     no limits
   182 Ls2325_32_Bw3_amp   0.00000e+00  1.00000e+01     no limits
   183 Ls2325_32_Bw3_phi   0.00000e+00  1.00000e+00     no limits
   184 Ls2350_92_Bw1_amp   0.00000e+00  1.00000e+01     no limits
   185 Ls2350_92_Bw1_phi   0.00000e+00  1.00000e+00     no limits
   186 Ls2350_92_Bw2_amp   0.00000e+00  1.00000e+01     no limits
   187 Ls2350_92_Bw2_phi   0.00000e+00  1.00000e+00     no limits
   188 LsNR_12_Bw_amp   0.00000e+00  1.00000e+01     no limits
   189 LsNR_12_Bw_phi   0.00000e+00  1.00000e+00     no limits
   190 Pc1Bw1_amp   0.00000e+00  1.00000e+01     no limits
   191 Pc1Bw1_phi   0.00000e+00  1.00000e+00     no limits
   192 Pc1Bw2_amp   0.00000e+00  1.00000e+01     no limits
   193 Pc1Bw2_phi   0.00000e+00  1.00000e+00     no limits
   194 Pc1Bs1_amp   0.00000e+00  1.00000e+01     no limits
   195 Pc1Bs1_phi   0.00000e+00  1.00000e+00     no limits
   196 Pc1Bs2_amp   0.00000e+00  1.00000e+01     no limits
   197 Pc1Bs2_phi   0.00000e+00  1.00000e+00     no limits
   198 Pc1Bs3_amp   0.00000e+00  1.00000e+01     no limits
   199 Pc1Bs3_phi   0.00000e+00  1.00000e+00     no limits
   200 Pc2Bw1_amp   0.00000e+00  1.00000e+01     no limits
   201 Pc2Bw1_phi   0.00000e+00  1.00000e+00     no limits
   202 Pc2Bw2_amp   0.00000e+00  1.00000e+01     no limits
   203 Pc2Bw2_phi   0.00000e+00  1.00000e+00     no limits
   204 Pc2Bs1_amp   0.00000e+00  1.00000e+01     no limits
   205 Pc2Bs1_phi   0.00000e+00  1.00000e+00     no limits
   206 Pc2Bs2_amp   0.00000e+00  1.00000e+01     no limits
   207 Pc2Bs2_phi   0.00000e+00  1.00000e+00     no limits
   208 Pc2Bs3_amp   0.00000e+00  1.00000e+01     no limits
   209 Pc2Bs3_phi   0.00000e+00  1.00000e+00     no limits
   210 M01          4.29749e+00  1.00000e-02     no limits
   211 M02          4.40093e+00  1.00000e-02     no limits
   212 gamma1       1.56593e-01  1.00000e-02     no limits
   213 gamma2       3.11330e-02  1.00000e-02     no limits
   214 comb_bg_norm   5.75704e+04  1.00000e+02     no limits
 **********
 **    1 **FIX          86
 **********
 **********
 **    2 **FIX         104
 **********
 **********
 **    3 **FIX          96
 **********
 **********
 **    4 **FIX         113
 **********
 **********
 **    5 **FIX           1
 **********
 **********
 **    6 **FIX           2
 **********
 **********
 **    7 **FIX           3
 **********
 **********
 **    8 **FIX           4
 **********
 **********
 **    9 **FIX           5
 **********
 **********
 **   10 **FIX           6
 **********
 **********
 **   11 **FIX           7
 **********
 **********
 **   12 **FIX           8
 **********
 **********
 **   13 **FIX           9
 **********
 **********
 **   14 **FIX          10
 **********
 **********
 **   15 **FIX          11
 **********
 **********
 **   16 **FIX          12
 **********
 **********
 **   17 **FIX          13
 **********
 **********
 **   18 **FIX          14
 **********
 **********
 **   19 **FIX          15
 **********
 **********
 **   20 **FIX          16
 **********
 **********
 **   21 **FIX          17
 **********
 **********
 **   22 **FIX          18
 **********
 **********
 **   23 **FIX          19
 **********
 **********
 **   24 **FIX          20
 **********
 **********
 **   25 **FIX          21
 **********
 **********
 **   26 **FIX          22
 **********
 **********
 **   27 **FIX          23
 **********
 **********
 **   28 **FIX          24
 **********
 **********
 **   29 **FIX          25
 **********
 **********
 **   30 **FIX          26
 **********
 **********
 **   31 **FIX          27
 **********
 **********
 **   32 **FIX          28
 **********
 **********
 **   33 **FIX          29
 **********
 **********
 **   34 **FIX          30
 **********
 **********
 **   35 **FIX          31
 **********
 **********
 **   36 **FIX          32
 **********
 **********
 **   37 **FIX          33
 **********
 **********
 **   38 **FIX          34
 **********
 **********
 **   39 **FIX          35
 **********
 **********
 **   40 **FIX          36
 **********
 **********
 **   41 **FIX          37
 **********
 **********
 **   42 **FIX          38
 **********
 **********
 **   43 **FIX          39
 **********
 **********
 **   44 **FIX          40
 **********
 **********
 **   45 **FIX          47
 **********
 **********
 **   46 **FIX          48
 **********
 **********
 **   47 **FIX          49
 **********
 **********
 **   48 **FIX          50
 **********
 **********
 **   49 **FIX          51
 **********
 **********
 **   50 **FIX          52
 **********
 **********
 **   51 **FIX          53
 **********
 **********
 **   52 **FIX          54
 **********
 **********
 **   53 **FIX          55
 **********
 **********
 **   54 **FIX          56
 **********
 **********
 **   55 **FIX          57
 **********
 **********
 **   56 **FIX          58
 **********
 **********
 **   57 **FIX          59
 **********
 **********
 **   58 **FIX          60
 **********
 **********
 **   59 **FIX          61
 **********
 **********
 **   60 **FIX          62
 **********
 **********
 **   61 **FIX          63
 **********
 **********
 **   62 **FIX          64
 **********
 **********
 **   63 **FIX          65
 **********
 **********
 **   64 **FIX          66
 **********
 **********
 **   65 **FIX          67
 **********
 **********
 **   66 **FIX          68
 **********
 **********
 **   67 **FIX          69
 **********
 **********
 **   68 **FIX          70
 **********
 **********
 **   69 **FIX          71
 **********
 **********
 **   70 **FIX          72
 **********
 **********
 **   71 **FIX          73
 **********
 **********
 **   72 **FIX          74
 **********
 **********
 **   73 **FIX          75
 **********
 **********
 **   74 **FIX          76
 **********
 **********
 **   75 **FIX          77
 **********
 **********
 **   76 **FIX          78
 **********
 **********
 **   77 **FIX          79
 **********
 **********
 **   78 **FIX          80
 **********
 **********
 **   79 **FIX          81
 **********
 **********
 **   80 **FIX          82
 **********
 **********
 **   81 **FIX          83
 **********
 **********
 **   82 **FIX          84
 **********
 **********
 **   83 **FIX          85
 **********
 **********
 **   84 **FIX          86
 **********
 PARAMETER   86  ALREADY FIXED. IGNORED.
 **********
 **   85 **FIX          87
 **********
 **********
 **   86 **FIX          88
 **********
 **********
 **   87 **FIX          89
 **********
 **********
 **   88 **FIX          90
 **********
 **********
 **   89 **FIX          91
 **********
 **********
 **   90 **FIX          92
 **********
 **********
 **   91 **FIX          93
 **********
 **********
 **   92 **FIX          94
 **********
 **********
 **   93 **FIX          95
 **********
 **********
 **   94 **FIX          96
 **********
 PARAMETER   96  ALREADY FIXED. IGNORED.
 **********
 **   95 **FIX          97
 **********
 **********
 **   96 **FIX          98
 **********
 **********
 **   97 **FIX          99
 **********
 **********
 **   98 **FIX         100
 **********
 **********
 **   99 **FIX         101
 **********
 **********
 **  100 **FIX         102
 **********
 **********
 **  101 **FIX         103
 **********
 **********
 **  102 **FIX         104
 **********
 PARAMETER  104  ALREADY FIXED. IGNORED.
 **********
 **  103 **FIX         105
 **********
 **********
 **  104 **FIX         106
 **********
 **********
 **  105 **FIX         107
 **********
 **********
 **  106 **FIX         108
 **********
 **********
 **  107 **FIX         109
 **********
 **********
 **  108 **FIX         110
 **********
 **********
 **  109 **FIX         111
 **********
 **********
 **  110 **FIX         112
 **********
 **********
 **  111 **FIX         113
 **********
 PARAMETER  113  ALREADY FIXED. IGNORED.
 **********
 **  112 **FIX         114
 **********
 **********
 **  113 **FIX         115
 **********
 **********
 **  114 **FIX         116
 **********
 **********
 **  115 **FIX         117
 **********
 **********
 **  116 **FIX         118
 **********
 **********
 **  117 **FIX         119
 **********
 **********
 **  118 **FIX         120
 **********
 **********
 **  119 **FIX         121
 **********
 **********
 **  120 **FIX         122
 **********
 **********
 **  121 **FIX         123
 **********
 **********
 **  122 **FIX         124
 **********
 **********
 **  123 **FIX         125
 **********
 **********
 **  124 **FIX         126
 **********
 **********
 **  125 **FIX         127
 **********
 **********
 **  126 **FIX         128
 **********
 **********
 **  127 **FIX         129
 **********
 **********
 **  128 **FIX         130
 **********
 **********
 **  129 **FIX         131
 **********
 **********
 **  130 **FIX         132
 **********
 **********
 **  131 **FIX         133
 **********
 **********
 **  132 **FIX         134
 **********
 **********
 **  133 **FIX         135
 **********
 **********
 **  134 **FIX         136
 **********
 **********
 **  135 **FIX         137
 **********
 **********
 **  136 **FIX         138
 **********
 **********
 **  137 **FIX         139
 **********
 **********
 **  138 **FIX         140
 **********
 **********
 **  139 **FIX         141
 **********
 **********
 **  140 **FIX         142
 **********
 **********
 **  141 **FIX         143
 **********
 **********
 **  142 **FIX         144
 **********
 **********
 **  143 **FIX         145
 **********
 **********
 **  144 **FIX         146
 **********
 **********
 **  145 **FIX         147
 **********
 **********
 **  146 **FIX         148
 **********
 **********
 **  147 **FIX         149
 **********
 **********
 **  148 **FIX         150
 **********
 **********
 **  149 **FIX         151
 **********
 **********
 **  150 **FIX         152
 **********
 **********
 **  151 **FIX         153
 **********
 **********
 **  152 **FIX         154
 **********
 **********
 **  153 **FIX         155
 **********
 **********
 **  154 **FIX         156
 **********
 **********
 **  155 **FIX         157
 **********
 **********
 **  156 **FIX         158
 **********
 **********
 **  157 **FIX         159
 **********
 **********
 **  158 **FIX         160
 **********
 **********
 **  159 **FIX         161
 **********
 **********
 **  160 **FIX         162
 **********
 **********
 **  161 **FIX         163
 **********
 **********
 **  162 **FIX         164
 **********
 **********
 **  163 **FIX         165
 **********
 **********
 **  164 **FIX         166
 **********
 **********
 **  165 **FIX         167
 **********
 **********
 **  166 **FIX         168
 **********
 **********
 **  167 **FIX         169
 **********
 **********
 **  168 **FIX         170
 **********
 **********
 **  169 **FIX         171
 **********
 **********
 **  170 **FIX         172
 **********
 **********
 **  171 **FIX         173
 **********
 **********
 **  172 **FIX         174
 **********
 **********
 **  173 **FIX         175
 **********
 **********
 **  174 **FIX         176
 **********
 **********
 **  175 **FIX         177
 **********
 **********
 **  176 **FIX         178
 **********
 **********
 **  177 **FIX         179
 **********
 **********
 **  178 **FIX         180
 **********
 **********
 **  179 **FIX         181
 **********
 **********
 **  180 **FIX         182
 **********
 **********
 **  181 **FIX         183
 **********
 **********
 **  182 **FIX         184
 **********
 **********
 **  183 **FIX         185
 **********
 **********
 **  184 **FIX         186
 **********
 **********
 **  185 **FIX         187
 **********
 **********
 **  186 **FIX         188
 **********
 **********
 **  187 **FIX         189
 **********
 **********
 **  188 **FIX         190
 **********
 **********
 **  189 **FIX         191
 **********
 **********
 **  190 **FIX         192
 **********
 **********
 **  191 **FIX         193
 **********
 **********
 **  192 **FIX         194
 **********
 **********
 **  193 **FIX         195
 **********
 **********
 **  194 **FIX         196
 **********
 **********
 **  195 **FIX         197
 **********
 **********
 **  196 **FIX         198
 **********
 **********
 **  197 **FIX         199
 **********
 **********
 **  198 **FIX         200
 **********
 **********
 **  199 **FIX         201
 **********
 **********
 **  200 **FIX         202
 **********
 **********
 **  201 **FIX         203
 **********
 **********
 **  202 **FIX         204
 **********
 **********
 **  203 **FIX         205
 **********
 **********
 **  204 **FIX         206
 **********
 **********
 **  205 **FIX         207
 **********
 **********
 **  206 **FIX         208
 **********
 **********
 **  207 **FIX         209
 **********
 **********
 **  208 **FIX         210
 **********
 **********
 **  209 **FIX         211
 **********
 **********
 **  210 **FIX         212
 **********
 **********
 **  211 **FIX         213
 **********
 **********
 **  212 **FIX         214
 **********
 **********
 **  213 **FIX          45
 **********
 **********
 **  214 **FIX          46
 **********
 **********
 **  215 **SET ERRDEF         0.5
 **********
 **********
 **  216 **SET ERR           1
 **********
 **********
 **  217 **MIGRAD       1e+05        0.01
 **********
 FIRST CALL TO USER FUNCTION AT NEW START POINT, WITH IFLAG=4.
 START MIGRAD MINIMIZATION.  STRATEGY  1.  CONVERGENCE WHEN EDM .LT. 1.00e-05
 FCN=-211725 FROM MIGRAD    STATUS=INITIATE       36 CALLS          37 TOTAL
                     EDM= unknown      STRATEGY= 1      NO ERROR MATRIX       
  EXT PARAMETER               CURRENT GUESS       STEP         FIRST   
  NO.   NAME      VALUE            ERROR          SIZE      DERIVATIVE 
   1  K1410_1_Bw1_amp   1.00000e+00     fixed    
   2  K1410_1_Bw1_phi  -8.16571e+00     fixed    
   3  K1430_0_Bw1_amp   1.30895e+01     fixed    
   4  K1430_0_Bw1_phi  -2.43979e+00     fixed    
   5  K1430_2_Bw1_amp  -1.98640e+01     fixed    
   6  K1430_2_Bw1_phi  -5.24381e+02     fixed    
   7  K1680_1_Bw1_amp  -1.18208e+01     fixed    
   8  K1680_1_Bw1_phi  -6.05579e+02     fixed    
   9  K1780_3_Bw1_amp   1.10735e+03     fixed    
  10  K1780_3_Bw1_phi  -9.47599e+01     fixed    
  11  K1950_0_Bw1_amp  -2.15513e+00     fixed    
  12  K1950_0_Bw1_phi   8.33978e+00     fixed    
  13  K2045_4_Bw1_amp   3.01735e+05     fixed    
  14  K2045_4_Bw1_phi  -4.12374e+03     fixed    
  15  K1980_2_Bw1_amp   8.07555e+02     fixed    
  16  K1980_2_Bw1_phi   2.26530e+02     fixed    
  17  K1410_1_Bw2_amp   4.82184e+01     fixed    
  18  K1410_1_Bw2_phi  -2.95817e+00     fixed    
  19  K1410_1_Bw3_amp   4.71329e+01     fixed    
  20  K1410_1_Bw3_phi   3.84867e+00     fixed    
  21  K1430_2_Bw2_amp  -3.35322e+02     fixed    
  22  K1430_2_Bw2_phi   1.19792e+02     fixed    
  23  K1430_2_Bw3_amp   8.12302e+02     fixed    
  24  K1430_2_Bw3_phi   4.57836e+01     fixed    
  25  K1680_1_Bw2_amp  -4.40986e+01     fixed    
  26  K1680_1_Bw2_phi  -8.08472e+00     fixed    
  27  K1680_1_Bw3_amp   6.46968e+01     fixed    
  28  K1680_1_Bw3_phi   1.03684e+00     fixed    
  29  K1780_3_Bw2_amp  -2.69693e+03     fixed    
  30  K1780_3_Bw2_phi  -5.25796e+00     fixed    
  31  K1780_3_Bw3_amp   4.74265e+03     fixed    
  32  K1780_3_Bw3_phi   3.57342e+02     fixed    
  33  K1980_2_Bw2_amp   6.04957e+02     fixed    
  34  K1980_2_Bw2_phi  -1.61248e+01     fixed    
  35  K1980_2_Bw3_amp  -2.86562e+03     fixed    
  36  K1980_2_Bw3_phi   2.74064e+02     fixed    
  37  K2045_4_Bw2_amp   2.73191e+05     fixed    
  38  K2045_4_Bw2_phi   9.40924e-01     fixed    
  39  K2045_4_Bw3_amp  -1.01025e+06     fixed    
  40  K2045_4_Bw3_phi   1.59021e+00     fixed    
  41  X1Bs1_amp   -2.54624e+03   1.00000e+01   0.00000e+00  -6.09379e-02
  42  X1Bs1_phi    1.43330e+01   1.00000e+00   1.44692e+00   9.59134e+01
  43  X1Bs2_amp    4.46526e+04   1.00000e+01   0.00000e+00   4.94791e-03
  44  X1Bs2_phi   -3.57458e+00   1.00000e+00   0.00000e+00   6.44401e+01
  45  gamma_Zc4200   2.88000e-01     fixed    
  46  m_Zc4200     4.21000e+00     fixed    
  47  n_BD_to_JPSI_K_PI_par   0.00000e+00     fixed    
  48  phi1680_1_Bw1_amp   1.00000e+00     fixed    
  49  phi1680_1_Bw1_phi  -6.28615e+04     fixed    
  50  phi1680_1_Bw2_amp  -1.51069e+04     fixed    
  51  phi1680_1_Bw2_phi  -8.13918e+00     fixed    
  52  phi1680_1_Bw3_amp   1.14776e+04     fixed    
  53  phi1680_1_Bw3_phi  -3.29244e+00     fixed    
  54  f1525_2_Bw1_amp  -9.32565e+04     fixed    
  55  f1525_2_Bw1_phi   3.59268e+02     fixed    
  56  f1525_2_Bw2_amp  -5.76122e+04     fixed    
  57  f1525_2_Bw2_phi   3.71231e+00     fixed    
  58  f1525_2_Bw3_amp  -4.54995e+05     fixed    
  59  f1525_2_Bw3_phi   8.66631e+02     fixed    
  60  f1640_2_Bw1_amp  -2.31692e+04     fixed    
  61  f1640_2_Bw1_phi  -1.39306e+04     fixed    
  62  f1640_2_Bw2_amp  -9.89835e+03     fixed    
  63  f1640_2_Bw2_phi   2.07489e+00     fixed    
  64  f1640_2_Bw3_amp   1.88046e+05     fixed    
  65  f1640_2_Bw3_phi  -4.57634e+04     fixed    
  66  f1750_2_Bw1_amp  -1.45568e+04     fixed    
  67  f1750_2_Bw1_phi   2.06620e+04     fixed    
  68  f1750_2_Bw2_amp  -2.47591e+04     fixed    
  69  f1750_2_Bw2_phi  -6.38994e+00     fixed    
  70  f1750_2_Bw3_amp  -1.99921e+05     fixed    
  71  f1750_2_Bw3_phi   1.99699e+04     fixed    
  72  f1950_2_Bw1_amp   6.85936e+04     fixed    
  73  f1950_2_Bw1_phi  -6.06934e+02     fixed    
  74  f1950_2_Bw2_amp  -1.87840e+05     fixed    
  75  f1950_2_Bw2_phi  -7.75447e-01     fixed    
  76  f1950_2_Bw3_amp   2.31702e+04     fixed    
  77  f1950_2_Bw3_phi   7.47571e+04     fixed    
  78  NR_Bw1_amp  -7.04823e+02     fixed    
  79  NR_Bw1_phi   0.00000e+00     fixed    
  80  n_BS_to_JPSI_K_K_par   0.00000e+00     fixed    
  81  n_lambda     1.04699e+04     fixed    
  82  n_BS_PIPI    6.51107e+03     fixed    
  83  n_BD_PIPI    3.73132e+03     fixed    
  84  n_BD_KPI     5.22618e+04     fixed    
  85  n_BS_KK      1.31082e+04     fixed    
  86  p0           6.37526e+00     fixed    
  87  p1          -1.90276e+00     fixed    
  88  p2          -4.49629e+00     fixed    
  89  p3           2.46985e+00     fixed    
  90  a0          -2.49332e-03     fixed    
  91  b0           2.17541e-02     fixed    
  92  b1           3.05983e-01     fixed    
  93  b2          -1.35149e-01     fixed    
  94  x0_KK        4.97817e+00     fixed    
  95  d0_KK        1.69619e+00     fixed    
  96  p0_KK        1.23989e+01     fixed    
  97  p1_KK       -1.98341e+01     fixed    
  98  p2_KK        2.15777e+01     fixed    
  99  p3_KK       -1.21539e+01     fixed    
 100  p4_KK        0.00000e+00     fixed    
 101  p5_KK        0.00000e+00     fixed    
 102  x0_pipi      4.58040e+00     fixed    
 103  d0_pipi     -4.18694e-01     fixed    
 104  p0_pipi     -1.89772e+00     fixed    
 105  p1_pipi      7.26028e+01     fixed    
 106  p2_pipi     -2.12458e+02     fixed    
 107  p3_pipi      2.44537e+02     fixed    
 108  p4_pipi     -9.92902e+01     fixed    
 109  p5_pipi      0.00000e+00     fixed    
 110  p6_pipi      0.00000e+00     fixed    
 111  x0_pKKp     -2.45753e-01     fixed    
 112  d0_pKKp      5.16348e+00     fixed    
 113  p0_pKKp      1.26874e+01     fixed    
 114  p1_pKKp     -1.84980e+01     fixed    
 115  p2_pKKp      1.07222e+01     fixed    
 116  p3_pKKp     -3.34892e+00     fixed    
 117  a0_pKKp      4.81811e-02     fixed    
 118  b0_pKKp      1.42630e-01     fixed    
 119  b1_pKKp      4.50821e-01     fixed    
 120  b2_pKKp     -6.82411e-02     fixed    
 121  u0_pKKp      7.60927e+00     fixed    
 122  Ls1800_12_Bw1_amp   2.60790e-01     fixed    
 123  Ls1800_12_Bw1_phi  -9.53759e+00     fixed    
 124  Ls1800_12_Bw2_amp   0.00000e+00     fixed    
 125  Ls1800_12_Bw2_phi   0.00000e+00     fixed    
 126  Ls1800_12_Bw3_amp   0.00000e+00     fixed    
 127  Ls1800_12_Bw3_phi   0.00000e+00     fixed    
 128  Ls1800_12_Bw4_amp   0.00000e+00     fixed    
 129  Ls1800_12_Bw4_phi   0.00000e+00     fixed    
 130  Ls1810_12_Bw1_amp   3.00978e-04     fixed    
 131  Ls1810_12_Bw1_phi  -5.82718e+00     fixed    
 132  Ls1810_12_Bw2_amp   0.00000e+00     fixed    
 133  Ls1810_12_Bw2_phi   0.00000e+00     fixed    
 134  Ls1810_12_Bw3_amp   0.00000e+00     fixed    
 135  Ls1810_12_Bw3_phi   0.00000e+00     fixed    
 136  Ls1820_52_Bw1_amp   0.00000e+00     fixed    
 137  Ls1820_52_Bw1_phi   0.00000e+00     fixed    
 138  Ls1820_52_Bw2_amp   0.00000e+00     fixed    
 139  Ls1820_52_Bw2_phi   0.00000e+00     fixed    
 140  Ls1820_52_Bw3_amp   0.00000e+00     fixed    
 141  Ls1820_52_Bw3_phi   0.00000e+00     fixed    
 142  Ls1830_52_Bw1_amp   0.00000e+00     fixed    
 143  Ls1830_52_Bw1_phi   0.00000e+00     fixed    
 144  Ls1830_52_Bw2_amp   0.00000e+00     fixed    
 145  Ls1830_52_Bw2_phi   0.00000e+00     fixed    
 146  Ls1830_52_Bw3_amp   0.00000e+00     fixed    
 147  Ls1830_52_Bw3_phi   0.00000e+00     fixed    
 148  Ls1890_32_Bw1_amp   4.76561e-02     fixed    
 149  Ls1890_32_Bw1_phi  -1.01004e+01     fixed    
 150  Ls1890_32_Bw2_amp   0.00000e+00     fixed    
 151  Ls1890_32_Bw2_phi   0.00000e+00     fixed    
 152  Ls1890_32_Bw3_amp   0.00000e+00     fixed    
 153  Ls1890_32_Bw3_phi   0.00000e+00     fixed    
 154  Ls2020_72_Bw1_amp   0.00000e+00     fixed    
 155  Ls2020_72_Bw1_phi   0.00000e+00     fixed    
 156  Ls2020_72_Bw2_amp   0.00000e+00     fixed    
 157  Ls2020_72_Bw2_phi   0.00000e+00     fixed    
 158  Ls2020_72_Bw3_amp   0.00000e+00     fixed    
 159  Ls2020_72_Bw3_phi   0.00000e+00     fixed    
 160  Ls2050_32_Bw1_amp   0.00000e+00     fixed    
 161  Ls2050_32_Bw1_phi   0.00000e+00     fixed    
 162  Ls2050_32_Bw2_amp   0.00000e+00     fixed    
 163  Ls2050_32_Bw2_phi   0.00000e+00     fixed    
 164  Ls2050_32_Bw3_amp   0.00000e+00     fixed    
 165  Ls2050_32_Bw3_phi   0.00000e+00     fixed    
 166  Ls2100_72_Bw1_amp   1.48207e+02     fixed    
 167  Ls2100_72_Bw1_phi   3.55753e+00     fixed    
 168  Ls2100_72_Bw2_amp   0.00000e+00     fixed    
 169  Ls2100_72_Bw2_phi   0.00000e+00     fixed    
 170  Ls2100_72_Bw3_amp   0.00000e+00     fixed    
 171  Ls2100_72_Bw3_phi   0.00000e+00     fixed    
 172  Ls2110_52_Bw1_amp   3.85347e+01     fixed    
 173  Ls2110_52_Bw1_phi  -1.18881e+01     fixed    
 174  Ls2110_52_Bw2_amp   0.00000e+00     fixed    
 175  Ls2110_52_Bw2_phi   0.00000e+00     fixed    
 176  Ls2110_52_Bw3_amp   0.00000e+00     fixed    
 177  Ls2110_52_Bw3_phi   0.00000e+00     fixed    
 178  Ls2325_32_Bw1_amp   0.00000e+00     fixed    
 179  Ls2325_32_Bw1_phi   0.00000e+00     fixed    
 180  Ls2325_32_Bw2_amp   0.00000e+00     fixed    
 181  Ls2325_32_Bw2_phi   0.00000e+00     fixed    
 182  Ls2325_32_Bw3_amp   0.00000e+00     fixed    
 183  Ls2325_32_Bw3_phi   0.00000e+00     fixed    
 184  Ls2350_92_Bw1_amp   0.00000e+00     fixed    
 185  Ls2350_92_Bw1_phi   0.00000e+00     fixed    
 186  Ls2350_92_Bw2_amp   0.00000e+00     fixed    
 187  Ls2350_92_Bw2_phi   0.00000e+00     fixed    
 188  LsNR_12_Bw_amp   0.00000e+00     fixed    
 189  LsNR_12_Bw_phi   0.00000e+00     fixed    
 190  Pc1Bw1_amp   0.00000e+00     fixed    
 191  Pc1Bw1_phi   0.00000e+00     fixed    
 192  Pc1Bw2_amp   0.00000e+00     fixed    
 193  Pc1Bw2_phi   0.00000e+00     fixed    
 194  Pc1Bs1_amp   0.00000e+00     fixed    
 195  Pc1Bs1_phi   0.00000e+00     fixed    
 196  Pc1Bs2_amp   0.00000e+00     fixed    
 197  Pc1Bs2_phi   0.00000e+00     fixed    
 198  Pc1Bs3_amp   0.00000e+00     fixed    
 199  Pc1Bs3_phi   0.00000e+00     fixed    
 200  Pc2Bw1_amp   0.00000e+00     fixed    
 201  Pc2Bw1_phi   0.00000e+00     fixed    
 202  Pc2Bw2_amp   0.00000e+00     fixed    
 203  Pc2Bw2_phi   0.00000e+00     fixed    
 204  Pc2Bs1_amp   0.00000e+00     fixed    
 205  Pc2Bs1_phi   0.00000e+00     fixed    
 206  Pc2Bs2_amp   0.00000e+00     fixed    
 207  Pc2Bs2_phi   0.00000e+00     fixed    
 208  Pc2Bs3_amp   0.00000e+00     fixed    
 209  Pc2Bs3_phi   0.00000e+00     fixed    
 210  M01          4.29749e+00     fixed    
 211  M02          4.40093e+00     fixed    
 212  gamma1       1.56593e-01     fixed    
 213  gamma2       3.11330e-02     fixed    
 214  comb_bg_norm   5.75704e+04     fixed    
 MIGRAD FAILS TO FIND IMPROVEMENT
 MACHINE ACCURACY LIMITS FURTHER IMPROVEMENT.
 MIGRAD MINIMIZATION HAS CONVERGED.
 FCN=-211829 FROM MIGRAD    STATUS=CONVERGED     170 CALLS         171 TOTAL
                     EDM=6.48728e-05    STRATEGY= 1  ERROR MATRIX UNCERTAINTY   8.4 per cent
  EXT PARAMETER                                   STEP         FIRST   
  NO.   NAME      VALUE            ERROR          SIZE      DERIVATIVE 
   1  K1410_1_Bw1_amp   1.00000e+00     fixed    
   2  K1410_1_Bw1_phi  -8.16571e+00     fixed    
   3  K1430_0_Bw1_amp   1.30895e+01     fixed    
   4  K1430_0_Bw1_phi  -2.43979e+00     fixed    
   5  K1430_2_Bw1_amp  -1.98640e+01     fixed    
   6  K1430_2_Bw1_phi  -5.24381e+02     fixed    
   7  K1680_1_Bw1_amp  -1.18208e+01     fixed    
   8  K1680_1_Bw1_phi  -6.05579e+02     fixed    
   9  K1780_3_Bw1_amp   1.10735e+03     fixed    
  10  K1780_3_Bw1_phi  -9.47599e+01     fixed    
  11  K1950_0_Bw1_amp  -2.15513e+00     fixed    
  12  K1950_0_Bw1_phi   8.33978e+00     fixed    
  13  K2045_4_Bw1_amp   3.01735e+05     fixed    
  14  K2045_4_Bw1_phi  -4.12374e+03     fixed    
  15  K1980_2_Bw1_amp   8.07555e+02     fixed    
  16  K1980_2_Bw1_phi   2.26530e+02     fixed    
  17  K1410_1_Bw2_amp   4.82184e+01     fixed    
  18  K1410_1_Bw2_phi  -2.95817e+00     fixed    
  19  K1410_1_Bw3_amp   4.71329e+01     fixed    
  20  K1410_1_Bw3_phi   3.84867e+00     fixed    
  21  K1430_2_Bw2_amp  -3.35322e+02     fixed    
  22  K1430_2_Bw2_phi   1.19792e+02     fixed    
  23  K1430_2_Bw3_amp   8.12302e+02     fixed    
  24  K1430_2_Bw3_phi   4.57836e+01     fixed    
  25  K1680_1_Bw2_amp  -4.40986e+01     fixed    
  26  K1680_1_Bw2_phi  -8.08472e+00     fixed    
  27  K1680_1_Bw3_amp   6.46968e+01     fixed    
  28  K1680_1_Bw3_phi   1.03684e+00     fixed    
  29  K1780_3_Bw2_amp  -2.69693e+03     fixed    
  30  K1780_3_Bw2_phi  -5.25796e+00     fixed    
  31  K1780_3_Bw3_amp   4.74265e+03     fixed    
  32  K1780_3_Bw3_phi   3.57342e+02     fixed    
  33  K1980_2_Bw2_amp   6.04957e+02     fixed    
  34  K1980_2_Bw2_phi  -1.61248e+01     fixed    
  35  K1980_2_Bw3_amp  -2.86562e+03     fixed    
  36  K1980_2_Bw3_phi   2.74064e+02     fixed    
  37  K2045_4_Bw2_amp   2.73191e+05     fixed    
  38  K2045_4_Bw2_phi   9.40924e-01     fixed    
  39  K2045_4_Bw3_amp  -1.01025e+06     fixed    
  40  K2045_4_Bw3_phi   1.59021e+00     fixed    
  41  X1Bs1_amp   -1.30821e+03   2.26071e+02   0.00000e+00  -8.11776e-05
  42  X1Bs1_phi    1.43218e+01   3.24460e-02  -0.00000e+00  -2.60570e-02
  43  X1Bs2_amp    3.42505e+04   3.19048e+03   0.00000e+00   2.43911e-06
  44  X1Bs2_phi   -4.30268e+00   5.62702e-02  -0.00000e+00   2.82707e-02
  45  gamma_Zc4200   2.88000e-01     fixed    
  46  m_Zc4200     4.21000e+00     fixed    
  47  n_BD_to_JPSI_K_PI_par   0.00000e+00     fixed    
  48  phi1680_1_Bw1_amp   1.00000e+00     fixed    
  49  phi1680_1_Bw1_phi  -6.28615e+04     fixed    
  50  phi1680_1_Bw2_amp  -1.51069e+04     fixed    
  51  phi1680_1_Bw2_phi  -8.13918e+00     fixed    
  52  phi1680_1_Bw3_amp   1.14776e+04     fixed    
  53  phi1680_1_Bw3_phi  -3.29244e+00     fixed    
  54  f1525_2_Bw1_amp  -9.32565e+04     fixed    
  55  f1525_2_Bw1_phi   3.59268e+02     fixed    
  56  f1525_2_Bw2_amp  -5.76122e+04     fixed    
  57  f1525_2_Bw2_phi   3.71231e+00     fixed    
  58  f1525_2_Bw3_amp  -4.54995e+05     fixed    
  59  f1525_2_Bw3_phi   8.66631e+02     fixed    
  60  f1640_2_Bw1_amp  -2.31692e+04     fixed    
  61  f1640_2_Bw1_phi  -1.39306e+04     fixed    
  62  f1640_2_Bw2_amp  -9.89835e+03     fixed    
  63  f1640_2_Bw2_phi   2.07489e+00     fixed    
  64  f1640_2_Bw3_amp   1.88046e+05     fixed    
  65  f1640_2_Bw3_phi  -4.57634e+04     fixed    
  66  f1750_2_Bw1_amp  -1.45568e+04     fixed    
  67  f1750_2_Bw1_phi   2.06620e+04     fixed    
  68  f1750_2_Bw2_amp  -2.47591e+04     fixed    
  69  f1750_2_Bw2_phi  -6.38994e+00     fixed    
  70  f1750_2_Bw3_amp  -1.99921e+05     fixed    
  71  f1750_2_Bw3_phi   1.99699e+04     fixed    
  72  f1950_2_Bw1_amp   6.85936e+04     fixed    
  73  f1950_2_Bw1_phi  -6.06934e+02     fixed    
  74  f1950_2_Bw2_amp  -1.87840e+05     fixed    
  75  f1950_2_Bw2_phi  -7.75447e-01     fixed    
  76  f1950_2_Bw3_amp   2.31702e+04     fixed    
  77  f1950_2_Bw3_phi   7.47571e+04     fixed    
  78  NR_Bw1_amp  -7.04823e+02     fixed    
  79  NR_Bw1_phi   0.00000e+00     fixed    
  80  n_BS_to_JPSI_K_K_par   0.00000e+00     fixed    
  81  n_lambda     1.04699e+04     fixed    
  82  n_BS_PIPI    6.51107e+03     fixed    
  83  n_BD_PIPI    3.73132e+03     fixed    
  84  n_BD_KPI     5.22618e+04     fixed    
  85  n_BS_KK      1.31082e+04     fixed    
  86  p0           6.37526e+00     fixed    
  87  p1          -1.90276e+00     fixed    
  88  p2          -4.49629e+00     fixed    
  89  p3           2.46985e+00     fixed    
  90  a0          -2.49332e-03     fixed    
  91  b0           2.17541e-02     fixed    
  92  b1           3.05983e-01     fixed    
  93  b2          -1.35149e-01     fixed    
  94  x0_KK        4.97817e+00     fixed    
  95  d0_KK        1.69619e+00     fixed    
  96  p0_KK        1.23989e+01     fixed    
  97  p1_KK       -1.98341e+01     fixed    
  98  p2_KK        2.15777e+01     fixed    
  99  p3_KK       -1.21539e+01     fixed    
 100  p4_KK        0.00000e+00     fixed    
 101  p5_KK        0.00000e+00     fixed    
 102  x0_pipi      4.58040e+00     fixed    
 103  d0_pipi     -4.18694e-01     fixed    
 104  p0_pipi     -1.89772e+00     fixed    
 105  p1_pipi      7.26028e+01     fixed    
 106  p2_pipi     -2.12458e+02     fixed    
 107  p3_pipi      2.44537e+02     fixed    
 108  p4_pipi     -9.92902e+01     fixed    
 109  p5_pipi      0.00000e+00     fixed    
 110  p6_pipi      0.00000e+00     fixed    
 111  x0_pKKp     -2.45753e-01     fixed    
 112  d0_pKKp      5.16348e+00     fixed    
 113  p0_pKKp      1.26874e+01     fixed    
 114  p1_pKKp     -1.84980e+01     fixed    
 115  p2_pKKp      1.07222e+01     fixed    
 116  p3_pKKp     -3.34892e+00     fixed    
 117  a0_pKKp      4.81811e-02     fixed    
 118  b0_pKKp      1.42630e-01     fixed    
 119  b1_pKKp      4.50821e-01     fixed    
 120  b2_pKKp     -6.82411e-02     fixed    
 121  u0_pKKp      7.60927e+00     fixed    
 122  Ls1800_12_Bw1_amp   2.60790e-01     fixed    
 123  Ls1800_12_Bw1_phi  -9.53759e+00     fixed    
 124  Ls1800_12_Bw2_amp   0.00000e+00     fixed    
 125  Ls1800_12_Bw2_phi   0.00000e+00     fixed    
 126  Ls1800_12_Bw3_amp   0.00000e+00     fixed    
 127  Ls1800_12_Bw3_phi   0.00000e+00     fixed    
 128  Ls1800_12_Bw4_amp   0.00000e+00     fixed    
 129  Ls1800_12_Bw4_phi   0.00000e+00     fixed    
 130  Ls1810_12_Bw1_amp   3.00978e-04     fixed    
 131  Ls1810_12_Bw1_phi  -5.82718e+00     fixed    
 132  Ls1810_12_Bw2_amp   0.00000e+00     fixed    
 133  Ls1810_12_Bw2_phi   0.00000e+00     fixed    
 134  Ls1810_12_Bw3_amp   0.00000e+00     fixed    
 135  Ls1810_12_Bw3_phi   0.00000e+00     fixed    
 136  Ls1820_52_Bw1_amp   0.00000e+00     fixed    
 137  Ls1820_52_Bw1_phi   0.00000e+00     fixed    
 138  Ls1820_52_Bw2_amp   0.00000e+00     fixed    
 139  Ls1820_52_Bw2_phi   0.00000e+00     fixed    
 140  Ls1820_52_Bw3_amp   0.00000e+00     fixed    
 141  Ls1820_52_Bw3_phi   0.00000e+00     fixed    
 142  Ls1830_52_Bw1_amp   0.00000e+00     fixed    
 143  Ls1830_52_Bw1_phi   0.00000e+00     fixed    
 144  Ls1830_52_Bw2_amp   0.00000e+00     fixed    
 145  Ls1830_52_Bw2_phi   0.00000e+00     fixed    
 146  Ls1830_52_Bw3_amp   0.00000e+00     fixed    
 147  Ls1830_52_Bw3_phi   0.00000e+00     fixed    
 148  Ls1890_32_Bw1_amp   4.76561e-02     fixed    
 149  Ls1890_32_Bw1_phi  -1.01004e+01     fixed    
 150  Ls1890_32_Bw2_amp   0.00000e+00     fixed    
 151  Ls1890_32_Bw2_phi   0.00000e+00     fixed    
 152  Ls1890_32_Bw3_amp   0.00000e+00     fixed    
 153  Ls1890_32_Bw3_phi   0.00000e+00     fixed    
 154  Ls2020_72_Bw1_amp   0.00000e+00     fixed    
 155  Ls2020_72_Bw1_phi   0.00000e+00     fixed    
 156  Ls2020_72_Bw2_amp   0.00000e+00     fixed    
 157  Ls2020_72_Bw2_phi   0.00000e+00     fixed    
 158  Ls2020_72_Bw3_amp   0.00000e+00     fixed    
 159  Ls2020_72_Bw3_phi   0.00000e+00     fixed    
 160  Ls2050_32_Bw1_amp   0.00000e+00     fixed    
 161  Ls2050_32_Bw1_phi   0.00000e+00     fixed    
 162  Ls2050_32_Bw2_amp   0.00000e+00     fixed    
 163  Ls2050_32_Bw2_phi   0.00000e+00     fixed    
 164  Ls2050_32_Bw3_amp   0.00000e+00     fixed    
 165  Ls2050_32_Bw3_phi   0.00000e+00     fixed    
 166  Ls2100_72_Bw1_amp   1.48207e+02     fixed    
 167  Ls2100_72_Bw1_phi   3.55753e+00     fixed    
 168  Ls2100_72_Bw2_amp   0.00000e+00     fixed    
 169  Ls2100_72_Bw2_phi   0.00000e+00     fixed    
 170  Ls2100_72_Bw3_amp   0.00000e+00     fixed    
 171  Ls2100_72_Bw3_phi   0.00000e+00     fixed    
 172  Ls2110_52_Bw1_amp   3.85347e+01     fixed    
 173  Ls2110_52_Bw1_phi  -1.18881e+01     fixed    
 174  Ls2110_52_Bw2_amp   0.00000e+00     fixed    
 175  Ls2110_52_Bw2_phi   0.00000e+00     fixed    
 176  Ls2110_52_Bw3_amp   0.00000e+00     fixed    
 177  Ls2110_52_Bw3_phi   0.00000e+00     fixed    
 178  Ls2325_32_Bw1_amp   0.00000e+00     fixed    
 179  Ls2325_32_Bw1_phi   0.00000e+00     fixed    
 180  Ls2325_32_Bw2_amp   0.00000e+00     fixed    
 181  Ls2325_32_Bw2_phi   0.00000e+00     fixed    
 182  Ls2325_32_Bw3_amp   0.00000e+00     fixed    
 183  Ls2325_32_Bw3_phi   0.00000e+00     fixed    
 184  Ls2350_92_Bw1_amp   0.00000e+00     fixed    
 185  Ls2350_92_Bw1_phi   0.00000e+00     fixed    
 186  Ls2350_92_Bw2_amp   0.00000e+00     fixed    
 187  Ls2350_92_Bw2_phi   0.00000e+00     fixed    
 188  LsNR_12_Bw_amp   0.00000e+00     fixed    
 189  LsNR_12_Bw_phi   0.00000e+00     fixed    
 190  Pc1Bw1_amp   0.00000e+00     fixed    
 191  Pc1Bw1_phi   0.00000e+00     fixed    
 192  Pc1Bw2_amp   0.00000e+00     fixed    
 193  Pc1Bw2_phi   0.00000e+00     fixed    
 194  Pc1Bs1_amp   0.00000e+00     fixed    
 195  Pc1Bs1_phi   0.00000e+00     fixed    
 196  Pc1Bs2_amp   0.00000e+00     fixed    
 197  Pc1Bs2_phi   0.00000e+00     fixed    
 198  Pc1Bs3_amp   0.00000e+00     fixed    
 199  Pc1Bs3_phi   0.00000e+00     fixed    
 200  Pc2Bw1_amp   0.00000e+00     fixed    
 201  Pc2Bw1_phi   0.00000e+00     fixed    
 202  Pc2Bw2_amp   0.00000e+00     fixed    
 203  Pc2Bw2_phi   0.00000e+00     fixed    
 204  Pc2Bs1_amp   0.00000e+00     fixed    
 205  Pc2Bs1_phi   0.00000e+00     fixed    
 206  Pc2Bs2_amp   0.00000e+00     fixed    
 207  Pc2Bs2_phi   0.00000e+00     fixed    
 208  Pc2Bs3_amp   0.00000e+00     fixed    
 209  Pc2Bs3_phi   0.00000e+00     fixed    
 210  M01          4.29749e+00     fixed    
 211  M02          4.40093e+00     fixed    
 212  gamma1       1.56593e-01     fixed    
 213  gamma2       3.11330e-02     fixed    
 214  comb_bg_norm   5.75704e+04     fixed    
 EXTERNAL ERROR MATRIX.    NDIM= 215    NPAR=  4    ERR DEF=1
  5.111e+04 -4.230e+00  7.147e+05  1.420e-01 
 -4.230e+00  1.053e-03 -5.387e+01 -1.467e-03 
  7.147e+05 -5.387e+01  1.018e+07 -6.099e+00 
  1.420e-01 -1.467e-03 -6.099e+00  3.166e-03 
 PARAMETER  CORRELATION COEFFICIENTS  
       NO.  GLOBAL     41     42     43     44
       41  0.99728   1.000 -0.577  0.991  0.011
       42  0.99092  -0.577  1.000 -0.520 -0.804
       43  0.99541   0.991 -0.520  1.000 -0.034
       44  0.98458   0.011 -0.804 -0.034  1.000

After fit statistics:

signal area:

n_BD_to_JPSI_K_PI	36832.4	0.688037
n_BS_to_JPSI_K_K	7682.07	0.143503
n_BS_to_JPSI_PI_PI	86.5406	0.0016166
n_BD_to_JPSI_PI_PI	676.85	0.0126437
n_LAMBDA0B_to_JPSI_P_K	4208.19	0.0786099
n_comb_bg	4046.54	0.0755902
describing:	0.998333

control area:

n_BD_to_JPSI_K_PI	13820.5
n_BS_to_JPSI_K_K	8290.99
n_BS_to_JPSI_PI_PI	4.04893
n_BD_to_JPSI_PI_PI	48.9422
n_LAMBDA0B_to_JPSI_P_K	2360.47
n_comb_bg	3718.82
describing:	0.993729

control area Lb:

n_BD_to_JPSI_K_PI	11467.1
n_BS_to_JPSI_K_K	4293.31
n_BS_to_JPSI_PI_PI	111.281
n_BD_to_JPSI_PI_PI	345.644
n_LAMBDA0B_to_JPSI_P_K	6507.94
n_comb_bg	8405.21

JpsiK_2d_K1410_1	116282
JpsiK_2d_K1430_0	327314
JpsiK_2d_K1430_2	121522
JpsiK_2d_K1680_1	208801
JpsiK_2d_K1780_3	56141.1
JpsiK_2d_K1950_0	33722
JpsiK_2d_K1980_2	243735
JpsiK_2d_K2045_4	122322
JpsiK_2d_Zc4200		90359.8


JpsiK_2d_K1410_1	3244.18
JpsiK_2d_K1430_0	9131.77
JpsiK_2d_K1430_2	3390.35
JpsiK_2d_K1680_1	5825.36
JpsiK_2d_K1780_3	1566.29
JpsiK_2d_K1950_0	940.815
JpsiK_2d_K1980_2	6799.99
JpsiK_2d_K2045_4	3412.68
JpsiK_2d_Zc4200		2520.96

nbins 	297

50767.1	50648

OLD:

OLD signal area:

n_BD_to_JPSI_K_PI	34677	0.68306
n_BS_to_JPSI_K_K	7296.01	0.143715
n_BS_to_JPSI_PI_PI	51.9215	0.00102274
n_BD_to_JPSI_PI_PI	306.235	0.00603215
n_LAMBDA0B_to_JPSI_P_K	3305.97	0.0651204
n_comb_bg	5129.97	0.101049
62
40

NEW:

NEW:

n_BD_to_JPSI_K_PI	36832.4	0.693704
n_BS_to_JPSI_K_K	7682.05	0.144684
n_BS_to_JPSI_PI_PI	86.5406	0.00162991
n_BD_to_JPSI_PI_PI	676.85	0.0127478
n_LAMBDA0B_to_JPSI_P_K	4208.19	0.0792574
n_comb_bg	3609.23	0.0679765
pK_Kp_2d_bg	56462.4
pK_Kp_2d_BS_to_JPSI_PI_PI	6511.07
pK_Kp_2d_BD_to_JPSI_PI_PI	3731.32
pK_Kp_2d_BS_to_JPSI_K_K	13108.2
pK_Kp_2d_BD_to_JPSI_K_PI	52261.8
pK_Kp_2d_LAMBDA0B_to_JPSI_P_K	10469.9
Minimized function: -211829


 Comb_bg Integral KpipiK:	57570.4


 Comb_bg Integral KK:	57570.4


 Comb_bg Integral pipi:	57570.4


 Comb_bg Integral pKKp:	56462.4


 Comb_bg Integral pKKp rotate:	56462.4


 Comb_bg_true : 	56593.8


_________________________________________________________


Jpsipi_2d
name            data     model    BD_KPI     BS_KK   BD_PIPI   BS_PIPI     LB_PK   comb_bg
2d          53622.00  53532.59  36832.40   7682.07    676.85     86.54   4208.19   4046.54
X           53622.00  53532.59  36832.40   7682.07    676.85     86.54   4208.19   4046.54
Y           53622.00  53532.59  36832.40   7682.07    676.85     86.54   4208.19   4046.54


_________________________________________________________
Angular variables historgrams
_________________________________________________________


cos_theta_Zc
name            data     model    BD_KPI     BS_KK   BD_PIPI   BS_PIPI     LB_PK   comb_bg
2d          53622.00  53532.59  36832.40   7682.07    676.85     86.54   4208.19   4046.54
X           53622.00  53532.59  36832.40   7682.07    676.85     86.54   4208.19   4046.54
Y           53622.00  53532.59  36832.40   7682.07    676.85     86.54   4208.19   4046.54

phi_K
name            data     model    BD_KPI     BS_KK   BD_PIPI   BS_PIPI     LB_PK   comb_bg
2d          53622.00  53532.59  36832.40   7682.07    676.85     86.54   4208.19   4046.54
X           53622.00  53532.59  36832.40   7682.07    676.85     86.54   4208.19   4046.54
Y           53622.00  53532.59  36832.40   7682.07    676.85     86.54   4208.19   4046.54

alpha_mu
name            data     model    BD_KPI     BS_KK   BD_PIPI   BS_PIPI     LB_PK   comb_bg
2d          53622.00  53532.59  36832.40   7682.07    676.85     86.54   4208.19   4046.54
X           53622.00  53532.59  36832.40   7682.07    676.85     86.54   4208.19   4046.54
Y           53622.00  53532.59  36832.40   7682.07    676.85     86.54   4208.19   4046.54

phi_mu_Kstar
name            data     model    BD_KPI     BS_KK   BD_PIPI   BS_PIPI     LB_PK   comb_bg
2d          53622.00  53532.59  36832.40   7682.07    676.85     86.54   4208.19   4046.54
X           53622.00  53532.59  36832.40   7682.07    676.85     86.54   4208.19   4046.54
Y           53622.00  53532.59  36832.40   7682.07    676.85     86.54   4208.19   4046.54

phi_mu_X
name            data     model    BD_KPI     BS_KK   BD_PIPI   BS_PIPI     LB_PK   comb_bg
2d          53622.00  53532.59  36832.40   7682.07    676.85     86.54   4208.19   4046.54
X           53622.00  53532.59  36832.40   7682.07    676.85     86.54   4208.19   4046.54
Y           53622.00  53532.59  36832.40   7682.07    676.85     86.54   4208.19   4046.54

cos_theta_psi_X
name            data     model    BD_KPI     BS_KK   BD_PIPI   BS_PIPI     LB_PK   comb_bg
2d          53622.00  53532.59  36832.40   7682.07    676.85     86.54   4208.19   4046.54
X           53622.00  53532.59  36832.40   7682.07    676.85     86.54   4208.19   4046.54
Y           53622.00  53532.59  36832.40   7682.07    676.85     86.54   4208.19   4046.54

cos_theta_Kstar
name            data     model    BD_KPI     BS_KK   BD_PIPI   BS_PIPI     LB_PK   comb_bg
2d          53622.00  53532.59  36832.40   7682.07    676.85     86.54   4208.19   4046.54
X           53622.00  53532.59  36832.40   7682.07    676.85     86.54   4208.19   4046.54
Y           53622.00  53532.59  36832.40   7682.07    676.85     86.54   4208.19   4046.54

cos_theta_psi_Kstar
name            data     model    BD_KPI     BS_KK   BD_PIPI   BS_PIPI     LB_PK   comb_bg
2d          53622.00  53532.59  36832.40   7682.07    676.85     86.54   4208.19   4046.54
X           53622.00  53532.59  36832.40   7682.07    676.85     86.54   4208.19   4046.54
Y           53622.00  53532.59  36832.40   7682.07    676.85     86.54   4208.19   4046.54


Likelyhood Jpsipi:
-211829
