

		|| MODEL noZc ||


Starting fit global_area_no_comb_form_4tr...

 PARAMETER DEFINITIONS:
    NO.   NAME         VALUE      STEP SIZE      LIMITS
     1 K1410_1_Bw1_amp   1.00000e+00  1.00000e+01     no limits
     2 K1410_1_Bw1_phi  -8.16571e+00  1.00000e+00     no limits
     3 K1430_0_Bw1_amp   8.42835e+00  1.00000e+01     no limits
     4 K1430_0_Bw1_phi  -1.76822e+00  1.00000e+00     no limits
     5 K1430_2_Bw1_amp  -1.18577e+02  1.00000e+01     no limits
     6 K1430_2_Bw1_phi  -5.23858e+02  1.00000e+00     no limits
     7 K1680_1_Bw1_amp  -7.91497e+00  1.00000e+01     no limits
     8 K1680_1_Bw1_phi  -6.03498e+02  1.00000e+00     no limits
     9 K1780_3_Bw1_amp   6.49632e+02  1.00000e+01     no limits
    10 K1780_3_Bw1_phi  -9.54459e+01  1.00000e+00     no limits
    11 K1950_0_Bw1_amp   9.13446e-01  1.00000e+01     no limits
    12 K1950_0_Bw1_phi   7.63947e+00  1.00000e+00     no limits
    13 K2045_4_Bw1_amp   1.32716e+05  1.00000e+01     no limits
    14 K2045_4_Bw1_phi  -4.12330e+03  1.00000e+00     no limits
    15 K1980_2_Bw1_amp   2.85423e+02  1.00000e+01     no limits
    16 K1980_2_Bw1_phi   2.26213e+02  1.00000e+00     no limits
    17 K1410_1_Bw2_amp   6.38436e+01  1.00000e+01     no limits
    18 K1410_1_Bw2_phi  -2.16328e+00  1.00000e+00     no limits
    19 K1410_1_Bw3_amp   9.92641e+01  1.00000e+01     no limits
    20 K1410_1_Bw3_phi   2.13000e+00  1.00000e+00     no limits
    21 K1430_2_Bw2_amp   1.72934e+02  1.00000e+01     no limits
    22 K1430_2_Bw2_phi   1.18731e+02  1.00000e+00     no limits
    23 K1430_2_Bw3_amp   7.93261e+02  1.00000e+01     no limits
    24 K1430_2_Bw3_phi   4.57893e+01  1.00000e+00     no limits
    25 K1680_1_Bw2_amp  -5.69219e+01  1.00000e+01     no limits
    26 K1680_1_Bw2_phi  -7.67610e+00  1.00000e+00     no limits
    27 K1680_1_Bw3_amp   3.63977e+01  1.00000e+01     no limits
    28 K1680_1_Bw3_phi  -3.64068e-01  1.00000e+00     no limits
    29 K1780_3_Bw2_amp  -4.18154e+03  1.00000e+01     no limits
    30 K1780_3_Bw2_phi  -4.70553e+00  1.00000e+00     no limits
    31 K1780_3_Bw3_amp   2.84842e+03  1.00000e+01     no limits
    32 K1780_3_Bw3_phi   3.57302e+02  1.00000e+00     no limits
    33 K1980_2_Bw2_amp   7.81764e+02  1.00000e+01     no limits
    34 K1980_2_Bw2_phi  -1.37961e+01  1.00000e+00     no limits
    35 K1980_2_Bw3_amp  -2.41928e+03  1.00000e+01     no limits
    36 K1980_2_Bw3_phi   2.74556e+02  1.00000e+00     no limits
    37 K2045_4_Bw2_amp   6.15151e+05  1.00000e+01     no limits
    38 K2045_4_Bw2_phi   2.34196e+00  1.00000e+00     no limits
    39 K2045_4_Bw3_amp  -6.72465e+05  1.00000e+01     no limits
    40 K2045_4_Bw3_phi   1.64492e+00  1.00000e+00     no limits
    41 X1Bs1_amp    6.11046e+01  1.00000e+01     no limits
    42 X1Bs1_phi    1.44873e+01  1.00000e+00     no limits
    43 X1Bs2_amp    1.28155e+03  1.00000e+01     no limits
    44 X1Bs2_phi   -5.20304e+00  1.00000e+00     no limits
    45 gamma_Zc4200   3.29954e-01  1.00000e-02    0.00000e+00  5.00000e-01
    46 m_Zc4200     4.16118e+00  1.00000e-01    4.00000e+00  4.40000e+00
    47 n_BD_to_JPSI_K_PI_par   0.00000e+00  1.00000e+01     no limits
    48 phi1680_1_Bw1_amp   1.00000e+00  1.00000e+00     no limits
    49 phi1680_1_Bw1_phi   0.00000e+00  1.00000e+01     no limits
    50 phi1680_1_Bw2_amp  -1.01115e+04  1.00000e+00     no limits
    51 phi1680_1_Bw2_phi  -1.06295e+01  1.00000e+01     no limits
    52 phi1680_1_Bw3_amp   3.79098e+03  1.00000e+00     no limits
    53 phi1680_1_Bw3_phi  -3.07529e+00  1.00000e+01     no limits
    54 f1525_2_Bw1_amp   3.25200e+04  1.00000e+00     no limits
    55 f1525_2_Bw1_phi   3.58005e+02  1.00000e+01     no limits
    56 f1525_2_Bw2_amp  -1.22584e+05  1.00000e+00     no limits
    57 f1525_2_Bw2_phi   1.27201e+00  1.00000e+01     no limits
    58 f1525_2_Bw3_amp  -3.95436e+04  1.00000e+00     no limits
    59 f1525_2_Bw3_phi   8.62509e+02  1.00000e+01     no limits
    60 f1640_2_Bw1_amp  -3.94349e+04  1.00000e+00     no limits
    61 f1640_2_Bw1_phi  -1.39275e+04  1.00000e+01     no limits
    62 f1640_2_Bw2_amp   4.45976e+04  1.00000e+00     no limits
    63 f1640_2_Bw2_phi   2.37223e+00  1.00000e+01     no limits
    64 f1640_2_Bw3_amp   1.24712e+05  1.00000e+00     no limits
    65 f1640_2_Bw3_phi  -4.57658e+04  1.00000e+01     no limits
    66 f1750_2_Bw1_amp  -1.51183e+04  1.00000e+00     no limits
    67 f1750_2_Bw1_phi   2.06609e+04  1.00000e+00     no limits
    68 f1750_2_Bw2_amp  -8.14872e+03  1.00000e+01     no limits
    69 f1750_2_Bw2_phi  -3.49077e+00  1.00000e+00     no limits
    70 f1750_2_Bw3_amp  -5.16619e+04  1.00000e+01     no limits
    71 f1750_2_Bw3_phi   1.99672e+04  1.00000e+00     no limits
    72 f1950_2_Bw1_amp   1.59054e+05  1.00000e+01     no limits
    73 f1950_2_Bw1_phi  -6.05114e+02  1.00000e+00     no limits
    74 f1950_2_Bw2_amp  -1.92183e+05  1.00000e+01     no limits
    75 f1950_2_Bw2_phi  -7.31831e-02  1.00000e+00     no limits
    76 f1950_2_Bw3_amp   3.79736e+04  1.00000e+01     no limits
    77 f1950_2_Bw3_phi   7.47571e+04  1.00000e+00     no limits
    78 NR_Bw1_amp   0.00000e+00  1.00000e+01     no limits
    79 NR_Bw1_phi   0.00000e+00  1.00000e+00     no limits
    80 n_BS_to_JPSI_K_K_par   0.00000e+00  1.00000e+01     no limits
    81 n_lambda     6.28569e+03  1.00000e+02     no limits
    82 n_BS_PIPI    5.51887e+03  1.00000e+02     no limits
    83 n_BD_PIPI    3.49231e+03  1.00000e+02     no limits
    84 n_BD_KPI     4.36496e+04  1.00000e+02     no limits
    85 n_BS_KK      9.89082e+03  1.00000e+02     no limits
    86 p0           6.37526e+00  1.00000e-02     no limits
    87 p1          -1.65792e-01  1.00000e-02     no limits
    88 p2          -6.91204e+00  1.00000e-02     no limits
    89 p3           3.45347e+00  1.00000e-02     no limits
    90 a0          -1.59446e-03  1.00000e-02     no limits
    91 b0           2.00303e-02  1.00000e-02     no limits
    92 b1           3.22451e-01  1.00000e-02     no limits
    93 b2          -1.42549e-01  1.00000e-02     no limits
    94 x0_KK        4.97791e+00  1.00000e-02     no limits
    95 d0_KK        1.56086e+00  1.00000e-02     no limits
    96 p0_KK        1.23989e+01  1.00000e-02     no limits
    97 p1_KK       -1.62842e+01  1.00000e-02     no limits
    98 p2_KK        1.43519e+01  1.00000e-02     no limits
    99 p3_KK       -7.67962e+00  1.00000e-02     no limits
   100 p4_KK        0.00000e+00  1.00000e-02     no limits
   101 p5_KK        0.00000e+00  1.00000e-02     no limits
   102 x0_pipi      4.58224e+00  1.00000e-02     no limits
   103 d0_pipi     -4.91876e-01  1.00000e-02     no limits
   104 p0_pipi     -1.89772e+00  1.00000e-02     no limits
   105 p1_pipi      7.34600e+01  1.00000e-02     no limits
   106 p2_pipi     -2.13834e+02  1.00000e-02     no limits
   107 p3_pipi      2.43679e+02  1.00000e-02     no limits
   108 p4_pipi     -9.75518e+01  1.00000e-02     no limits
   109 p5_pipi      0.00000e+00  1.00000e-02     no limits
   110 p6_pipi      0.00000e+00  1.00000e-02     no limits
   111 x0_pKKp     -1.54419e-01  1.00000e-02     no limits
   112 d0_pKKp      4.11081e+00  1.00000e-02     no limits
   113 p0_pKKp      1.26874e+01  1.00000e-02     no limits
   114 p1_pKKp     -1.58712e+01  1.00000e-02     no limits
   115 p2_pKKp      7.77120e+00  1.00000e-02     no limits
   116 p3_pKKp     -2.13845e+00  1.00000e-02     no limits
   117 a0_pKKp      5.01954e-02  1.00000e-02     no limits
   118 b0_pKKp      1.12485e-01  1.00000e-02     no limits
   119 b1_pKKp      4.24875e-01  1.00000e-02     no limits
   120 b2_pKKp     -2.96722e-02  1.00000e-02     no limits
   121 u0_pKKp      7.53339e+00  1.00000e-02     no limits
   122 Ls1800_12_Bw1_amp   2.60790e-01  1.00000e+01     no limits
   123 Ls1800_12_Bw1_phi  -9.53759e+00  1.00000e+00     no limits
   124 Ls1800_12_Bw2_amp   0.00000e+00  1.00000e+01     no limits
   125 Ls1800_12_Bw2_phi   0.00000e+00  1.00000e+00     no limits
   126 Ls1800_12_Bw3_amp   0.00000e+00  1.00000e+01     no limits
   127 Ls1800_12_Bw3_phi   0.00000e+00  1.00000e+00     no limits
   128 Ls1800_12_Bw4_amp   0.00000e+00  1.00000e+01     no limits
   129 Ls1800_12_Bw4_phi   0.00000e+00  1.00000e+00     no limits
   130 Ls1810_12_Bw1_amp   3.00978e-04  1.00000e+01     no limits
   131 Ls1810_12_Bw1_phi  -5.82718e+00  1.00000e+00     no limits
   132 Ls1810_12_Bw2_amp   0.00000e+00  1.00000e+01     no limits
   133 Ls1810_12_Bw2_phi   0.00000e+00  1.00000e+00     no limits
   134 Ls1810_12_Bw3_amp   0.00000e+00  1.00000e+01     no limits
   135 Ls1810_12_Bw3_phi   0.00000e+00  1.00000e+00     no limits
   136 Ls1820_52_Bw1_amp   0.00000e+00  1.00000e+01     no limits
   137 Ls1820_52_Bw1_phi   0.00000e+00  1.00000e+00     no limits
   138 Ls1820_52_Bw2_amp   0.00000e+00  1.00000e+01     no limits
   139 Ls1820_52_Bw2_phi   0.00000e+00  1.00000e+00     no limits
   140 Ls1820_52_Bw3_amp   0.00000e+00  1.00000e+01     no limits
   141 Ls1820_52_Bw3_phi   0.00000e+00  1.00000e+00     no limits
   142 Ls1830_52_Bw1_amp   0.00000e+00  1.00000e+01     no limits
   143 Ls1830_52_Bw1_phi   0.00000e+00  1.00000e+00     no limits
   144 Ls1830_52_Bw2_amp   0.00000e+00  1.00000e+01     no limits
   145 Ls1830_52_Bw2_phi   0.00000e+00  1.00000e+00     no limits
   146 Ls1830_52_Bw3_amp   0.00000e+00  1.00000e+01     no limits
   147 Ls1830_52_Bw3_phi   0.00000e+00  1.00000e+00     no limits
   148 Ls1890_32_Bw1_amp   4.76561e-02  1.00000e+01     no limits
   149 Ls1890_32_Bw1_phi  -1.01004e+01  1.00000e+00     no limits
   150 Ls1890_32_Bw2_amp   0.00000e+00  1.00000e+01     no limits
   151 Ls1890_32_Bw2_phi   0.00000e+00  1.00000e+00     no limits
   152 Ls1890_32_Bw3_amp   0.00000e+00  1.00000e+01     no limits
   153 Ls1890_32_Bw3_phi   0.00000e+00  1.00000e+00     no limits
   154 Ls2020_72_Bw1_amp   0.00000e+00  1.00000e+01     no limits
   155 Ls2020_72_Bw1_phi   0.00000e+00  1.00000e+00     no limits
   156 Ls2020_72_Bw2_amp   0.00000e+00  1.00000e+01     no limits
   157 Ls2020_72_Bw2_phi   0.00000e+00  1.00000e+00     no limits
   158 Ls2020_72_Bw3_amp   0.00000e+00  1.00000e+01     no limits
   159 Ls2020_72_Bw3_phi   0.00000e+00  1.00000e+00     no limits
   160 Ls2050_32_Bw1_amp   0.00000e+00  1.00000e+01     no limits
   161 Ls2050_32_Bw1_phi   0.00000e+00  1.00000e+00     no limits
   162 Ls2050_32_Bw2_amp   0.00000e+00  1.00000e+01     no limits
   163 Ls2050_32_Bw2_phi   0.00000e+00  1.00000e+00     no limits
   164 Ls2050_32_Bw3_amp   0.00000e+00  1.00000e+01     no limits
   165 Ls2050_32_Bw3_phi   0.00000e+00  1.00000e+00     no limits
   166 Ls2100_72_Bw1_amp   1.48207e+02  1.00000e+01     no limits
   167 Ls2100_72_Bw1_phi   3.55753e+00  1.00000e+00     no limits
   168 Ls2100_72_Bw2_amp   0.00000e+00  1.00000e+01     no limits
   169 Ls2100_72_Bw2_phi   0.00000e+00  1.00000e+00     no limits
   170 Ls2100_72_Bw3_amp   0.00000e+00  1.00000e+01     no limits
   171 Ls2100_72_Bw3_phi   0.00000e+00  1.00000e+00     no limits
   172 Ls2110_52_Bw1_amp   3.85347e+01  1.00000e+01     no limits
   173 Ls2110_52_Bw1_phi  -1.18881e+01  1.00000e+00     no limits
   174 Ls2110_52_Bw2_amp   0.00000e+00  1.00000e+01     no limits
   175 Ls2110_52_Bw2_phi   0.00000e+00  1.00000e+00     no limits
   176 Ls2110_52_Bw3_amp   0.00000e+00  1.00000e+01     no limits
   177 Ls2110_52_Bw3_phi   0.00000e+00  1.00000e+00     no limits
   178 Ls2325_32_Bw1_amp   0.00000e+00  1.00000e+01     no limits
   179 Ls2325_32_Bw1_phi   0.00000e+00  1.00000e+00     no limits
   180 Ls2325_32_Bw2_amp   0.00000e+00  1.00000e+01     no limits
   181 Ls2325_32_Bw2_phi   0.00000e+00  1.00000e+00     no limits
   182 Ls2325_32_Bw3_amp   0.00000e+00  1.00000e+01     no limits
   183 Ls2325_32_Bw3_phi   0.00000e+00  1.00000e+00     no limits
   184 Ls2350_92_Bw1_amp   0.00000e+00  1.00000e+01     no limits
   185 Ls2350_92_Bw1_phi   0.00000e+00  1.00000e+00     no limits
   186 Ls2350_92_Bw2_amp   0.00000e+00  1.00000e+01     no limits
   187 Ls2350_92_Bw2_phi   0.00000e+00  1.00000e+00     no limits
   188 LsNR_12_Bw_amp   0.00000e+00  1.00000e+01     no limits
   189 LsNR_12_Bw_phi   0.00000e+00  1.00000e+00     no limits
   190 Pc1Bw1_amp   0.00000e+00  1.00000e+01     no limits
   191 Pc1Bw1_phi   0.00000e+00  1.00000e+00     no limits
   192 Pc1Bw2_amp   0.00000e+00  1.00000e+01     no limits
   193 Pc1Bw2_phi   0.00000e+00  1.00000e+00     no limits
   194 Pc1Bs1_amp   0.00000e+00  1.00000e+01     no limits
   195 Pc1Bs1_phi   0.00000e+00  1.00000e+00     no limits
   196 Pc1Bs2_amp   0.00000e+00  1.00000e+01     no limits
   197 Pc1Bs2_phi   0.00000e+00  1.00000e+00     no limits
   198 Pc1Bs3_amp   0.00000e+00  1.00000e+01     no limits
   199 Pc1Bs3_phi   0.00000e+00  1.00000e+00     no limits
   200 Pc2Bw1_amp   0.00000e+00  1.00000e+01     no limits
   201 Pc2Bw1_phi   0.00000e+00  1.00000e+00     no limits
   202 Pc2Bw2_amp   0.00000e+00  1.00000e+01     no limits
   203 Pc2Bw2_phi   0.00000e+00  1.00000e+00     no limits
   204 Pc2Bs1_amp   0.00000e+00  1.00000e+01     no limits
   205 Pc2Bs1_phi   0.00000e+00  1.00000e+00     no limits
   206 Pc2Bs2_amp   0.00000e+00  1.00000e+01     no limits
   207 Pc2Bs2_phi   0.00000e+00  1.00000e+00     no limits
   208 Pc2Bs3_amp   0.00000e+00  1.00000e+01     no limits
   209 Pc2Bs3_phi   0.00000e+00  1.00000e+00     no limits
   210 M01          4.29749e+00  1.00000e-02     no limits
   211 M02          4.40093e+00  1.00000e-02     no limits
   212 gamma1       1.56593e-01  1.00000e-02     no limits
   213 gamma2       3.11330e-02  1.00000e-02     no limits
   214 comb_bg_norm   5.00000e+04  1.00000e+02     no limits
 **********
 **    1 **FIX          86
 **********
 **********
 **    2 **FIX         104
 **********
 **********
 **    3 **FIX          96
 **********
 **********
 **    4 **FIX         113
 **********
 **********
 **    5 **FIX           1
 **********
 **********
 **    6 **FIX           2
 **********
 **********
 **    7 **FIX           3
 **********
 **********
 **    8 **FIX           4
 **********
 **********
 **    9 **FIX           5
 **********
 **********
 **   10 **FIX           6
 **********
 **********
 **   11 **FIX           7
 **********
 **********
 **   12 **FIX           8
 **********
 **********
 **   13 **FIX           9
 **********
 **********
 **   14 **FIX          10
 **********
 **********
 **   15 **FIX          11
 **********
 **********
 **   16 **FIX          12
 **********
 **********
 **   17 **FIX          13
 **********
 **********
 **   18 **FIX          14
 **********
 **********
 **   19 **FIX          15
 **********
 **********
 **   20 **FIX          16
 **********
 **********
 **   21 **FIX          17
 **********
 **********
 **   22 **FIX          18
 **********
 **********
 **   23 **FIX          19
 **********
 **********
 **   24 **FIX          20
 **********
 **********
 **   25 **FIX          21
 **********
 **********
 **   26 **FIX          22
 **********
 **********
 **   27 **FIX          23
 **********
 **********
 **   28 **FIX          24
 **********
 **********
 **   29 **FIX          25
 **********
 **********
 **   30 **FIX          26
 **********
 **********
 **   31 **FIX          27
 **********
 **********
 **   32 **FIX          28
 **********
 **********
 **   33 **FIX          29
 **********
 **********
 **   34 **FIX          30
 **********
 **********
 **   35 **FIX          31
 **********
 **********
 **   36 **FIX          32
 **********
 **********
 **   37 **FIX          33
 **********
 **********
 **   38 **FIX          34
 **********
 **********
 **   39 **FIX          35
 **********
 **********
 **   40 **FIX          36
 **********
 **********
 **   41 **FIX          37
 **********
 **********
 **   42 **FIX          38
 **********
 **********
 **   43 **FIX          39
 **********
 **********
 **   44 **FIX          40
 **********
 **********
 **   45 **FIX          41
 **********
 **********
 **   46 **FIX          42
 **********
 **********
 **   47 **FIX          43
 **********
 **********
 **   48 **FIX          44
 **********
 **********
 **   49 **FIX          45
 **********
 **********
 **   50 **FIX          46
 **********
 **********
 **   51 **FIX          47
 **********
 **********
 **   52 **FIX          48
 **********
 **********
 **   53 **FIX          49
 **********
 **********
 **   54 **FIX          50
 **********
 **********
 **   55 **FIX          51
 **********
 **********
 **   56 **FIX          52
 **********
 **********
 **   57 **FIX          53
 **********
 **********
 **   58 **FIX          54
 **********
 **********
 **   59 **FIX          55
 **********
 **********
 **   60 **FIX          56
 **********
 **********
 **   61 **FIX          57
 **********
 **********
 **   62 **FIX          58
 **********
 **********
 **   63 **FIX          59
 **********
 **********
 **   64 **FIX          60
 **********
 **********
 **   65 **FIX          61
 **********
 **********
 **   66 **FIX          62
 **********
 **********
 **   67 **FIX          63
 **********
 **********
 **   68 **FIX          64
 **********
 **********
 **   69 **FIX          65
 **********
 **********
 **   70 **FIX          66
 **********
 **********
 **   71 **FIX          67
 **********
 **********
 **   72 **FIX          68
 **********
 **********
 **   73 **FIX          69
 **********
 **********
 **   74 **FIX          70
 **********
 **********
 **   75 **FIX          71
 **********
 **********
 **   76 **FIX          72
 **********
 **********
 **   77 **FIX          73
 **********
 **********
 **   78 **FIX          74
 **********
 **********
 **   79 **FIX          75
 **********
 **********
 **   80 **FIX          76
 **********
 **********
 **   81 **FIX          77
 **********
 **********
 **   82 **FIX          78
 **********
 **********
 **   83 **FIX          79
 **********
 **********
 **   84 **FIX          80
 **********
 **********
 **   85 **FIX          86
 **********
 PARAMETER   86  ALREADY FIXED. IGNORED.
 **********
 **   86 **FIX          87
 **********
 **********
 **   87 **FIX          88
 **********
 **********
 **   88 **FIX          89
 **********
 **********
 **   89 **FIX          90
 **********
 **********
 **   90 **FIX          91
 **********
 **********
 **   91 **FIX          92
 **********
 **********
 **   92 **FIX          93
 **********
 **********
 **   93 **FIX          94
 **********
 **********
 **   94 **FIX          95
 **********
 **********
 **   95 **FIX          96
 **********
 PARAMETER   96  ALREADY FIXED. IGNORED.
 **********
 **   96 **FIX          97
 **********
 **********
 **   97 **FIX          98
 **********
 **********
 **   98 **FIX          99
 **********
 **********
 **   99 **FIX         100
 **********
 **********
 **  100 **FIX         101
 **********
 **********
 **  101 **FIX         102
 **********
 **********
 **  102 **FIX         103
 **********
 **********
 **  103 **FIX         104
 **********
 PARAMETER  104  ALREADY FIXED. IGNORED.
 **********
 **  104 **FIX         105
 **********
 **********
 **  105 **FIX         106
 **********
 **********
 **  106 **FIX         107
 **********
 **********
 **  107 **FIX         108
 **********
 **********
 **  108 **FIX         109
 **********
 **********
 **  109 **FIX         110
 **********
 **********
 **  110 **FIX         111
 **********
 **********
 **  111 **FIX         112
 **********
 **********
 **  112 **FIX         113
 **********
 PARAMETER  113  ALREADY FIXED. IGNORED.
 **********
 **  113 **FIX         114
 **********
 **********
 **  114 **FIX         115
 **********
 **********
 **  115 **FIX         116
 **********
 **********
 **  116 **FIX         117
 **********
 **********
 **  117 **FIX         118
 **********
 **********
 **  118 **FIX         119
 **********
 **********
 **  119 **FIX         120
 **********
 **********
 **  120 **FIX         121
 **********
 **********
 **  121 **FIX         122
 **********
 **********
 **  122 **FIX         123
 **********
 **********
 **  123 **FIX         124
 **********
 **********
 **  124 **FIX         125
 **********
 **********
 **  125 **FIX         126
 **********
 **********
 **  126 **FIX         127
 **********
 **********
 **  127 **FIX         128
 **********
 **********
 **  128 **FIX         129
 **********
 **********
 **  129 **FIX         130
 **********
 **********
 **  130 **FIX         131
 **********
 **********
 **  131 **FIX         132
 **********
 **********
 **  132 **FIX         133
 **********
 **********
 **  133 **FIX         134
 **********
 **********
 **  134 **FIX         135
 **********
 **********
 **  135 **FIX         136
 **********
 **********
 **  136 **FIX         137
 **********
 **********
 **  137 **FIX         138
 **********
 **********
 **  138 **FIX         139
 **********
 **********
 **  139 **FIX         140
 **********
 **********
 **  140 **FIX         141
 **********
 **********
 **  141 **FIX         142
 **********
 **********
 **  142 **FIX         143
 **********
 **********
 **  143 **FIX         144
 **********
 **********
 **  144 **FIX         145
 **********
 **********
 **  145 **FIX         146
 **********
 **********
 **  146 **FIX         147
 **********
 **********
 **  147 **FIX         148
 **********
 **********
 **  148 **FIX         149
 **********
 **********
 **  149 **FIX         150
 **********
 **********
 **  150 **FIX         151
 **********
 **********
 **  151 **FIX         152
 **********
 **********
 **  152 **FIX         153
 **********
 **********
 **  153 **FIX         154
 **********
 **********
 **  154 **FIX         155
 **********
 **********
 **  155 **FIX         156
 **********
 **********
 **  156 **FIX         157
 **********
 **********
 **  157 **FIX         158
 **********
 **********
 **  158 **FIX         159
 **********
 **********
 **  159 **FIX         160
 **********
 **********
 **  160 **FIX         161
 **********
 **********
 **  161 **FIX         162
 **********
 **********
 **  162 **FIX         163
 **********
 **********
 **  163 **FIX         164
 **********
 **********
 **  164 **FIX         165
 **********
 **********
 **  165 **FIX         166
 **********
 **********
 **  166 **FIX         167
 **********
 **********
 **  167 **FIX         168
 **********
 **********
 **  168 **FIX         169
 **********
 **********
 **  169 **FIX         170
 **********
 **********
 **  170 **FIX         171
 **********
 **********
 **  171 **FIX         172
 **********
 **********
 **  172 **FIX         173
 **********
 **********
 **  173 **FIX         174
 **********
 **********
 **  174 **FIX         175
 **********
 **********
 **  175 **FIX         176
 **********
 **********
 **  176 **FIX         177
 **********
 **********
 **  177 **FIX         178
 **********
 **********
 **  178 **FIX         179
 **********
 **********
 **  179 **FIX         180
 **********
 **********
 **  180 **FIX         181
 **********
 **********
 **  181 **FIX         182
 **********
 **********
 **  182 **FIX         183
 **********
 **********
 **  183 **FIX         184
 **********
 **********
 **  184 **FIX         185
 **********
 **********
 **  185 **FIX         186
 **********
 **********
 **  186 **FIX         187
 **********
 **********
 **  187 **FIX         188
 **********
 **********
 **  188 **FIX         189
 **********
 **********
 **  189 **FIX         190
 **********
 **********
 **  190 **FIX         191
 **********
 **********
 **  191 **FIX         192
 **********
 **********
 **  192 **FIX         193
 **********
 **********
 **  193 **FIX         194
 **********
 **********
 **  194 **FIX         195
 **********
 **********
 **  195 **FIX         196
 **********
 **********
 **  196 **FIX         197
 **********
 **********
 **  197 **FIX         198
 **********
 **********
 **  198 **FIX         199
 **********
 **********
 **  199 **FIX         200
 **********
 **********
 **  200 **FIX         201
 **********
 **********
 **  201 **FIX         202
 **********
 **********
 **  202 **FIX         203
 **********
 **********
 **  203 **FIX         204
 **********
 **********
 **  204 **FIX         205
 **********
 **********
 **  205 **FIX         206
 **********
 **********
 **  206 **FIX         207
 **********
 **********
 **  207 **FIX         208
 **********
 **********
 **  208 **FIX         209
 **********
 **********
 **  209 **FIX         210
 **********
 **********
 **  210 **FIX         211
 **********
 **********
 **  211 **FIX         212
 **********
 **********
 **  212 **FIX         213
 **********
 **********
 **  213 **SET ERRDEF         0.5
 **********
 **********
 **  214 **SET ERR           1
 **********
 **********
 **  215 **MIGRAD       1e+05        0.01
 **********
 FIRST CALL TO USER FUNCTION AT NEW START POINT, WITH IFLAG=4.
 START MIGRAD MINIMIZATION.  STRATEGY  1.  CONVERGENCE WHEN EDM .LT. 1.00e-05
 FCN=-3.02565e+06 FROM MIGRAD    STATUS=INITIATE       20 CALLS          21 TOTAL
                     EDM= unknown      STRATEGY= 1      NO ERROR MATRIX       
  EXT PARAMETER               CURRENT GUESS       STEP         FIRST   
  NO.   NAME      VALUE            ERROR          SIZE      DERIVATIVE 
   1  K1410_1_Bw1_amp   1.00000e+00     fixed    
   2  K1410_1_Bw1_phi  -8.16571e+00     fixed    
   3  K1430_0_Bw1_amp   8.42835e+00     fixed    
   4  K1430_0_Bw1_phi  -1.76822e+00     fixed    
   5  K1430_2_Bw1_amp  -1.18577e+02     fixed    
   6  K1430_2_Bw1_phi  -5.23858e+02     fixed    
   7  K1680_1_Bw1_amp  -7.91497e+00     fixed    
   8  K1680_1_Bw1_phi  -6.03498e+02     fixed    
   9  K1780_3_Bw1_amp   6.49632e+02     fixed    
  10  K1780_3_Bw1_phi  -9.54459e+01     fixed    
  11  K1950_0_Bw1_amp   9.13446e-01     fixed    
  12  K1950_0_Bw1_phi   7.63947e+00     fixed    
  13  K2045_4_Bw1_amp   1.32716e+05     fixed    
  14  K2045_4_Bw1_phi  -4.12330e+03     fixed    
  15  K1980_2_Bw1_amp   2.85423e+02     fixed    
  16  K1980_2_Bw1_phi   2.26213e+02     fixed    
  17  K1410_1_Bw2_amp   6.38436e+01     fixed    
  18  K1410_1_Bw2_phi  -2.16328e+00     fixed    
  19  K1410_1_Bw3_amp   9.92641e+01     fixed    
  20  K1410_1_Bw3_phi   2.13000e+00     fixed    
  21  K1430_2_Bw2_amp   1.72934e+02     fixed    
  22  K1430_2_Bw2_phi   1.18731e+02     fixed    
  23  K1430_2_Bw3_amp   7.93261e+02     fixed    
  24  K1430_2_Bw3_phi   4.57893e+01     fixed    
  25  K1680_1_Bw2_amp  -5.69219e+01     fixed    
  26  K1680_1_Bw2_phi  -7.67610e+00     fixed    
  27  K1680_1_Bw3_amp   3.63977e+01     fixed    
  28  K1680_1_Bw3_phi  -3.64068e-01     fixed    
  29  K1780_3_Bw2_amp  -4.18154e+03     fixed    
  30  K1780_3_Bw2_phi  -4.70553e+00     fixed    
  31  K1780_3_Bw3_amp   2.84842e+03     fixed    
  32  K1780_3_Bw3_phi   3.57302e+02     fixed    
  33  K1980_2_Bw2_amp   7.81764e+02     fixed    
  34  K1980_2_Bw2_phi  -1.37961e+01     fixed    
  35  K1980_2_Bw3_amp  -2.41928e+03     fixed    
  36  K1980_2_Bw3_phi   2.74556e+02     fixed    
  37  K2045_4_Bw2_amp   6.15151e+05     fixed    
  38  K2045_4_Bw2_phi   2.34196e+00     fixed    
  39  K2045_4_Bw3_amp  -6.72465e+05     fixed    
  40  K2045_4_Bw3_phi   1.64492e+00     fixed    
  41  X1Bs1_amp    6.11046e+01     fixed    
  42  X1Bs1_phi    1.44873e+01     fixed    
  43  X1Bs2_amp    1.28155e+03     fixed    
  44  X1Bs2_phi   -5.20304e+00     fixed    
  45  gamma_Zc4200   3.29954e-01     fixed    
  46  m_Zc4200     4.16118e+00     fixed    
  47  n_BD_to_JPSI_K_PI_par   0.00000e+00     fixed    
  48  phi1680_1_Bw1_amp   1.00000e+00     fixed    
  49  phi1680_1_Bw1_phi   0.00000e+00     fixed    
  50  phi1680_1_Bw2_amp  -1.01115e+04     fixed    
  51  phi1680_1_Bw2_phi  -1.06295e+01     fixed    
  52  phi1680_1_Bw3_amp   3.79098e+03     fixed    
  53  phi1680_1_Bw3_phi  -3.07529e+00     fixed    
  54  f1525_2_Bw1_amp   3.25200e+04     fixed    
  55  f1525_2_Bw1_phi   3.58005e+02     fixed    
  56  f1525_2_Bw2_amp  -1.22584e+05     fixed    
  57  f1525_2_Bw2_phi   1.27201e+00     fixed    
  58  f1525_2_Bw3_amp  -3.95436e+04     fixed    
  59  f1525_2_Bw3_phi   8.62509e+02     fixed    
  60  f1640_2_Bw1_amp  -3.94349e+04     fixed    
  61  f1640_2_Bw1_phi  -1.39275e+04     fixed    
  62  f1640_2_Bw2_amp   4.45976e+04     fixed    
  63  f1640_2_Bw2_phi   2.37223e+00     fixed    
  64  f1640_2_Bw3_amp   1.24712e+05     fixed    
  65  f1640_2_Bw3_phi  -4.57658e+04     fixed    
  66  f1750_2_Bw1_amp  -1.51183e+04     fixed    
  67  f1750_2_Bw1_phi   2.06609e+04     fixed    
  68  f1750_2_Bw2_amp  -8.14872e+03     fixed    
  69  f1750_2_Bw2_phi  -3.49077e+00     fixed    
  70  f1750_2_Bw3_amp  -5.16619e+04     fixed    
  71  f1750_2_Bw3_phi   1.99672e+04     fixed    
  72  f1950_2_Bw1_amp   1.59054e+05     fixed    
  73  f1950_2_Bw1_phi  -6.05114e+02     fixed    
  74  f1950_2_Bw2_amp  -1.92183e+05     fixed    
  75  f1950_2_Bw2_phi  -7.31831e-02     fixed    
  76  f1950_2_Bw3_amp   3.79736e+04     fixed    
  77  f1950_2_Bw3_phi   7.47571e+04     fixed    
  78  NR_Bw1_amp   0.00000e+00     fixed    
  79  NR_Bw1_phi   0.00000e+00     fixed    
  80  n_BS_to_JPSI_K_K_par   0.00000e+00     fixed    
  81  n_lambda     6.28569e+03   1.00000e+02   1.00000e+02  -9.79129e-01
  82  n_BS_PIPI    5.51887e+03   1.00000e+02   1.00000e+02  -4.15192e-01
  83  n_BD_PIPI    3.49231e+03   1.00000e+02   1.00000e+02  -4.90104e-01
  84  n_BD_KPI     4.36496e+04   1.00000e+02   1.00000e+02  -8.47677e-01
  85  n_BS_KK      9.89082e+03   1.00000e+02   1.00000e+02  -1.07314e+00
  86  p0           6.37526e+00     fixed    
  87  p1          -1.65792e-01     fixed    
  88  p2          -6.91204e+00     fixed    
  89  p3           3.45347e+00     fixed    
  90  a0          -1.59446e-03     fixed    
  91  b0           2.00303e-02     fixed    
  92  b1           3.22451e-01     fixed    
  93  b2          -1.42549e-01     fixed    
  94  x0_KK        4.97791e+00     fixed    
  95  d0_KK        1.56086e+00     fixed    
  96  p0_KK        1.23989e+01     fixed    
  97  p1_KK       -1.62842e+01     fixed    
  98  p2_KK        1.43519e+01     fixed    
  99  p3_KK       -7.67962e+00     fixed    
 100  p4_KK        0.00000e+00     fixed    
 101  p5_KK        0.00000e+00     fixed    
 102  x0_pipi      4.58224e+00     fixed    
 103  d0_pipi     -4.91876e-01     fixed    
 104  p0_pipi     -1.89772e+00     fixed    
 105  p1_pipi      7.34600e+01     fixed    
 106  p2_pipi     -2.13834e+02     fixed    
 107  p3_pipi      2.43679e+02     fixed    
 108  p4_pipi     -9.75518e+01     fixed    
 109  p5_pipi      0.00000e+00     fixed    
 110  p6_pipi      0.00000e+00     fixed    
 111  x0_pKKp     -1.54419e-01     fixed    
 112  d0_pKKp      4.11081e+00     fixed    
 113  p0_pKKp      1.26874e+01     fixed    
 114  p1_pKKp     -1.58712e+01     fixed    
 115  p2_pKKp      7.77120e+00     fixed    
 116  p3_pKKp     -2.13845e+00     fixed    
 117  a0_pKKp      5.01954e-02     fixed    
 118  b0_pKKp      1.12485e-01     fixed    
 119  b1_pKKp      4.24875e-01     fixed    
 120  b2_pKKp     -2.96722e-02     fixed    
 121  u0_pKKp      7.53339e+00     fixed    
 122  Ls1800_12_Bw1_amp   2.60790e-01     fixed    
 123  Ls1800_12_Bw1_phi  -9.53759e+00     fixed    
 124  Ls1800_12_Bw2_amp   0.00000e+00     fixed    
 125  Ls1800_12_Bw2_phi   0.00000e+00     fixed    
 126  Ls1800_12_Bw3_amp   0.00000e+00     fixed    
 127  Ls1800_12_Bw3_phi   0.00000e+00     fixed    
 128  Ls1800_12_Bw4_amp   0.00000e+00     fixed    
 129  Ls1800_12_Bw4_phi   0.00000e+00     fixed    
 130  Ls1810_12_Bw1_amp   3.00978e-04     fixed    
 131  Ls1810_12_Bw1_phi  -5.82718e+00     fixed    
 132  Ls1810_12_Bw2_amp   0.00000e+00     fixed    
 133  Ls1810_12_Bw2_phi   0.00000e+00     fixed    
 134  Ls1810_12_Bw3_amp   0.00000e+00     fixed    
 135  Ls1810_12_Bw3_phi   0.00000e+00     fixed    
 136  Ls1820_52_Bw1_amp   0.00000e+00     fixed    
 137  Ls1820_52_Bw1_phi   0.00000e+00     fixed    
 138  Ls1820_52_Bw2_amp   0.00000e+00     fixed    
 139  Ls1820_52_Bw2_phi   0.00000e+00     fixed    
 140  Ls1820_52_Bw3_amp   0.00000e+00     fixed    
 141  Ls1820_52_Bw3_phi   0.00000e+00     fixed    
 142  Ls1830_52_Bw1_amp   0.00000e+00     fixed    
 143  Ls1830_52_Bw1_phi   0.00000e+00     fixed    
 144  Ls1830_52_Bw2_amp   0.00000e+00     fixed    
 145  Ls1830_52_Bw2_phi   0.00000e+00     fixed    
 146  Ls1830_52_Bw3_amp   0.00000e+00     fixed    
 147  Ls1830_52_Bw3_phi   0.00000e+00     fixed    
 148  Ls1890_32_Bw1_amp   4.76561e-02     fixed    
 149  Ls1890_32_Bw1_phi  -1.01004e+01     fixed    
 150  Ls1890_32_Bw2_amp   0.00000e+00     fixed    
 151  Ls1890_32_Bw2_phi   0.00000e+00     fixed    
 152  Ls1890_32_Bw3_amp   0.00000e+00     fixed    
 153  Ls1890_32_Bw3_phi   0.00000e+00     fixed    
 154  Ls2020_72_Bw1_amp   0.00000e+00     fixed    
 155  Ls2020_72_Bw1_phi   0.00000e+00     fixed    
 156  Ls2020_72_Bw2_amp   0.00000e+00     fixed    
 157  Ls2020_72_Bw2_phi   0.00000e+00     fixed    
 158  Ls2020_72_Bw3_amp   0.00000e+00     fixed    
 159  Ls2020_72_Bw3_phi   0.00000e+00     fixed    
 160  Ls2050_32_Bw1_amp   0.00000e+00     fixed    
 161  Ls2050_32_Bw1_phi   0.00000e+00     fixed    
 162  Ls2050_32_Bw2_amp   0.00000e+00     fixed    
 163  Ls2050_32_Bw2_phi   0.00000e+00     fixed    
 164  Ls2050_32_Bw3_amp   0.00000e+00     fixed    
 165  Ls2050_32_Bw3_phi   0.00000e+00     fixed    
 166  Ls2100_72_Bw1_amp   1.48207e+02     fixed    
 167  Ls2100_72_Bw1_phi   3.55753e+00     fixed    
 168  Ls2100_72_Bw2_amp   0.00000e+00     fixed    
 169  Ls2100_72_Bw2_phi   0.00000e+00     fixed    
 170  Ls2100_72_Bw3_amp   0.00000e+00     fixed    
 171  Ls2100_72_Bw3_phi   0.00000e+00     fixed    
 172  Ls2110_52_Bw1_amp   3.85347e+01     fixed    
 173  Ls2110_52_Bw1_phi  -1.18881e+01     fixed    
 174  Ls2110_52_Bw2_amp   0.00000e+00     fixed    
 175  Ls2110_52_Bw2_phi   0.00000e+00     fixed    
 176  Ls2110_52_Bw3_amp   0.00000e+00     fixed    
 177  Ls2110_52_Bw3_phi   0.00000e+00     fixed    
 178  Ls2325_32_Bw1_amp   0.00000e+00     fixed    
 179  Ls2325_32_Bw1_phi   0.00000e+00     fixed    
 180  Ls2325_32_Bw2_amp   0.00000e+00     fixed    
 181  Ls2325_32_Bw2_phi   0.00000e+00     fixed    
 182  Ls2325_32_Bw3_amp   0.00000e+00     fixed    
 183  Ls2325_32_Bw3_phi   0.00000e+00     fixed    
 184  Ls2350_92_Bw1_amp   0.00000e+00     fixed    
 185  Ls2350_92_Bw1_phi   0.00000e+00     fixed    
 186  Ls2350_92_Bw2_amp   0.00000e+00     fixed    
 187  Ls2350_92_Bw2_phi   0.00000e+00     fixed    
 188  LsNR_12_Bw_amp   0.00000e+00     fixed    
 189  LsNR_12_Bw_phi   0.00000e+00     fixed    
 190  Pc1Bw1_amp   0.00000e+00     fixed    
 191  Pc1Bw1_phi   0.00000e+00     fixed    
 192  Pc1Bw2_amp   0.00000e+00     fixed    
 193  Pc1Bw2_phi   0.00000e+00     fixed    
 194  Pc1Bs1_amp   0.00000e+00     fixed    
 195  Pc1Bs1_phi   0.00000e+00     fixed    
 196  Pc1Bs2_amp   0.00000e+00     fixed    
 197  Pc1Bs2_phi   0.00000e+00     fixed    
 198  Pc1Bs3_amp   0.00000e+00     fixed    
 199  Pc1Bs3_phi   0.00000e+00     fixed    
 200  Pc2Bw1_amp   0.00000e+00     fixed    
 201  Pc2Bw1_phi   0.00000e+00     fixed    
 202  Pc2Bw2_amp   0.00000e+00     fixed    
 203  Pc2Bw2_phi   0.00000e+00     fixed    
 204  Pc2Bs1_amp   0.00000e+00     fixed    
 205  Pc2Bs1_phi   0.00000e+00     fixed    
 206  Pc2Bs2_amp   0.00000e+00     fixed    
 207  Pc2Bs2_phi   0.00000e+00     fixed    
 208  Pc2Bs3_amp   0.00000e+00     fixed    
 209  Pc2Bs3_phi   0.00000e+00     fixed    
 210  M01          4.29749e+00     fixed    
 211  M02          4.40093e+00     fixed    
 212  gamma1       1.56593e-01     fixed    
 213  gamma2       3.11330e-02     fixed    
 214  comb_bg_norm   5.00000e+04   1.00000e+02   1.00000e+02  -7.56983e-01
 MIGRAD MINIMIZATION HAS CONVERGED.
 FCN=-3.03568e+06 FROM MIGRAD    STATUS=CONVERGED     179 CALLS         180 TOTAL
                     EDM=7.10842e-07    STRATEGY= 1  ERROR MATRIX UNCERTAINTY   2.2 per cent
  EXT PARAMETER                                   STEP         FIRST   
  NO.   NAME      VALUE            ERROR          SIZE      DERIVATIVE 
   1  K1410_1_Bw1_amp   1.00000e+00     fixed    
   2  K1410_1_Bw1_phi  -8.16571e+00     fixed    
   3  K1430_0_Bw1_amp   8.42835e+00     fixed    
   4  K1430_0_Bw1_phi  -1.76822e+00     fixed    
   5  K1430_2_Bw1_amp  -1.18577e+02     fixed    
   6  K1430_2_Bw1_phi  -5.23858e+02     fixed    
   7  K1680_1_Bw1_amp  -7.91497e+00     fixed    
   8  K1680_1_Bw1_phi  -6.03498e+02     fixed    
   9  K1780_3_Bw1_amp   6.49632e+02     fixed    
  10  K1780_3_Bw1_phi  -9.54459e+01     fixed    
  11  K1950_0_Bw1_amp   9.13446e-01     fixed    
  12  K1950_0_Bw1_phi   7.63947e+00     fixed    
  13  K2045_4_Bw1_amp   1.32716e+05     fixed    
  14  K2045_4_Bw1_phi  -4.12330e+03     fixed    
  15  K1980_2_Bw1_amp   2.85423e+02     fixed    
  16  K1980_2_Bw1_phi   2.26213e+02     fixed    
  17  K1410_1_Bw2_amp   6.38436e+01     fixed    
  18  K1410_1_Bw2_phi  -2.16328e+00     fixed    
  19  K1410_1_Bw3_amp   9.92641e+01     fixed    
  20  K1410_1_Bw3_phi   2.13000e+00     fixed    
  21  K1430_2_Bw2_amp   1.72934e+02     fixed    
  22  K1430_2_Bw2_phi   1.18731e+02     fixed    
  23  K1430_2_Bw3_amp   7.93261e+02     fixed    
  24  K1430_2_Bw3_phi   4.57893e+01     fixed    
  25  K1680_1_Bw2_amp  -5.69219e+01     fixed    
  26  K1680_1_Bw2_phi  -7.67610e+00     fixed    
  27  K1680_1_Bw3_amp   3.63977e+01     fixed    
  28  K1680_1_Bw3_phi  -3.64068e-01     fixed    
  29  K1780_3_Bw2_amp  -4.18154e+03     fixed    
  30  K1780_3_Bw2_phi  -4.70553e+00     fixed    
  31  K1780_3_Bw3_amp   2.84842e+03     fixed    
  32  K1780_3_Bw3_phi   3.57302e+02     fixed    
  33  K1980_2_Bw2_amp   7.81764e+02     fixed    
  34  K1980_2_Bw2_phi  -1.37961e+01     fixed    
  35  K1980_2_Bw3_amp  -2.41928e+03     fixed    
  36  K1980_2_Bw3_phi   2.74556e+02     fixed    
  37  K2045_4_Bw2_amp   6.15151e+05     fixed    
  38  K2045_4_Bw2_phi   2.34196e+00     fixed    
  39  K2045_4_Bw3_amp  -6.72465e+05     fixed    
  40  K2045_4_Bw3_phi   1.64492e+00     fixed    
  41  X1Bs1_amp    6.11046e+01     fixed    
  42  X1Bs1_phi    1.44873e+01     fixed    
  43  X1Bs2_amp    1.28155e+03     fixed    
  44  X1Bs2_phi   -5.20304e+00     fixed    
  45  gamma_Zc4200   3.29954e-01     fixed    
  46  m_Zc4200     4.16118e+00     fixed    
  47  n_BD_to_JPSI_K_PI_par   0.00000e+00     fixed    
  48  phi1680_1_Bw1_amp   1.00000e+00     fixed    
  49  phi1680_1_Bw1_phi   0.00000e+00     fixed    
  50  phi1680_1_Bw2_amp  -1.01115e+04     fixed    
  51  phi1680_1_Bw2_phi  -1.06295e+01     fixed    
  52  phi1680_1_Bw3_amp   3.79098e+03     fixed    
  53  phi1680_1_Bw3_phi  -3.07529e+00     fixed    
  54  f1525_2_Bw1_amp   3.25200e+04     fixed    
  55  f1525_2_Bw1_phi   3.58005e+02     fixed    
  56  f1525_2_Bw2_amp  -1.22584e+05     fixed    
  57  f1525_2_Bw2_phi   1.27201e+00     fixed    
  58  f1525_2_Bw3_amp  -3.95436e+04     fixed    
  59  f1525_2_Bw3_phi   8.62509e+02     fixed    
  60  f1640_2_Bw1_amp  -3.94349e+04     fixed    
  61  f1640_2_Bw1_phi  -1.39275e+04     fixed    
  62  f1640_2_Bw2_amp   4.45976e+04     fixed    
  63  f1640_2_Bw2_phi   2.37223e+00     fixed    
  64  f1640_2_Bw3_amp   1.24712e+05     fixed    
  65  f1640_2_Bw3_phi  -4.57658e+04     fixed    
  66  f1750_2_Bw1_amp  -1.51183e+04     fixed    
  67  f1750_2_Bw1_phi   2.06609e+04     fixed    
  68  f1750_2_Bw2_amp  -8.14872e+03     fixed    
  69  f1750_2_Bw2_phi  -3.49077e+00     fixed    
  70  f1750_2_Bw3_amp  -5.16619e+04     fixed    
  71  f1750_2_Bw3_phi   1.99672e+04     fixed    
  72  f1950_2_Bw1_amp   1.59054e+05     fixed    
  73  f1950_2_Bw1_phi  -6.05114e+02     fixed    
  74  f1950_2_Bw2_amp  -1.92183e+05     fixed    
  75  f1950_2_Bw2_phi  -7.31831e-02     fixed    
  76  f1950_2_Bw3_amp   3.79736e+04     fixed    
  77  f1950_2_Bw3_phi   7.47571e+04     fixed    
  78  NR_Bw1_amp   0.00000e+00     fixed    
  79  NR_Bw1_phi   0.00000e+00     fixed    
  80  n_BS_to_JPSI_K_K_par   0.00000e+00     fixed    
  81  n_lambda     1.02163e+04   3.18342e+02   1.61450e-02   1.78666e-06
  82  n_BS_PIPI    5.89526e+03   1.00833e+02   8.68531e-03  -1.12262e-05
  83  n_BD_PIPI    2.98802e+03   1.40556e+02   1.06244e-03  -3.68808e-06
  84  n_BD_KPI     4.87858e+04   3.56737e+02  -1.02776e-02   3.19653e-06
  85  n_BS_KK      1.70113e+04   3.17528e+02  -2.09346e-02   5.37457e-06
  86  p0           6.37526e+00     fixed    
  87  p1          -1.65792e-01     fixed    
  88  p2          -6.91204e+00     fixed    
  89  p3           3.45347e+00     fixed    
  90  a0          -1.59446e-03     fixed    
  91  b0           2.00303e-02     fixed    
  92  b1           3.22451e-01     fixed    
  93  b2          -1.42549e-01     fixed    
  94  x0_KK        4.97791e+00     fixed    
  95  d0_KK        1.56086e+00     fixed    
  96  p0_KK        1.23989e+01     fixed    
  97  p1_KK       -1.62842e+01     fixed    
  98  p2_KK        1.43519e+01     fixed    
  99  p3_KK       -7.67962e+00     fixed    
 100  p4_KK        0.00000e+00     fixed    
 101  p5_KK        0.00000e+00     fixed    
 102  x0_pipi      4.58224e+00     fixed    
 103  d0_pipi     -4.91876e-01     fixed    
 104  p0_pipi     -1.89772e+00     fixed    
 105  p1_pipi      7.34600e+01     fixed    
 106  p2_pipi     -2.13834e+02     fixed    
 107  p3_pipi      2.43679e+02     fixed    
 108  p4_pipi     -9.75518e+01     fixed    
 109  p5_pipi      0.00000e+00     fixed    
 110  p6_pipi      0.00000e+00     fixed    
 111  x0_pKKp     -1.54419e-01     fixed    
 112  d0_pKKp      4.11081e+00     fixed    
 113  p0_pKKp      1.26874e+01     fixed    
 114  p1_pKKp     -1.58712e+01     fixed    
 115  p2_pKKp      7.77120e+00     fixed    
 116  p3_pKKp     -2.13845e+00     fixed    
 117  a0_pKKp      5.01954e-02     fixed    
 118  b0_pKKp      1.12485e-01     fixed    
 119  b1_pKKp      4.24875e-01     fixed    
 120  b2_pKKp     -2.96722e-02     fixed    
 121  u0_pKKp      7.53339e+00     fixed    
 122  Ls1800_12_Bw1_amp   2.60790e-01     fixed    
 123  Ls1800_12_Bw1_phi  -9.53759e+00     fixed    
 124  Ls1800_12_Bw2_amp   0.00000e+00     fixed    
 125  Ls1800_12_Bw2_phi   0.00000e+00     fixed    
 126  Ls1800_12_Bw3_amp   0.00000e+00     fixed    
 127  Ls1800_12_Bw3_phi   0.00000e+00     fixed    
 128  Ls1800_12_Bw4_amp   0.00000e+00     fixed    
 129  Ls1800_12_Bw4_phi   0.00000e+00     fixed    
 130  Ls1810_12_Bw1_amp   3.00978e-04     fixed    
 131  Ls1810_12_Bw1_phi  -5.82718e+00     fixed    
 132  Ls1810_12_Bw2_amp   0.00000e+00     fixed    
 133  Ls1810_12_Bw2_phi   0.00000e+00     fixed    
 134  Ls1810_12_Bw3_amp   0.00000e+00     fixed    
 135  Ls1810_12_Bw3_phi   0.00000e+00     fixed    
 136  Ls1820_52_Bw1_amp   0.00000e+00     fixed    
 137  Ls1820_52_Bw1_phi   0.00000e+00     fixed    
 138  Ls1820_52_Bw2_amp   0.00000e+00     fixed    
 139  Ls1820_52_Bw2_phi   0.00000e+00     fixed    
 140  Ls1820_52_Bw3_amp   0.00000e+00     fixed    
 141  Ls1820_52_Bw3_phi   0.00000e+00     fixed    
 142  Ls1830_52_Bw1_amp   0.00000e+00     fixed    
 143  Ls1830_52_Bw1_phi   0.00000e+00     fixed    
 144  Ls1830_52_Bw2_amp   0.00000e+00     fixed    
 145  Ls1830_52_Bw2_phi   0.00000e+00     fixed    
 146  Ls1830_52_Bw3_amp   0.00000e+00     fixed    
 147  Ls1830_52_Bw3_phi   0.00000e+00     fixed    
 148  Ls1890_32_Bw1_amp   4.76561e-02     fixed    
 149  Ls1890_32_Bw1_phi  -1.01004e+01     fixed    
 150  Ls1890_32_Bw2_amp   0.00000e+00     fixed    
 151  Ls1890_32_Bw2_phi   0.00000e+00     fixed    
 152  Ls1890_32_Bw3_amp   0.00000e+00     fixed    
 153  Ls1890_32_Bw3_phi   0.00000e+00     fixed    
 154  Ls2020_72_Bw1_amp   0.00000e+00     fixed    
 155  Ls2020_72_Bw1_phi   0.00000e+00     fixed    
 156  Ls2020_72_Bw2_amp   0.00000e+00     fixed    
 157  Ls2020_72_Bw2_phi   0.00000e+00     fixed    
 158  Ls2020_72_Bw3_amp   0.00000e+00     fixed    
 159  Ls2020_72_Bw3_phi   0.00000e+00     fixed    
 160  Ls2050_32_Bw1_amp   0.00000e+00     fixed    
 161  Ls2050_32_Bw1_phi   0.00000e+00     fixed    
 162  Ls2050_32_Bw2_amp   0.00000e+00     fixed    
 163  Ls2050_32_Bw2_phi   0.00000e+00     fixed    
 164  Ls2050_32_Bw3_amp   0.00000e+00     fixed    
 165  Ls2050_32_Bw3_phi   0.00000e+00     fixed    
 166  Ls2100_72_Bw1_amp   1.48207e+02     fixed    
 167  Ls2100_72_Bw1_phi   3.55753e+00     fixed    
 168  Ls2100_72_Bw2_amp   0.00000e+00     fixed    
 169  Ls2100_72_Bw2_phi   0.00000e+00     fixed    
 170  Ls2100_72_Bw3_amp   0.00000e+00     fixed    
 171  Ls2100_72_Bw3_phi   0.00000e+00     fixed    
 172  Ls2110_52_Bw1_amp   3.85347e+01     fixed    
 173  Ls2110_52_Bw1_phi  -1.18881e+01     fixed    
 174  Ls2110_52_Bw2_amp   0.00000e+00     fixed    
 175  Ls2110_52_Bw2_phi   0.00000e+00     fixed    
 176  Ls2110_52_Bw3_amp   0.00000e+00     fixed    
 177  Ls2110_52_Bw3_phi   0.00000e+00     fixed    
 178  Ls2325_32_Bw1_amp   0.00000e+00     fixed    
 179  Ls2325_32_Bw1_phi   0.00000e+00     fixed    
 180  Ls2325_32_Bw2_amp   0.00000e+00     fixed    
 181  Ls2325_32_Bw2_phi   0.00000e+00     fixed    
 182  Ls2325_32_Bw3_amp   0.00000e+00     fixed    
 183  Ls2325_32_Bw3_phi   0.00000e+00     fixed    
 184  Ls2350_92_Bw1_amp   0.00000e+00     fixed    
 185  Ls2350_92_Bw1_phi   0.00000e+00     fixed    
 186  Ls2350_92_Bw2_amp   0.00000e+00     fixed    
 187  Ls2350_92_Bw2_phi   0.00000e+00     fixed    
 188  LsNR_12_Bw_amp   0.00000e+00     fixed    
 189  LsNR_12_Bw_phi   0.00000e+00     fixed    
 190  Pc1Bw1_amp   0.00000e+00     fixed    
 191  Pc1Bw1_phi   0.00000e+00     fixed    
 192  Pc1Bw2_amp   0.00000e+00     fixed    
 193  Pc1Bw2_phi   0.00000e+00     fixed    
 194  Pc1Bs1_amp   0.00000e+00     fixed    
 195  Pc1Bs1_phi   0.00000e+00     fixed    
 196  Pc1Bs2_amp   0.00000e+00     fixed    
 197  Pc1Bs2_phi   0.00000e+00     fixed    
 198  Pc1Bs3_amp   0.00000e+00     fixed    
 199  Pc1Bs3_phi   0.00000e+00     fixed    
 200  Pc2Bw1_amp   0.00000e+00     fixed    
 201  Pc2Bw1_phi   0.00000e+00     fixed    
 202  Pc2Bw2_amp   0.00000e+00     fixed    
 203  Pc2Bw2_phi   0.00000e+00     fixed    
 204  Pc2Bs1_amp   0.00000e+00     fixed    
 205  Pc2Bs1_phi   0.00000e+00     fixed    
 206  Pc2Bs2_amp   0.00000e+00     fixed    
 207  Pc2Bs2_phi   0.00000e+00     fixed    
 208  Pc2Bs3_amp   0.00000e+00     fixed    
 209  Pc2Bs3_phi   0.00000e+00     fixed    
 210  M01          4.29749e+00     fixed    
 211  M02          4.40093e+00     fixed    
 212  gamma1       1.56593e-01     fixed    
 213  gamma2       3.11330e-02     fixed    
 214  comb_bg_norm   5.77904e+04   2.25573e+02  -5.92810e-03   1.11126e-06
 EXTERNAL ERROR MATRIX.    NDIM= 215    NPAR=  6    ERR DEF=1
  1.013e+05  3.888e+03 -5.774e+03 -2.423e+04 -4.330e+04 -2.641e+04 
  3.888e+03  1.017e+04 -6.023e+03 -1.189e+03 -9.653e+02 -2.984e+03 
 -5.774e+03 -6.023e+03  1.976e+04 -1.894e+04  1.181e+04  5.831e+02 
 -2.423e+04 -1.189e+03 -1.894e+04  1.273e+05 -6.252e+04  4.074e+03 
 -4.330e+04 -9.653e+02  1.181e+04 -6.252e+04  1.008e+05  2.353e+03 
 -2.641e+04 -2.984e+03  5.831e+02  4.074e+03  2.353e+03  5.088e+04 
 PARAMETER  CORRELATION COEFFICIENTS  
       NO.  GLOBAL     81     82     83     84     85    214
       81  0.77554   1.000  0.121 -0.129 -0.213 -0.428 -0.368
       82  0.49100   0.121  1.000 -0.425 -0.033 -0.030 -0.131
       83  0.61794  -0.129 -0.425  1.000 -0.378  0.265  0.018
       84  0.80517  -0.213 -0.033 -0.378  1.000 -0.552  0.051
       85  0.80538  -0.428 -0.030  0.265 -0.552  1.000  0.033
      214  0.46024  -0.368 -0.131  0.018  0.051  0.033  1.000

After fit statistics:

signal area:

n_BD_to_JPSI_K_PI	34282.6	0.649262
n_BS_to_JPSI_K_K	9929.97	0.188059
n_BS_to_JPSI_PI_PI	78.3557	0.00148394
n_BD_to_JPSI_PI_PI	542.018	0.010265
n_LAMBDA0B_to_JPSI_P_K	4106.3	0.0777673
n_comb_bg	3863.15	0.0731624
describing:	0.984715

control area:

n_BD_to_JPSI_K_PI	11782.9
n_BS_to_JPSI_K_K	10711
n_BS_to_JPSI_PI_PI	3.66599
n_BD_to_JPSI_PI_PI	39.1927
n_LAMBDA0B_to_JPSI_P_K	2303.32
n_comb_bg	3848.19
describing:	1.00937

control area Lb:

n_BD_to_JPSI_K_PI	10477.7
n_BS_to_JPSI_K_K	5523.4
n_BS_to_JPSI_PI_PI	100.756
n_BD_to_JPSI_PI_PI	276.79
n_LAMBDA0B_to_JPSI_P_K	6350.36
n_comb_bg	9778.29

JpsiK_2d_K1410_1	257317
JpsiK_2d_K1430_0	135707
JpsiK_2d_K1430_2	104671
JpsiK_2d_K1680_1	239208
JpsiK_2d_K1780_3	69879.4
JpsiK_2d_K1950_0	6058.07
JpsiK_2d_K1980_2	108837
JpsiK_2d_K2045_4	64971.4
JpsiK_2d_Zc4200		0


JpsiK_2d_K1410_1	8940.85
JpsiK_2d_K1430_0	4715.33
JpsiK_2d_K1430_2	3636.94
JpsiK_2d_K1680_1	8311.65
JpsiK_2d_K1780_3	2428.06
JpsiK_2d_K1950_0	210.497
JpsiK_2d_K1980_2	3781.72
JpsiK_2d_K2045_4	2257.53
JpsiK_2d_Zc4200		0

nbins 	297

49862.7	50648

OLD:

OLD signal area:

n_BD_to_JPSI_K_PI	31816.3	0.638079
n_BS_to_JPSI_K_K	9443.76	0.189395
n_BS_to_JPSI_PI_PI	47.0108	0.000942805
n_BD_to_JPSI_PI_PI	245.231	0.00491813
n_LAMBDA0B_to_JPSI_P_K	3225.92	0.0646961
n_comb_bg	5084.41	0.101968
62
40

NEW:

NEW:

n_BD_to_JPSI_K_PI	34282.4	0.654716
n_BS_to_JPSI_K_K	9929.95	0.18964
n_BS_to_JPSI_PI_PI	78.3557	0.00149642
n_BD_to_JPSI_PI_PI	542.018	0.0103513
n_LAMBDA0B_to_JPSI_P_K	4106.3	0.078421
n_comb_bg	3423.2	0.0653754
pK_Kp_2d_bg	56682.4
pK_Kp_2d_BS_to_JPSI_PI_PI	5895.26
pK_Kp_2d_BD_to_JPSI_PI_PI	2988.02
pK_Kp_2d_BS_to_JPSI_K_K	17011.3
pK_Kp_2d_BD_to_JPSI_K_PI	48785.8
pK_Kp_2d_LAMBDA0B_to_JPSI_P_K	10216.3
Minimized function: -3.03568e+06


 Comb_bg Integral KpipiK:	57790.4


 Comb_bg Integral KK:	57790.4


 Comb_bg Integral pipi:	57790.4


 Comb_bg Integral pKKp:	56682.4


 Comb_bg Integral pKKp rotate:	56682.4


 Comb_bg_true : 	57779.2


_________________________________________________________

